[
  {
    "cover": "nosh-quick-easy.webp",
    "isbn": 9780956746481,
    "title": "Nosh: Quick & Easy"
  },
  {
    "cover": "bbc-good-food-low-fat-feasts.webp",
    "isbn": 9781849909129,
    "title": "BBC Good Food: Low-fat Feasts"
  },
  {
    "cover": "nosh-for-graduates.webp",
    "isbn": 9780954317959,
    "title": "Nosh for graduates"
  },
  {
    "cover": "the-half-hour-cook.webp",
    "isbn": 9780754817109,
    "title": "The Half Hour Cook"
  },
  {
    "cover": "bbc-good-food-one-pot-dishes.webp",
    "isbn": 9781849908658,
    "title": "BBC Good Food: One-pot Dishes"
  },
  {
    "cover": "bbc-good-food-pasta-noodle-dishes.webp",
    "isbn": 9780563522201,
    "title": "BBC Good Food: Pasta & Noodle Dishes"
  },
  {
    "cover": "simple-by-ottolenghi.webp",
    "isbn": 9781785031168,
    "title": "SIMPLE by Ottolenghi"
  },
  {
    "cover": "mob-kitchen.webp",
    "isbn": 9781911624011,
    "title": "Mob Kitchen"
  },
  {
    "cover": "caribbean-food-made-easy.webp",
    "isbn": 9781845338909,
    "title": "Caribbean Food Made Easy"
  },
  {
    "cover": "bbc-good-food-slow-cooker-favourites.webp",
    "isbn": 9781849908696,
    "title": "BBC Good Food: Slow Cooker Favourites"
  },
  {
    "cover": "pimp-my-rice.webp",
    "isbn": 9781848992788,
    "title": "Pimp My Rice"
  },
  {
    "cover": "bbc-good-food-cheap-healthy.webp",
    "isbn": 9781785943317,
    "title": "BBC Good Food: Cheap & Healthy"
  },
  {
    "cover": "flavour-by-ottolenghi.webp",
    "isbn": 9781785038938,
    "title": "FLAVOUR by Ottolenghi"
  },
  {
    "cover": "sweet-by-ottolenghi.webp",
    "isbn": 9781785031144,
    "title": "SWEET by Ottolenghi"
  },
  {
    "cover": "the-great-british-bake-off-how-to-bake.webp",
    "isbn": 9781849902687,
    "title": "The Great British Bake Off: How to Bake"
  },
  {
    "cover": "persiana.webp",
    "isbn": 9781845339104,
    "title": "Persiana"
  },
  {
    "cover": "ottolenghi-test-kitchen-shelf-love.webp",
    "isbn": 9781529109481,
    "title": "Ottolenghi Test Kitchen: Shelf Love"
  },
  {
    "cover": "bosh.webp",
    "isbn": 9780008262907,
    "title": "Bosh!"
  },
  {
    "cover": "falastin.webp",
    "isbn": 9781785038723,
    "title": "Falastin"
  },
  {
    "cover": "the-easy-puerto-rican-cookbook.webp",
    "isbn": 9781646118038,
    "title": "The Easy Puerto Rican Cookbook"
  },
  {
    "cover": "easy-portuguese-cookbook.webp",
    "isbn": 9781646116447,
    "title": "Easy Portuguese Cookbook"
  },
  {
    "cover": "my-lebanese-cookbook.webp",
    "isbn": 9781641527408,
    "title": "My Lebanese Cookbook"
  },
  {
    "cover": "the-vegan-japanese-cookbook.webp",
    "isbn": 9781638070306,
    "title": "The Vegan Japanese Cookbook"
  },
  {
    "cover": "nosh-for-students.webp",
    "isbn": 9780956746474,
    "title": "Nosh for Students"
  },
  {
    "cover": "the-complete-italian-cookbook.webp",
    "isbn": 9781646114177,
    "title": "The Complete Italian Cookbook"
  },
  {
    "cover": "who-put-the-beef-in-wellington.webp",
    "isbn": 9780857830821,
    "title": "Who Put the Beef in Wellington"
  },
  {
    "cover": "pinch-of-nom-comfort-food.webp",
    "isbn": 9781529035018,
    "title": "Pinch of Nom Comfort Food"
  },
  {
    "cover": "mowgli-street-food.webp",
    "isbn": 9781848993266,
    "title": "Mowgli Street Food"
  },
  {
    "cover": "foolproof-freezer-60-fuss-free-meals-that-make-the-most-of-your-freezer.webp",
    "isbn": 9781787136595,
    "title": "Foolproof Freezer: 60 Fuss-Free Meals that Make the Most of Your Freezer"
  },
  {
    "cover": "foolproof-one-pot-60-simple-and-satisfying-recipes.webp",
    "isbn": 9781787135949,
    "title": "Foolproof One-Pot: 60 Simple and Satisfying Recipes"
  },
  {
    "cover": "foolproof-slowcooker-60-essential-recipes-that-make-the-most-of-your-slow-cooker.webp",
    "isbn": 9781787139008,
    "title": "Foolproof Slowcooker: 60 Essential Recipes that Make the Most of Your Slow Cooker"
  },
  {
    "cover": "30-minute-mowgli.webp",
    "isbn": 9781848994003,
    "title": "30 Minute Mowgli"
  },
  {
    "cover": "meat-free-mowgli.webp",
    "isbn": 9781848994119,
    "title": "Meat Free Mowgli"
  },
  {
    "cover": "pinch-of-nom-enjoy.webp",
    "isbn": 9781529062267,
    "title": "Pinch of Nom Enjoy"
  },
  {
    "cover": "nosh-for-students-vol-2.webp",
    "isbn": 9780956746467,
    "title": "Nosh for Students Vol 2"
  },
  {
    "cover": "the-modern-tagine-cookbook.webp",
    "isbn": 9781788791434,
    "title": "The Modern Tagine Cookbook"
  },
  {
    "cover": "persiana-everyday.webp",
    "isbn": 9781783255146,
    "title": "Persiana Everyday"
  },
  {
    "cover": "sumac.webp",
    "isbn": 9781761061707,
    "title": "Sumac"
  },
  {
    "cover": "foolproof-veggie-one-pot-60-vibrant-and-easy-going-vegetarian-dishes.webp",
    "isbn": 9781787138377,
    "title": "Foolproof Veggie One-Pot: 60 Vibrant and Easy-Going Vegetarian Dishes"
  },
  {
    "cover": "meat-free-mexican.webp",
    "isbn": 9781529371857,
    "title": "Meat-free Mexican"
  },
  {
    "cover": "lemongrass-and-ginger.webp",
    "isbn": 9781848990074,
    "title": "Lemongrass and Ginger"
  },
  {
    "cover": "foolproof-roasting-pan.webp",
    "isbn": 9781787139824,
    "title": "Foolproof Roasting Pan: 60 Effortless One-Pan Recipes Packed with Flavour"
  },
  {
    "cover": "ottolenghi-test-kitchen-extra-good-things.webp",
    "isbn": 9780525611622,
    "title": "Ottolenghi Test Kitchen: Extra Good Things"
  },
  {
    "cover": "fire-and-spice.webp",
    "isbn": 9781848993785,
    "title": "Fire and Spice"
  },
  {
    "cover": "nadiya-s-fast-flavours.webp",
    "isbn": 9780241453223,
    "title": "Nadiya's Fast Flavours"
  },
  {
    "cover": "bazaar.webp",
    "isbn": 9781784726133,
    "title": "Bazaar"
  },
  {
    "cover": "simply.webp",
    "isbn": 9781784727222,
    "title": "Simply"
  },
  {
    "cover": "the-quick-roasting-tin.webp",
    "isbn": 9781473565791,
    "title": "The Quick Roasting Tin"
  },
  {
    "cover": "the-green-roasting-tin.webp",
    "isbn": 9781473556515,
    "title": "The Green Roasting Tin"
  },
  {
    "cover": "pinch-of-nom-express.webp",
    "isbn": 9781529062298,
    "title": "Pinch of Nom Express"
  },
  {
    "cover": "the-salmon-sisters.webp",
    "isbn": 9781632172266,
    "title": "The Salmon Sisters"
  },
  {
    "cover": "bbc-good-food-best-breads.webp",
    "isbn": 9781473533233,
    "title": "BBC Good Food: Best Breads"
  },
  {
    "cover": "the-sweet-roasting-tin.webp",
    "isbn": 9781473595064,
    "title": "The Sweet Roasting Tin"
  },
  {
    "cover": "sirocco.webp",
    "isbn": 9781784720728,
    "title": "Sirocco"
  },
  {
    "cover": "the-pasta-queen.webp",
    "isbn": 9781982195168,
    "title": "The Pasta Queen"
  },
  {
    "cover": "wagamama-feed-your-soul.webp",
    "isbn": 9780857837035,
    "title": "Wagamama: Feed Your Soul"
  },
  {
    "cover": "foolproof-fish-60-delicious-dishes-to-make-at-home.webp",
    "isbn": 9781787137929,
    "title": "Foolproof Fish: 60 Delicious Dishes to Make at Home"
  },
  {
    "cover": "danube.webp",
    "isbn": 9781784887049,
    "title": "Danube"
  }
]