{
  "archiveTimestamp": null,
  "archiveUrl": null,
  "category": "Poultry",
  "cookTime": "PT15M",
  "cuisine": null,
  "dairyFree": false,
  "dateCooked": "2015-10-18",
  "deadUrl": false,
  "description": "Tagines  typically sit in the oven for long periods of time which, if you have got the time, is great. Most people want things a little quicker though, so we wanted to try and get the flavour without all that time. This one is packed with fruity flavours and the unmistakable spices of a tagine, in a fraction of the time.",
  "future": false,
  "glutenFree": false,
  "image": "almonds-and-apricot-chicken-tagine.webp",
  "inactiveTime": null,
  "ingredient_headings": {
    "1": "Couscous"
  },
  "ingredients": [
    {
      "comment": "",
      "fdc_id": 2343925,
      "formatted_quantity": "1",
      "group": 1,
      "name": "couscous",
      "prep": "",
      "quantity": "1",
      "synonym": "",
      "unit": "mug"
    },
    {
      "comment": "",
      "fdc_id": 173647,
      "formatted_quantity": "2",
      "group": 1,
      "name": "boiling water",
      "prep": "",
      "quantity": "2",
      "synonym": "",
      "unit": "mugs"
    },
    {
      "comment": "",
      "fdc_id": 2345664,
      "formatted_quantity": "1",
      "group": 1,
      "name": "vegetable stock cube",
      "prep": "",
      "quantity": "1",
      "synonym": "",
      "unit": ""
    },
    {
      "comment": "",
      "fdc_id": 2345302,
      "formatted_quantity": "2",
      "group": 1,
      "name": "freshly chopped coriander",
      "prep": "",
      "quantity": "2",
      "synonym": "coriander",
      "unit": "tbsp"
    },
    {
      "comment": "",
      "fdc_id": 1750351,
      "formatted_quantity": "1",
      "group": -1,
      "name": "olive oil",
      "prep": "",
      "quantity": "1",
      "synonym": "oil",
      "unit": "tbsp"
    },
    {
      "comment": "",
      "fdc_id": 790646,
      "formatted_quantity": "1",
      "group": -1,
      "name": "onion",
      "prep": "sliced",
      "quantity": "1",
      "synonym": "",
      "unit": "large"
    },
    {
      "comment": "",
      "fdc_id": 1104647,
      "formatted_quantity": "2",
      "group": -1,
      "name": "garlic",
      "prep": "finely chopped",
      "quantity": "2",
      "synonym": "",
      "unit": "cloves"
    },
    {
      "comment": "",
      "fdc_id": 2646170,
      "formatted_quantity": "3",
      "group": -1,
      "name": "chicken breasts",
      "prep": "cut into bitesized pieces",
      "quantity": "3",
      "synonym": "chicken",
      "unit": ""
    },
    {
      "comment": "",
      "fdc_id": 171320,
      "formatted_quantity": "1",
      "group": -1,
      "name": "ground cinnamon",
      "prep": "",
      "quantity": "1",
      "synonym": "cinnamon",
      "unit": "tsp"
    },
    {
      "comment": "",
      "fdc_id": "",
      "formatted_quantity": "1",
      "group": -1,
      "name": "cinnamon stick",
      "prep": "",
      "quantity": "1",
      "synonym": "",
      "unit": ""
    },
    {
      "comment": "",
      "fdc_id": 170921,
      "formatted_quantity": "1",
      "group": -1,
      "name": "ground coriander",
      "prep": "",
      "quantity": "1",
      "synonym": "",
      "unit": "tsp"
    },
    {
      "comment": "",
      "fdc_id": 171329,
      "formatted_quantity": "½",
      "group": -1,
      "name": "paprika",
      "prep": "",
      "quantity": "0.5",
      "synonym": "",
      "unit": "tsp"
    },
    {
      "comment": "",
      "fdc_id": 171563,
      "formatted_quantity": "1½",
      "group": -1,
      "name": "water + 1 chicken stock cube",
      "prep": "",
      "quantity": "1.5",
      "synonym": "water",
      "unit": "mugs"
    },
    {
      "comment": "",
      "fdc_id": "",
      "formatted_quantity": "175",
      "group": -1,
      "name": "ready-to-eat dried apricots",
      "prep": "roughly chopped",
      "quantity": "175",
      "synonym": "apricots",
      "unit": "g"
    },
    {
      "comment": "",
      "fdc_id": 1999629,
      "formatted_quantity": "250",
      "group": -1,
      "name": "mushrooms",
      "prep": "sliced",
      "quantity": "250",
      "synonym": "",
      "unit": "g"
    },
    {
      "comment": "",
      "fdc_id": "",
      "formatted_quantity": "175",
      "group": -1,
      "name": "sultanas",
      "prep": "",
      "quantity": "175",
      "synonym": "",
      "unit": "g"
    },
    {
      "comment": "",
      "fdc_id": 169698,
      "formatted_quantity": "2",
      "group": -1,
      "name": "cornflour",
      "prep": "",
      "quantity": "2",
      "synonym": "",
      "unit": "tsp"
    },
    {
      "comment": "",
      "fdc_id": "",
      "formatted_quantity": "50",
      "group": -1,
      "name": "flaked almonds",
      "prep": "",
      "quantity": "50",
      "synonym": "",
      "unit": "g"
    },
    {
      "comment": "",
      "fdc_id": 2345302,
      "formatted_quantity": "",
      "group": -1,
      "name": "freshly chopped coriander",
      "prep": "",
      "quantity": "",
      "synonym": "coriander",
      "unit": "handful"
    }
  ],
  "instruction_headings": null,
  "instructions": [
    {
      "group": -1,
      "text": "Put the couscous in a large bowl, add the boiling water and stock cube and stir well to dissolve the stock. Cover the bowl with a plate or cling film, and leave to one side for at least {4 minutes}. Just before serving, add the fresh coriander.  "
    },
    {
      "group": -1,
      "text": "Heat the oil in a large frying pan or wok. Add the onions and garlic and fry until they begin to soften.  "
    },
    {
      "group": -1,
      "text": "Add the chicken and fry until no longer pink.  "
    },
    {
      "group": -1,
      "text": "Add the cinnamon, cinnamon stick, ground coriander, paprika, apricots, mushrooms, sultanas, water and stock. Bring to the boil and turn down to summer for {10 minutes}.  "
    },
    {
      "group": -1,
      "text": "Mix the cornflour with a little water and add to the pan. This should thicken the sauce.  "
    },
    {
      "group": -1,
      "text": "Just before serving, stir in the fresh coriander. Serve with the couscous and sprinkle over the flaked almonds. "
    }
  ],
  "lowEffort": false,
  "miseEnPlace": false,
  "name": "Almonds and apricot chicken tagine",
  "notes": null,
  "nutFree": false,
  "nutrition": null,
  "prepTime": "PT10M",
  "rating": "Neutral",
  "slug": "almonds-and-apricot-chicken-tagine",
  "source": "Nosh: Quick & Easy",
  "tags": null,
  "totalTime": "PT25M",
  "units": "metric",
  "url": null,
  "vegan": false,
  "yield_": "4"
}