{
  "archiveTimestamp": null,
  "archiveUrl": null,
  "category": "Seafood",
  "cookTime": "PT25M",
  "cuisine": null,
  "dairyFree": false,
  "dateCooked": "2016-11-14",
  "deadUrl": false,
  "description": null,
  "future": false,
  "glutenFree": false,
  "image": "asian-salmon-sweet-potato-tray-bake.webp",
  "inactiveTime": null,
  "ingredient_headings": null,
  "ingredients": [
    {
      "comment": "",
      "fdc_id": 2346404,
      "formatted_quantity": "1",
      "group": -1,
      "name": "sweet potato",
      "prep": "",
      "quantity": "1",
      "synonym": "",
      "unit": "large"
    },
    {
      "comment": "",
      "fdc_id": "",
      "formatted_quantity": "2",
      "group": -1,
      "name": "lemongrass",
      "prep": "",
      "quantity": "2",
      "synonym": "",
      "unit": "stalks"
    },
    {
      "comment": "",
      "fdc_id": 169231,
      "formatted_quantity": "2½",
      "group": -1,
      "name": "ginger",
      "prep": "",
      "quantity": "2.5",
      "synonym": "",
      "unit": "cm piece"
    },
    {
      "comment": "",
      "fdc_id": 1104647,
      "formatted_quantity": "2",
      "group": -1,
      "name": "garlic",
      "prep": "",
      "quantity": "2",
      "synonym": "",
      "unit": "cloves"
    },
    {
      "comment": "",
      "fdc_id": 2345747,
      "formatted_quantity": "1",
      "group": -1,
      "name": "sesame oil",
      "prep": "",
      "quantity": "1",
      "synonym": "",
      "unit": "tsp"
    },
    {
      "comment": "",
      "fdc_id": 2345664,
      "formatted_quantity": "150",
      "group": -1,
      "name": "vegetable stock",
      "prep": "",
      "quantity": "150",
      "synonym": "stock",
      "unit": "ml"
    },
    {
      "comment": "",
      "fdc_id": 2343044,
      "formatted_quantity": "150",
      "group": -1,
      "name": "reduced fat coconut milk",
      "prep": "",
      "quantity": "150",
      "synonym": "coconut milk",
      "unit": "ml"
    },
    {
      "comment": "",
      "fdc_id": "",
      "formatted_quantity": "1",
      "group": -1,
      "name": "lime or 6-8 lime leaves",
      "prep": "",
      "quantity": "1",
      "synonym": "",
      "unit": ""
    },
    {
      "comment": "",
      "fdc_id": 170106,
      "formatted_quantity": "1",
      "group": -1,
      "name": "long red chilli",
      "prep": "",
      "quantity": "1",
      "synonym": "chilli",
      "unit": ""
    },
    {
      "comment": "",
      "fdc_id": 2341700,
      "formatted_quantity": "4x",
      "group": -1,
      "name": "salmon fillets",
      "prep": "",
      "quantity": "4x",
      "synonym": "fish",
      "unit": "150 g"
    },
    {
      "comment": "to serve",
      "fdc_id": 2345507,
      "formatted_quantity": "",
      "group": -1,
      "name": "mangetout",
      "prep": "",
      "quantity": "",
      "synonym": "",
      "unit": ""
    },
    {
      "comment": "",
      "fdc_id": 2342917,
      "formatted_quantity": "",
      "group": -1,
      "name": "soy sauce",
      "prep": "",
      "quantity": "",
      "synonym": "",
      "unit": ""
    }
  ],
  "instruction_headings": null,
  "instructions": [
    {
      "group": -1,
      "text": "Preheat the oven to [190°C]/gas <5>. Scrub the sweet potato clean, then slice into thin rounds. Arrange the slices overlapping in a large roasting tin."
    },
    {
      "group": -1,
      "text": "Bruise the lemongrass, then finely chop the tender parts. Peel and finely chop the ginger and garlic. Peel and finely slice the chilli.  "
    },
    {
      "group": -1,
      "text": "Mix the sesame oil, stock, coconut milk and two thirds each of the lemongrass, ginger and garlic. Pour over the potatoes, squeeze the lime juice of the top and scatter over the zest, and sprinkle with the chilli.  "
    },
    {
      "group": -1,
      "text": "Roast for {20-25 minutes} or until the potatoes are cooked. About {8-10 minutes} before the cooking time is up, sit the fish on the potatoes and top with the rest of the lemongrass, ginger and garlic.  "
    },
    {
      "group": -1,
      "text": "When the fish is just cooked, drizzle with soy sauce. Serve with mangetout."
    }
  ],
  "lowEffort": false,
  "miseEnPlace": false,
  "name": "Asian salmon & sweet potato tray bake",
  "notes": null,
  "nutFree": false,
  "nutrition": null,
  "prepTime": "PT15M",
  "rating": "Neutral",
  "slug": "asian-salmon-sweet-potato-tray-bake",
  "source": "Sainsbury's",
  "tags": null,
  "totalTime": "PT40M",
  "units": "metric",
  "url": null,
  "vegan": false,
  "yield_": "3"
}