{
  "archiveTimestamp": "2023-11-22 14:06:04",
  "archiveUrl": "https://web.archive.org/web/20231122140604/https://www.simplybeefandlamb.co.uk/recipes/asian-spiced-burgers-with-mango-salsa/",
  "category": "RedMeat",
  "cookTime": "PT16M",
  "cuisine": null,
  "dairyFree": false,
  "dateCooked": "2023-02-11",
  "deadUrl": false,
  "description": "Asian Spiced Burgers with Mango Salsa",
  "future": false,
  "glutenFree": false,
  "image": "asian-spiced-burgers-with-mango-salsa.webp",
  "inactiveTime": null,
  "ingredient_headings": {
    "1": "For the mango salsa"
  },
  "ingredients": [
    {
      "comment": "",
      "fdc_id": "",
      "formatted_quantity": "450",
      "group": -1,
      "name": "lean beef mince",
      "prep": "",
      "quantity": "450",
      "synonym": "",
      "unit": "g"
    },
    {
      "comment": "",
      "fdc_id": "790646",
      "formatted_quantity": "1",
      "group": -1,
      "name": "onion",
      "prep": "peeled and grated",
      "quantity": "1",
      "synonym": "",
      "unit": ""
    },
    {
      "comment": "",
      "fdc_id": "",
      "formatted_quantity": "2",
      "group": -1,
      "name": "garlic paste or 2 large garlic clove",
      "prep": "peeled and finely chopped",
      "quantity": "2",
      "synonym": "",
      "unit": "tsp"
    },
    {
      "comment": "",
      "fdc_id": "169231",
      "formatted_quantity": "2",
      "group": -1,
      "name": "fresh root ginger",
      "prep": "peeled and finely chopped",
      "quantity": "2",
      "synonym": "",
      "unit": "tsp"
    },
    {
      "comment": "",
      "fdc_id": "2124946",
      "formatted_quantity": "1",
      "group": -1,
      "name": "garam masala",
      "prep": "",
      "quantity": "1",
      "synonym": "",
      "unit": "tablespoon"
    },
    {
      "comment": "",
      "fdc_id": "172231",
      "formatted_quantity": "1",
      "group": -1,
      "name": "ground turmeric",
      "prep": "",
      "quantity": "1",
      "synonym": "",
      "unit": "tsp"
    },
    {
      "comment": "",
      "fdc_id": "2345302",
      "formatted_quantity": "1-2",
      "group": -1,
      "name": "freshly chopped coriander",
      "prep": "",
      "quantity": "1-2",
      "synonym": "",
      "unit": "tbsp"
    },
    {
      "comment": "",
      "fdc_id": "2344737",
      "formatted_quantity": "1",
      "group": 1,
      "name": "ripe mango",
      "prep": "peeled, stoned and finely chopped",
      "quantity": "1",
      "synonym": "",
      "unit": ""
    },
    {
      "comment": "",
      "fdc_id": "790577",
      "formatted_quantity": "1",
      "group": 1,
      "name": "red onion",
      "prep": "peeled and finely chopped",
      "quantity": "1",
      "synonym": "",
      "unit": "small"
    },
    {
      "comment": "optional",
      "fdc_id": "170106",
      "formatted_quantity": "1",
      "group": 1,
      "name": "red chilli",
      "prep": "deseeded and finely chopped",
      "quantity": "1",
      "synonym": "",
      "unit": ""
    },
    {
      "comment": "",
      "fdc_id": "173475",
      "formatted_quantity": "2",
      "group": 1,
      "name": "freshly chopped mint",
      "prep": "",
      "quantity": "2",
      "synonym": "",
      "unit": "tbsp"
    },
    {
      "comment": "",
      "fdc_id": "2345302",
      "formatted_quantity": "1",
      "group": 1,
      "name": "freshly chopped coriander",
      "prep": "",
      "quantity": "1",
      "synonym": "",
      "unit": "tbsp"
    },
    {
      "comment": "",
      "fdc_id": "",
      "formatted_quantity": "",
      "group": 1,
      "name": "Grated zest and juice of 1 lime",
      "prep": "",
      "quantity": "",
      "synonym": "",
      "unit": ""
    }
  ],
  "instruction_headings": null,
  "instructions": [
    {
      "group": -1,
      "text": "In a large, shallow bowl mix all the burger ingredients together."
    },
    {
      "group": -1,
      "text": "Using slightly damp hands shape the mixture into <4> x <9>cm. Cover and chill for {20 minutes}."
    },
    {
      "group": -1,
      "text": "To make the salsa, mix all the salsa ingredients together in a large bowl, cover and set aside in a cool place, but not the refrigerator."
    },
    {
      "group": -1,
      "text": "Cook the burgers on a prepared barbecue or preheated grill for {6-8 minutes} on each side until cooked and any meat juices run clear."
    },
    {
      "group": -1,
      "text": "Serve the burgers in mini naans with the salsa."
    }
  ],
  "lowEffort": false,
  "miseEnPlace": false,
  "name": "Asian spiced burgers with mango salsa",
  "notes": null,
  "nutFree": false,
  "nutrition": null,
  "prepTime": "PT15M",
  "rating": "Neutral",
  "slug": "asian-spiced-burgers-with-mango-salsa",
  "source": "www.simplybeefandlamb.co.uk",
  "tags": [
    "beef",
    "burger"
  ],
  "totalTime": "PT31M",
  "units": "metric",
  "url": "https://www.simplybeefandlamb.co.uk/recipes/asian-spiced-burgers-with-mango-salsa/",
  "vegan": false,
  "yield_": "4"
}