{
  "archiveTimestamp": null,
  "archiveUrl": null,
  "category": "RedMeat",
  "cookTime": "PT90M",
  "cuisine": null,
  "dairyFree": false,
  "dateCooked": "2017-09-10",
  "deadUrl": false,
  "description": null,
  "future": false,
  "glutenFree": false,
  "image": "baked-lamb-vegetables-and-rice.webp",
  "inactiveTime": null,
  "ingredient_headings": null,
  "ingredients": [
    {
      "comment": "",
      "fdc_id": "",
      "formatted_quantity": "1",
      "group": -1,
      "name": "lamb off the bone",
      "prep": "",
      "quantity": "1",
      "synonym": "meat",
      "unit": "kg"
    },
    {
      "comment": "",
      "fdc_id": 790577,
      "formatted_quantity": "2",
      "group": -1,
      "name": "red onions",
      "prep": "",
      "quantity": "2",
      "synonym": "onions",
      "unit": "large"
    },
    {
      "comment": "",
      "fdc_id": 1104647,
      "formatted_quantity": "3-4",
      "group": -1,
      "name": "garlic",
      "prep": "",
      "quantity": "3-4",
      "synonym": "",
      "unit": "cloves"
    },
    {
      "comment": "aubergines, courgettes, chard, carrots, peppers, green beans, pumpkin",
      "fdc_id": "",
      "formatted_quantity": "1½",
      "group": -1,
      "name": "mixed vegetables",
      "prep": "",
      "quantity": "1.5",
      "synonym": "",
      "unit": "kg"
    },
    {
      "comment": "",
      "fdc_id": 1750351,
      "formatted_quantity": "150",
      "group": -1,
      "name": "olive oil",
      "prep": "",
      "quantity": "150",
      "synonym": "oil",
      "unit": "ml"
    },
    {
      "comment": "tinned is fine",
      "fdc_id": 1999634,
      "formatted_quantity": "500",
      "group": -1,
      "name": "tomatoes",
      "prep": "",
      "quantity": "500",
      "synonym": "",
      "unit": "g"
    },
    {
      "comment": "",
      "fdc_id": 746775,
      "formatted_quantity": "1",
      "group": -1,
      "name": "salt",
      "prep": "",
      "quantity": "1",
      "synonym": "",
      "unit": "tsp"
    },
    {
      "comment": "",
      "fdc_id": "",
      "formatted_quantity": "1",
      "group": -1,
      "name": "powdered chilli",
      "prep": "",
      "quantity": "1",
      "synonym": "chilli",
      "unit": "tsp"
    },
    {
      "comment": "",
      "fdc_id": "",
      "formatted_quantity": "125",
      "group": -1,
      "name": "risotto rice",
      "prep": "",
      "quantity": "125",
      "synonym": "rice",
      "unit": "g"
    }
  ],
  "instruction_headings": null,
  "instructions": [
    {
      "group": -1,
      "text": "Trim and cube the meat into bite-sized pieces. Skin and slice the onions and garlic. Hull, scrape and slice or chunk the vegetables as appropriate. Scaled the tomatoes to loosen the skins then peel and chop.  "
    },
    {
      "group": -1,
      "text": "Warm half of the olive oil in a frying pan. Put in the onions and garlic and fry them until they turn pale gold, then push them to one side and add the meat. Fry gently for a moment and then season with salt and chilli.  "
    },
    {
      "group": -1,
      "text": "Transfer the meat and onion mixture with its oil to a wide shallow baking dish. Cover the meat with a layer of vegetables. Season again. Sprinkly in a layer of rice. Finish with a layer of the sliced tomatoes.  "
    },
    {
      "group": -1,
      "text": "Pour in enough boiling water to submerge to a depth of one finger. Trickle with the rest of the oil.  "
    },
    {
      "group": -1,
      "text": "Cover the dish and put it to bake in a moderate oven, [180°C]/Gas <4> for {1½ hours}.  "
    },
    {
      "group": -1,
      "text": "Take off the lid for the final {20 minutes}. The kitchen will fill with the enticing scent and the cooking liquid will be concentrated into a rich sauce.  "
    }
  ],
  "lowEffort": false,
  "miseEnPlace": false,
  "name": "Baked lamb, vegetables and rice",
  "notes": null,
  "nutFree": false,
  "nutrition": null,
  "prepTime": "PT25M",
  "rating": "Neutral",
  "slug": "baked-lamb-vegetables-and-rice",
  "source": "European Peasant Cookery",
  "tags": [
    "lamb"
  ],
  "totalTime": "PT115M",
  "units": "metric",
  "url": null,
  "vegan": false,
  "yield_": "4"
}