{
  "archiveTimestamp": "2023-11-21 19:38:48",
  "archiveUrl": "https://web.archive.org/web/20231121193848/https://www.sainsburysmagazine.co.uk/recipes/mains/baked-sweet-potato-with-easy-black-bean-chilli",
  "category": "Veggie",
  "cookTime": "PT1H20M",
  "cuisine": "Mexican",
  "dairyFree": false,
  "dateCooked": "2021-05-23",
  "deadUrl": false,
  "description": "Step-by-step method for making baked sweet potato with easy black bean chilli yourself.",
  "future": false,
  "glutenFree": false,
  "image": "baked-sweet-potato-with-easy-black-bean-chilli.webp",
  "inactiveTime": null,
  "ingredient_headings": {
    "1": "To serve"
  },
  "ingredients": [
    {
      "comment": "around 275 g-300 g each",
      "fdc_id": "",
      "formatted_quantity": "4x",
      "group": -1,
      "name": "baking sweet potatoes",
      "prep": "",
      "quantity": "4x",
      "synonym": "sweet potatoes",
      "unit": ""
    },
    {
      "comment": "",
      "fdc_id": "",
      "formatted_quantity": "",
      "group": -1,
      "name": "fine sea salt",
      "prep": "",
      "quantity": "",
      "synonym": "",
      "unit": ""
    },
    {
      "comment": "",
      "fdc_id": "790646",
      "formatted_quantity": "1",
      "group": -1,
      "name": "onion",
      "prep": "finely chopped",
      "quantity": "1",
      "synonym": "",
      "unit": ""
    },
    {
      "comment": "",
      "fdc_id": "1750349",
      "formatted_quantity": "1",
      "group": -1,
      "name": "sunflower oil",
      "prep": "",
      "quantity": "1",
      "synonym": "",
      "unit": "tbsp"
    },
    {
      "comment": "",
      "fdc_id": "",
      "formatted_quantity": "1x",
      "group": -1,
      "name": "taco seasoning mix",
      "prep": "",
      "quantity": "1x",
      "synonym": "",
      "unit": "30 g pack"
    },
    {
      "comment": "",
      "fdc_id": "170460",
      "formatted_quantity": "1",
      "group": -1,
      "name": "tomato puree",
      "prep": "",
      "quantity": "1",
      "synonym": "",
      "unit": "tbsp"
    },
    {
      "comment": "",
      "fdc_id": "2644285",
      "formatted_quantity": "2x",
      "group": -1,
      "name": "black beans",
      "prep": "rinsed and drained",
      "quantity": "2x",
      "synonym": "",
      "unit": "380 g carton"
    },
    {
      "comment": "",
      "fdc_id": "",
      "formatted_quantity": "15",
      "group": -1,
      "name": "Belgian dark cooking chocolate",
      "prep": "chopped",
      "quantity": "15",
      "synonym": "",
      "unit": "g"
    },
    {
      "comment": "",
      "fdc_id": "2346387",
      "formatted_quantity": "4",
      "group": 1,
      "name": "soured cream",
      "prep": "",
      "quantity": "4",
      "synonym": "",
      "unit": "generous tbsp"
    },
    {
      "comment": "",
      "fdc_id": "2344719",
      "formatted_quantity": "1",
      "group": 1,
      "name": "avocado",
      "prep": "sliced",
      "quantity": "1",
      "synonym": "",
      "unit": ""
    },
    {
      "comment": "",
      "fdc_id": "2345302",
      "formatted_quantity": "2",
      "group": 1,
      "name": "coriander leaves",
      "prep": "chopped",
      "quantity": "2",
      "synonym": "",
      "unit": "tbsp"
    },
    {
      "comment": "",
      "fdc_id": "170106",
      "formatted_quantity": "½",
      "group": 1,
      "name": "red chilli",
      "prep": "deseeded and finely chopped",
      "quantity": "0.5",
      "synonym": "",
      "unit": ""
    },
    {
      "comment": "to serve",
      "fdc_id": "",
      "formatted_quantity": "",
      "group": 1,
      "name": "lime zest",
      "prep": "",
      "quantity": "",
      "synonym": "",
      "unit": ""
    }
  ],
  "instruction_headings": null,
  "instructions": [
    {
      "group": -1,
      "text": "Preheat the oven to [200°C]/gas <7>. Scrub the sweet potatoes, prick with a fork and sprinkle with a little fine sea salt, which will stick to the damp skins. Bake directly on the oven shelf, but put a foil-lined baking tray on the shelf below to catch any sugary drips. Bake for {1 hour} or until soft. Split open (or halve), and top with one of the fillings below."
    },
    {
      "group": -1,
      "text": "In a large saucepan, soften the onion in the oil for {8-10 minutes} then add the taco seasoning mix and the tomato purée. Cook, stirring, for {1 minute} then add the black beans, the chocolate and <200> ml water. Simmer for {10 minutes}."
    },
    {
      "group": -1,
      "text": "Divide the black bean chilli between the halved or split sweet potatoes. Add a dollop of soured cream, sliced avocado, chopped coriander, red chilli and lime zest, to serve."
    }
  ],
  "lowEffort": false,
  "miseEnPlace": false,
  "name": "Baked sweet potato with easy black bean chilli",
  "notes": null,
  "nutFree": false,
  "nutrition": {
    "calories": 609,
    "carbohydrates": 90,
    "fat": 16,
    "fibre": 23,
    "protein": 14,
    "salt": 0.3,
    "saturates": 5,
    "sugars": 23
  },
  "prepTime": "PT0H15M",
  "rating": "Neutral",
  "slug": "baked-sweet-potato-with-easy-black-bean-chilli",
  "source": "www.sainsburysmagazine.co.uk",
  "tags": null,
  "totalTime": "PT1H35M",
  "units": "metric",
  "url": "https://www.sainsburysmagazine.co.uk/recipes/mains/baked-sweet-potato-with-easy-black-bean-chilli",
  "vegan": false,
  "yield_": "4"
}