{
  "archiveTimestamp": null,
  "archiveUrl": null,
  "category": "Dessert",
  "cookTime": "PT5M",
  "cuisine": null,
  "dairyFree": false,
  "dateCooked": "2023-03-17",
  "deadUrl": false,
  "description": "This indulgent Baklava Ice Cream Sundae captures the traditional flavors of the iconic Middle Eastern pastry with absolutely no fuss required. Delight your guests, friends, and family with layers of crispy phyllo dough, store bought vanilla ice cream, aromatic spiced nuts, and warmed honey in just 10 minutes.",
  "future": true,
  "glutenFree": false,
  "image": "baklava-ice-cream-sundae.webp",
  "inactiveTime": null,
  "ingredients": [
    {
      "comment": "",
      "fdc_id": 748608,
      "formatted_quantity": "¼",
      "name": "extra-virgin olive oil",
      "prep": "",
      "quantity": "0.25",
      "synonym": "",
      "unit": "cups"
    },
    {
      "comment": "",
      "fdc_id": "",
      "formatted_quantity": "4-6",
      "name": "sheet phyllo dough",
      "prep": "torn into piece the size of a deck of cards",
      "quantity": "4-6",
      "synonym": "",
      "unit": ""
    },
    {
      "comment": "",
      "fdc_id": "",
      "formatted_quantity": "½",
      "name": "crushed walnuts",
      "prep": "",
      "quantity": "0.5",
      "synonym": "",
      "unit": "cups"
    },
    {
      "comment": "",
      "fdc_id": 2515379,
      "formatted_quantity": "½",
      "name": "crushed pistachios",
      "prep": "",
      "quantity": "0.5",
      "synonym": "",
      "unit": "cups"
    },
    {
      "comment": "",
      "fdc_id": 171320,
      "formatted_quantity": "½",
      "name": "ground cinnamon",
      "prep": "",
      "quantity": "0.5",
      "synonym": "",
      "unit": "teaspoons"
    },
    {
      "comment": "",
      "fdc_id": 2345820,
      "formatted_quantity": "1",
      "name": "brown sugar",
      "prep": "",
      "quantity": "1",
      "synonym": "",
      "unit": "tablespoon"
    },
    {
      "comment": "",
      "fdc_id": 2341033,
      "formatted_quantity": "8",
      "name": "vanilla ice cream",
      "prep": "",
      "quantity": "8",
      "synonym": "",
      "unit": "scoops"
    },
    {
      "comment": "",
      "fdc_id": 2345841,
      "formatted_quantity": "½",
      "name": "honey",
      "prep": "warmed",
      "quantity": "0.5",
      "synonym": "",
      "unit": "cups"
    }
  ],
  "instructions": [
    "Fry the phyllo sheets: In a medium saucepan over medium heat, heat about <¼> cup of oil until shimmering. Once the oil is hot, add the phyllo and fry, turning, until it's crispy and golden brown on both sides (about {1-2 minutes} per side). Use a pair of tongs to transfer the crispy phyllo to a large paper towel-lined plate lined to drain any excess oil.",
    "Season the nuts: In a small bowl, combine the walnuts, pistachios, cinnamon, and brown sugar.",
    "Assemble and serve: In four small serving cups, add a bit of the crispy phyllo to the bottom. Top with one scoop of the ice cream, followed by a tablespoon of the nut mixture, and a drizzle of warmed honey. Add more of the crispy phyllo and repeat in the same pattern, adding a scoop of ice cream, more nuts, and a drizzle of honey to finish. Serve immediately."
  ],
  "name": "Baklava ice cream sundae",
  "notes": null,
  "nutFree": false,
  "nutrition": {
    "calories": 772.3,
    "carbohydrates": 85.4,
    "fat": 45.7,
    "fibre": 4.1,
    "protein": 11.5,
    "salt": 0.2006,
    "saturates": 12.9,
    "sugars": 67.3
  },
  "prepTime": "PT5M",
  "rating": "Neutral",
  "slug": "baklava-ice-cream-sundae",
  "source": "www.themediterraneandish.com",
  "tags": null,
  "totalTime": "PT10M",
  "units": "imperial",
  "url": "https://www.themediterraneandish.com/baklava-ice-cream-sundae/",
  "vegan": false,
  "yield_": "4"
}