{
  "archiveTimestamp": null,
  "archiveUrl": null,
  "category": "Poultry",
  "cookTime": "PT30M",
  "cuisine": null,
  "dairyFree": false,
  "dateCooked": "2015-10-03",
  "deadUrl": false,
  "description": "This balsamic sauce is rich and so yummy. Gluten-free: make sure the stock cubes are gluten-free.",
  "future": false,
  "glutenFree": true,
  "image": "balsamic-chicken-with-creamy-mash.webp",
  "inactiveTime": null,
  "ingredient_headings": {
    "1": "Mash",
    "2": "Balsamic sauce"
  },
  "ingredients": [
    {
      "comment": "",
      "fdc_id": 2346401,
      "formatted_quantity": "5",
      "group": 1,
      "name": "potatoes",
      "prep": "peeled and cut into 2 cm cubes",
      "quantity": "5",
      "synonym": "",
      "unit": "medium"
    },
    {
      "comment": "",
      "fdc_id": 789828,
      "formatted_quantity": "25",
      "group": 1,
      "name": "butter",
      "prep": "",
      "quantity": "25",
      "synonym": "",
      "unit": "g"
    },
    {
      "comment": "",
      "fdc_id": 2346386,
      "formatted_quantity": "2",
      "group": 1,
      "name": "double cream",
      "prep": "",
      "quantity": "2",
      "synonym": "cream",
      "unit": "tbsp"
    },
    {
      "comment": "",
      "fdc_id": 789828,
      "formatted_quantity": "25",
      "group": 2,
      "name": "butter",
      "prep": "",
      "quantity": "25",
      "synonym": "",
      "unit": "g"
    },
    {
      "comment": "",
      "fdc_id": 1750351,
      "formatted_quantity": "1",
      "group": 2,
      "name": "olive oil",
      "prep": "",
      "quantity": "1",
      "synonym": "",
      "unit": "tbsp"
    },
    {
      "comment": "",
      "fdc_id": 790577,
      "formatted_quantity": "2",
      "group": 2,
      "name": "red onions",
      "prep": "sliced",
      "quantity": "2",
      "synonym": "onions",
      "unit": ""
    },
    {
      "comment": "",
      "fdc_id": "",
      "formatted_quantity": "1",
      "group": 2,
      "name": "fresh rosemary leaves",
      "prep": "chopped",
      "quantity": "1",
      "synonym": "rosemary",
      "unit": "sprig"
    },
    {
      "comment": "",
      "fdc_id": 172241,
      "formatted_quantity": "6",
      "group": 2,
      "name": "balsamic vinegar",
      "prep": "",
      "quantity": "6",
      "synonym": "",
      "unit": "tbsp"
    },
    {
      "comment": "",
      "fdc_id": 2345841,
      "formatted_quantity": "2",
      "group": 2,
      "name": "runny honey",
      "prep": "",
      "quantity": "2",
      "synonym": "honey",
      "unit": "tbsp"
    },
    {
      "comment": "",
      "fdc_id": 173647,
      "formatted_quantity": "½",
      "group": 2,
      "name": "water",
      "prep": "",
      "quantity": "0.5",
      "synonym": "",
      "unit": "mug"
    },
    {
      "comment": "",
      "fdc_id": 171563,
      "formatted_quantity": "1",
      "group": 2,
      "name": "chicken stock cube",
      "prep": "",
      "quantity": "1",
      "synonym": "stock cube",
      "unit": ""
    },
    {
      "comment": "",
      "fdc_id": 1750351,
      "formatted_quantity": "1",
      "group": -1,
      "name": "olive oil",
      "prep": "",
      "quantity": "1",
      "synonym": "",
      "unit": "tbsp"
    },
    {
      "comment": "",
      "fdc_id": 2646170,
      "formatted_quantity": "4",
      "group": -1,
      "name": "chicken breasts",
      "prep": "",
      "quantity": "4",
      "synonym": "",
      "unit": ""
    },
    {
      "comment": "",
      "fdc_id": "",
      "formatted_quantity": "",
      "group": -1,
      "name": "sprouting broccoli",
      "prep": "",
      "quantity": "",
      "synonym": "",
      "unit": ""
    }
  ],
  "instruction_headings": null,
  "instructions": [
    {
      "group": -1,
      "text": "Put the potatoes in boiling water, bring to the boil and then turn down to simmer for {10 minutes}. Drain, return to the pan and mash with the <25> g butter and cream. Season well.  "
    },
    {
      "group": -1,
      "text": "Meanwhile, heat the butter in a saucepan and fry the onions until they begin to brown. Add the rosemary, balsamic vinegar, honey, water and stock cube. Season well, bring to the boil and simmer for {10 minutes}.  "
    },
    {
      "group": -1,
      "text": "Heat <1> tbsp of olive oil in a small frying pan and add the chicken breasts. Cook on a fairly high heat for {2 minutes} on each side. Turn down the heat to medium and fry for {4 minutes} on each side, with a lid on the pan. Cook for less time if the chicken breasts are small.  "
    },
    {
      "group": -1,
      "text": "Put the sprouting broccoli in boiling water and then turn down to simmer for {4-5 minutes}.  "
    },
    {
      "group": -1,
      "text": "Serve everything together."
    }
  ],
  "lowEffort": false,
  "miseEnPlace": false,
  "name": "Balsamic chicken with creamy mash",
  "notes": null,
  "nutFree": false,
  "nutrition": {
    "calories": 632,
    "carbohydrates": 62,
    "fat": 28,
    "fibre": 10,
    "protein": 37,
    "salt": 0.21,
    "saturates": 11,
    "sugars": 15
  },
  "prepTime": "PT10M",
  "rating": "Neutral",
  "slug": "balsamic-chicken-with-creamy-mash",
  "source": "Nosh: Quick & Easy",
  "tags": null,
  "totalTime": "PT40M",
  "units": "metric",
  "url": null,
  "vegan": false,
  "yield_": "4"
}