{
  "archiveTimestamp": null,
  "archiveUrl": null,
  "category": "Pork",
  "cookTime": "PT30M",
  "cuisine": null,
  "dairyFree": false,
  "dateCooked": "2018-12-17",
  "deadUrl": false,
  "description": "A Spanish inspired stew that will warm you to your core. Perfect for when the winter evenings start to draw in.",
  "future": false,
  "glutenFree": false,
  "image": "bean-pepper-and-chorizo-stew.webp",
  "inactiveTime": null,
  "ingredient_headings": null,
  "ingredients": [
    {
      "comment": "",
      "fdc_id": 2341591,
      "formatted_quantity": "1",
      "group": -1,
      "name": "chorizo",
      "prep": "",
      "quantity": "1",
      "synonym": "",
      "unit": "large ring"
    },
    {
      "comment": "",
      "fdc_id": 2258590,
      "formatted_quantity": "2",
      "group": -1,
      "name": "red peppers",
      "prep": "",
      "quantity": "2",
      "synonym": "",
      "unit": ""
    },
    {
      "comment": "",
      "fdc_id": 169383,
      "formatted_quantity": "2",
      "group": -1,
      "name": "yellow peppers",
      "prep": "",
      "quantity": "2",
      "synonym": "",
      "unit": ""
    },
    {
      "comment": "",
      "fdc_id": "",
      "formatted_quantity": "2",
      "group": -1,
      "name": "orange peppers",
      "prep": "",
      "quantity": "2",
      "synonym": "",
      "unit": ""
    },
    {
      "comment": "",
      "fdc_id": 790646,
      "formatted_quantity": "2",
      "group": -1,
      "name": "brown onions",
      "prep": "",
      "quantity": "2",
      "synonym": "",
      "unit": ""
    },
    {
      "comment": "",
      "fdc_id": 1104647,
      "formatted_quantity": "2",
      "group": -1,
      "name": "garlic",
      "prep": "",
      "quantity": "2",
      "synonym": "",
      "unit": "cloves"
    },
    {
      "comment": "",
      "fdc_id": 170106,
      "formatted_quantity": "1",
      "group": -1,
      "name": "red chilli",
      "prep": "",
      "quantity": "1",
      "synonym": "chilli",
      "unit": ""
    },
    {
      "comment": "",
      "fdc_id": 2345302,
      "formatted_quantity": "",
      "group": -1,
      "name": "fresh coriander",
      "prep": "",
      "quantity": "",
      "synonym": "coriander",
      "unit": ""
    },
    {
      "comment": "",
      "fdc_id": 171329,
      "formatted_quantity": "",
      "group": -1,
      "name": "paprika",
      "prep": "",
      "quantity": "",
      "synonym": "",
      "unit": ""
    },
    {
      "comment": "",
      "fdc_id": "",
      "formatted_quantity": "1x",
      "group": -1,
      "name": "chickpeas - don't drain!",
      "prep": "",
      "quantity": "1x",
      "synonym": "chickpeas",
      "unit": "400 g tin"
    },
    {
      "comment": "",
      "fdc_id": "",
      "formatted_quantity": "2x",
      "group": -1,
      "name": "butter beans - don't drain!",
      "prep": "",
      "quantity": "2x",
      "synonym": "butter beans",
      "unit": "400 g tin"
    },
    {
      "comment": "",
      "fdc_id": 1750351,
      "formatted_quantity": "",
      "group": -1,
      "name": "olive oil",
      "prep": "",
      "quantity": "",
      "synonym": "",
      "unit": ""
    }
  ],
  "instruction_headings": null,
  "instructions": [
    {
      "group": -1,
      "text": "Chopping. First remove the outer skin from the chorizo. Then chop it in half and on the angle into slices. Slice the red, orange and yellow peppers into strips. Finely chop the brown onions, garlic, chilli and the leaves from a bunch of coriander."
    },
    {
      "group": -1,
      "text": "Throw the garlic, chilli and coriander stalks into a hot, deep-set saucepan, with a healthy glug of olive oil."
    },
    {
      "group": -1,
      "text": "Once they have soften, add your chorizo."
    },
    {
      "group": -1,
      "text": "Turn down the heat, so as to allow the fat to render out of the chorizo. As the chorizo begins to brown, add the onions. Add some of your chickpeas or butter beans tin water to make it more 'saucy'."
    },
    {
      "group": -1,
      "text": "Once the onions have sweated off, add the peppers."
    },
    {
      "group": -1,
      "text": "As the peppers are reducing, occasionally add splashes of the bean tin water."
    },
    {
      "group": -1,
      "text": "When the peppers are soft, add <1> heaped tsp of paprika and the tin of chickpeas. Allow the chickpeas to soften and then throw in the butter beans."
    },
    {
      "group": -1,
      "text": "Cook for another {10 minutes} or so."
    },
    {
      "group": -1,
      "text": "Add three-quarters of your chopped coriander leaves, stir the whole stew together, then take off the heat."
    },
    {
      "group": -1,
      "text": "Serve with the remaining coriander on top."
    }
  ],
  "lowEffort": false,
  "miseEnPlace": false,
  "name": "Bean, pepper and chorizo stew",
  "notes": null,
  "nutFree": false,
  "nutrition": null,
  "prepTime": "PT20M",
  "rating": "Neutral",
  "slug": "bean-pepper-and-chorizo-stew",
  "source": "Mob Kitchen",
  "tags": null,
  "totalTime": "PT50M",
  "units": "metric",
  "url": null,
  "vegan": false,
  "yield_": "4"
}