{
  "archiveTimestamp": null,
  "archiveUrl": null,
  "category": "RedMeat",
  "cookTime": "PT220M",
  "cuisine": null,
  "dairyFree": false,
  "dateCooked": "2019-01-27",
  "deadUrl": false,
  "description": null,
  "future": false,
  "glutenFree": false,
  "image": "beef-ale-slice-pie.webp",
  "inactiveTime": null,
  "ingredient_headings": null,
  "ingredients": [
    {
      "comment": "",
      "fdc_id": 790646,
      "formatted_quantity": "1",
      "group": -1,
      "name": "onion",
      "prep": "",
      "quantity": "1",
      "synonym": "",
      "unit": ""
    },
    {
      "comment": "",
      "fdc_id": 2258586,
      "formatted_quantity": "2",
      "group": -1,
      "name": "carrots",
      "prep": "",
      "quantity": "2",
      "synonym": "",
      "unit": ""
    },
    {
      "comment": "",
      "fdc_id": 2346405,
      "formatted_quantity": "2",
      "group": -1,
      "name": "celery",
      "prep": "",
      "quantity": "2",
      "synonym": "",
      "unit": "sticks"
    },
    {
      "comment": "",
      "fdc_id": "",
      "formatted_quantity": "800",
      "group": -1,
      "name": "stewing/braising steak",
      "prep": "",
      "quantity": "800",
      "synonym": "steak",
      "unit": "g"
    },
    {
      "comment": "",
      "fdc_id": 790018,
      "formatted_quantity": "2",
      "group": -1,
      "name": "plain flour",
      "prep": "",
      "quantity": "2",
      "synonym": "",
      "unit": "heaped tsp"
    },
    {
      "comment": "",
      "fdc_id": "",
      "formatted_quantity": "500",
      "group": -1,
      "name": "dark ale",
      "prep": "",
      "quantity": "500",
      "synonym": "ale",
      "unit": "ml bottle"
    },
    {
      "comment": "",
      "fdc_id": 172883,
      "formatted_quantity": "500",
      "group": -1,
      "name": "beef stock",
      "prep": "",
      "quantity": "500",
      "synonym": "stock",
      "unit": "ml"
    },
    {
      "comment": "",
      "fdc_id": 173470,
      "formatted_quantity": "",
      "group": -1,
      "name": "thyme",
      "prep": "",
      "quantity": "",
      "synonym": "",
      "unit": "few sprigs"
    },
    {
      "comment": "",
      "fdc_id": "",
      "formatted_quantity": "2",
      "group": -1,
      "name": "brown sauce",
      "prep": "",
      "quantity": "2",
      "synonym": "",
      "unit": "tbsp"
    },
    {
      "comment": "",
      "fdc_id": "",
      "formatted_quantity": "2",
      "group": -1,
      "name": "ready rolled shortcrust pastry",
      "prep": "",
      "quantity": "2",
      "synonym": "pastry",
      "unit": "packs"
    },
    {
      "comment": "",
      "fdc_id": "",
      "formatted_quantity": "1½",
      "group": -1,
      "name": "english mustard",
      "prep": "",
      "quantity": "1.5",
      "synonym": "mustard",
      "unit": "tbsp"
    },
    {
      "comment": "",
      "fdc_id": 748967,
      "formatted_quantity": "1",
      "group": -1,
      "name": "beaten egg",
      "prep": "",
      "quantity": "1",
      "synonym": "",
      "unit": ""
    }
  ],
  "instruction_headings": null,
  "instructions": [
    {
      "group": -1,
      "text": "Chop the onion, carrot and celery into the same sized pieces. Season the steak generously with salt and pepper and toss in the plain flour so that each piece is evenly coated."
    },
    {
      "group": -1,
      "text": "Pour a splash of oil into a large saucepan/casserole dish. Over a high heat, fry the steak in batches until evenly browned. Remove onto a plate."
    },
    {
      "group": -1,
      "text": "Turn down the heat, don’t worry about the pan bottom being brown this is all flavour! Tip in the onion, carrot and celery into the pan. Cook, stirring for {5 minutes} until softened then pour in the ale and stock. Stir in the thyme and brown sauce. Scrape the meat back into the pan, Simmer gently on a low heat, uncovered for {2½ hours} until you have a very thick pie filling. If the gravy is too thin, remove the meat then bubble the sauce down. Leave to cool - you can do this day before if you want. "
    },
    {
      "group": -1,
      "text": "Preheat the oven to [180°C] fan. "
    },
    {
      "group": -1,
      "text": "Pie time. Unravel your first sheet of shortcrust pastry with its paper onto a baking tray. Spread with the mustard then spoon in your filling keeping a <2> cm border free around the edge. Smooth the filling over then brush the border with the beaten egg. Place your second shortcrust pastry sheet on top (roll it out first to make sure it fits with enough overlap. "
    },
    {
      "group": -1,
      "text": "Press the two sheets of pastry together around the edge, cut off any messy bits then press down along all the edges with a fork to create a seal."
    },
    {
      "group": -1,
      "text": "Score the top with a cutlery knife. Don’t press the knife in too far as you don’t want to cut the pastry open. Bake in the oven for {30 mins} until deep golden brown. "
    },
    {
      "group": -1,
      "text": "Slice and serve with a dollop of brown sauce, or mustard, or both if you are a maverick."
    }
  ],
  "lowEffort": false,
  "miseEnPlace": false,
  "name": "Beef & ale slice pie",
  "notes": null,
  "nutFree": false,
  "nutrition": {
    "calories": 605,
    "carbohydrates": 23,
    "fat": 21,
    "fibre": 3,
    "protein": 67.5,
    "salt": 0.64,
    "saturates": 8,
    "sugars": 4
  },
  "prepTime": "PT20M",
  "rating": "Neutral",
  "slug": "beef-ale-slice-pie",
  "source": "www.mobkitchen.co.uk",
  "tags": [
    "beef",
    "pie"
  ],
  "totalTime": "PT240M",
  "units": "metric",
  "url": "https://www.mobkitchen.co.uk/recipes//beef-and-ale-slice-pie",
  "vegan": false,
  "yield_": "4"
}