{
  "archiveTimestamp": null,
  "archiveUrl": null,
  "category": "RedMeat",
  "cookTime": "PT10M",
  "cuisine": null,
  "dairyFree": false,
  "dateCooked": "2017-01-16",
  "deadUrl": false,
  "description": null,
  "future": false,
  "glutenFree": false,
  "image": "beef-salsa-burgers.webp",
  "inactiveTime": null,
  "ingredient_headings": null,
  "ingredients": [
    {
      "comment": "",
      "fdc_id": 2341259,
      "formatted_quantity": "300",
      "group": -1,
      "name": "lean minced beef",
      "prep": "",
      "quantity": "300",
      "synonym": "",
      "unit": "g"
    },
    {
      "comment": "",
      "fdc_id": "",
      "formatted_quantity": "50",
      "group": -1,
      "name": "wholemeal breadcrumbs",
      "prep": "",
      "quantity": "50",
      "synonym": "",
      "unit": "g"
    },
    {
      "comment": "",
      "fdc_id": "",
      "formatted_quantity": "50",
      "group": -1,
      "name": "carrot grated",
      "prep": "",
      "quantity": "50",
      "synonym": "",
      "unit": "g"
    },
    {
      "comment": "",
      "fdc_id": 790646,
      "formatted_quantity": "1",
      "group": -1,
      "name": "onion",
      "prep": "grated",
      "quantity": "1",
      "synonym": "",
      "unit": "small"
    },
    {
      "comment": "",
      "fdc_id": 2345316,
      "formatted_quantity": "",
      "group": -1,
      "name": "chopped parsley leaves",
      "prep": "",
      "quantity": "",
      "synonym": "",
      "unit": "small handful"
    },
    {
      "comment": "",
      "fdc_id": 2342922,
      "formatted_quantity": "1",
      "group": -1,
      "name": "Worcestershire sauce",
      "prep": "",
      "quantity": "1",
      "synonym": "",
      "unit": "tsp"
    },
    {
      "comment": "",
      "fdc_id": "",
      "formatted_quantity": "4",
      "group": -1,
      "name": "wholemeal burger buns",
      "prep": "",
      "quantity": "4",
      "synonym": "",
      "unit": ""
    },
    {
      "comment": "",
      "fdc_id": "",
      "formatted_quantity": "",
      "group": -1,
      "name": "handful salad leaves",
      "prep": "",
      "quantity": "",
      "synonym": "",
      "unit": ""
    },
    {
      "comment": "to serve",
      "fdc_id": "",
      "formatted_quantity": "",
      "group": -1,
      "name": "tomato salsa",
      "prep": "",
      "quantity": "",
      "synonym": "",
      "unit": ""
    }
  ],
  "instruction_headings": null,
  "instructions": [
    {
      "group": -1,
      "text": "Heat the grill to medium. In a large bowl, mix together the first six ingredients, then season well. Shape the mixture into four bugers and put on a baking sheet.  "
    },
    {
      "group": -1,
      "text": "Grill the burgers for {3-4 minutes} on each side, until cooked through, then keep them warm. Split each burger bun in half and put under the grill, cut side up and lightly toast for {1 minute}.  "
    },
    {
      "group": -1,
      "text": "Serve each burger in a bun with some salad leaves and top each burger with a good dollop of tomato salsa. "
    }
  ],
  "lowEffort": false,
  "miseEnPlace": false,
  "name": "Beef & salsa burgers",
  "notes": null,
  "nutFree": false,
  "nutrition": {
    "calories": 313,
    "carbohydrates": 35,
    "fat": 10,
    "fibre": 3,
    "protein": 24,
    "salt": 1.99,
    "saturates": 4,
    "sugars": 5
  },
  "prepTime": "PT10M",
  "rating": "Neutral",
  "slug": "beef-salsa-burgers",
  "source": "BBC Good Food: Low-fat Feasts",
  "tags": [
    "beef",
    "burger"
  ],
  "totalTime": "PT20M",
  "units": "metric",
  "url": null,
  "vegan": false,
  "yield_": "4"
}