{
  "archiveTimestamp": "2023-11-22 06:36:47",
  "archiveUrl": "https://web.archive.org/web/20231122063647/https://www.sainsburysmagazine.co.uk/recipes/breakfasts/blt-breakfast-salad",
  "category": "Pork",
  "cookTime": "PT28M",
  "cuisine": "British",
  "dairyFree": false,
  "dateCooked": "2021-07-23",
  "deadUrl": false,
  "description": "Salad to start the day, or breakfast for dinner? You choose!",
  "future": false,
  "glutenFree": false,
  "image": "blt-breakfast-salad.webp",
  "inactiveTime": null,
  "ingredient_headings": {
    "1": "For the dressing"
  },
  "ingredients": [
    {
      "comment": "",
      "fdc_id": "749420",
      "formatted_quantity": "6",
      "group": -1,
      "name": "smoked back bacon",
      "prep": "",
      "quantity": "6",
      "synonym": "bacon",
      "unit": "rashers"
    },
    {
      "comment": "",
      "fdc_id": "789828",
      "formatted_quantity": "1",
      "group": -1,
      "name": "unsalted butter",
      "prep": "",
      "quantity": "1",
      "synonym": "butter",
      "unit": "tbsp"
    },
    {
      "comment": "",
      "fdc_id": "",
      "formatted_quantity": "100",
      "group": -1,
      "name": "sourdough bread",
      "prep": "crusts removed, torn into bite-size chunks",
      "quantity": "100",
      "synonym": "bread",
      "unit": "g"
    },
    {
      "comment": "",
      "fdc_id": "",
      "formatted_quantity": "3",
      "group": -1,
      "name": "eggs (at room temperature)",
      "prep": "",
      "quantity": "3",
      "synonym": "eggs",
      "unit": "medium"
    },
    {
      "comment": "",
      "fdc_id": "",
      "formatted_quantity": "1",
      "group": -1,
      "name": "Romaine heart",
      "prep": "torn into chunky pieces",
      "quantity": "1",
      "synonym": "lettuce",
      "unit": ""
    },
    {
      "comment": "",
      "fdc_id": "1999634",
      "formatted_quantity": "3",
      "group": -1,
      "name": "ripe tomatoes",
      "prep": "cut into chunks",
      "quantity": "3",
      "synonym": "tomatoes",
      "unit": "large"
    },
    {
      "comment": "(such as parsley, dill, and chives)",
      "fdc_id": "",
      "formatted_quantity": "2",
      "group": -1,
      "name": "herbs",
      "prep": "chopped",
      "quantity": "2",
      "synonym": "",
      "unit": "tbsp"
    },
    {
      "comment": "",
      "fdc_id": "2345761",
      "formatted_quantity": "3",
      "group": 1,
      "name": "mayonnaise",
      "prep": "",
      "quantity": "3",
      "synonym": "",
      "unit": "tbsp"
    },
    {
      "comment": "",
      "fdc_id": "326698",
      "formatted_quantity": "1",
      "group": 1,
      "name": "Dijon mustard",
      "prep": "",
      "quantity": "1",
      "synonym": "mustard",
      "unit": "tsp"
    },
    {
      "comment": "",
      "fdc_id": "2675517",
      "formatted_quantity": "¼",
      "group": 1,
      "name": "caster sugar",
      "prep": "",
      "quantity": "0.25",
      "synonym": "sugar",
      "unit": "tsp"
    },
    {
      "comment": "",
      "fdc_id": "",
      "formatted_quantity": "1",
      "group": 1,
      "name": "white wine vinegar",
      "prep": "",
      "quantity": "1",
      "synonym": "vinegar",
      "unit": "tbsp"
    },
    {
      "comment": "",
      "fdc_id": "",
      "formatted_quantity": "2",
      "group": 1,
      "name": "chopped herbs",
      "prep": "",
      "quantity": "2",
      "synonym": "herbs",
      "unit": "tbsp"
    }
  ],
  "instruction_headings": null,
  "instructions": [
    {
      "group": -1,
      "text": "Preheat the oven to [180°C]/gas <6>. Arrange the bacon in a single layer on a baking tray. Bake for {10 minutes} then rotate the tray and bake for a further {7-10 minutes} until the bacon is deeply golden and crisp. Transfer to a plate lined with kitchen paper and set aside."
    },
    {
      "group": -1,
      "text": "Add the butter to the bacon fat that's left in the tray. Return briefly to the oven to melt, swirl the fats together then add the torn bread. Toss to coat and bake for {10 minutes} until crisp, stirring halfway through. Season and set aside."
    },
    {
      "group": -1,
      "text": "Meanwhile, add the eggs to a pan of boiling water; simmer for {7½ minutes}. Transfer to a bowl of ice-cold water using a slotted spoon; leave to cool then peel and halve or quarter each one."
    },
    {
      "group": -1,
      "text": "To make a dressing, whisk together the mayonnaise, mustard and sugar in a small bowl. Whisk in the vinegar followed by the herbs, then season to taste. If the dressing is a little thick, add a splash of water."
    },
    {
      "group": -1,
      "text": "Arrange the lettuce on a large platter, season with black pepper and drizzle with half the dressing. Top with the tomatoes, croutons and eggs then roughly chop the bacon to scatter over. Drizzle with the remaining dressing, scatter over the chopped herbs and serve."
    }
  ],
  "lowEffort": false,
  "miseEnPlace": false,
  "name": "BLT breakfast salad",
  "notes": null,
  "nutFree": false,
  "nutrition": {
    "calories": 231,
    "carbohydrates": 11,
    "fat": 14,
    "fibre": 2,
    "protein": 15,
    "salt": 1.6,
    "saturates": 6,
    "sugars": 3
  },
  "prepTime": "PT7M",
  "rating": "Neutral",
  "slug": "blt-breakfast-salad",
  "source": "www.sainsburysmagazine.co.uk",
  "tags": null,
  "totalTime": "PT35M",
  "units": "metric",
  "url": "https://www.sainsburysmagazine.co.uk/recipes/breakfasts/blt-breakfast-salad",
  "vegan": false,
  "yield_": "4"
}