{
  "archiveTimestamp": null,
  "archiveUrl": null,
  "category": "Veggie",
  "cookTime": "PT75M",
  "cuisine": null,
  "dairyFree": false,
  "dateCooked": "2024-04-20",
  "deadUrl": false,
  "description": "I first came up with this recipe for the launch of my second cookbook, Sirocco. I wanted something delicious and substantial for those who didn’t eat meat as well as those who did. This recipe went on to become a favourite at pop-up feasts in all sorts of different shapes and sizes. If butternut squash isn’t your thing, it also works beautifully with other types of squash when in season.",
  "future": false,
  "glutenFree": false,
  "image": "butternut-feta-chilli-rolls.webp",
  "inactiveTime": "PT20M",
  "ingredient_headings": null,
  "ingredients": [
    {
      "comment": "",
      "fdc_id": "2345206",
      "formatted_quantity": "1",
      "group": -1,
      "name": "butternut squash",
      "prep": "halved and deseeded",
      "quantity": "1",
      "synonym": "squash",
      "unit": "kg"
    },
    {
      "comment": "",
      "fdc_id": "1750351",
      "formatted_quantity": "",
      "group": -1,
      "name": "olive oil",
      "prep": "",
      "quantity": "",
      "synonym": "",
      "unit": ""
    },
    {
      "comment": "",
      "fdc_id": "",
      "formatted_quantity": "2",
      "group": -1,
      "name": "chilli flakes",
      "prep": "",
      "quantity": "2",
      "synonym": "chilli",
      "unit": "tsp"
    },
    {
      "comment": "",
      "fdc_id": "171320",
      "formatted_quantity": "1",
      "group": -1,
      "name": "ground cinnamon",
      "prep": "",
      "quantity": "1",
      "synonym": "cinnamon",
      "unit": "tsp"
    },
    {
      "comment": "",
      "fdc_id": "1104647",
      "formatted_quantity": "1",
      "group": -1,
      "name": "garlic",
      "prep": "crushed",
      "quantity": "1",
      "synonym": "",
      "unit": "fat clove"
    },
    {
      "comment": "",
      "fdc_id": "2341117",
      "formatted_quantity": "200",
      "group": -1,
      "name": "feta cheese",
      "prep": "crumbled",
      "quantity": "200",
      "synonym": "feta",
      "unit": "g"
    },
    {
      "comment": "",
      "fdc_id": "",
      "formatted_quantity": "1",
      "group": -1,
      "name": "of flat leaf parsley",
      "prep": "finely chopped",
      "quantity": "1",
      "synonym": "parsley",
      "unit": "small packet"
    },
    {
      "comment": "",
      "fdc_id": "",
      "formatted_quantity": "1x",
      "group": -1,
      "name": "ready-rolled all-butter puff pastry sheet",
      "prep": "",
      "quantity": "1x",
      "synonym": "",
      "unit": "320 g"
    },
    {
      "comment": "",
      "fdc_id": "748967",
      "formatted_quantity": "1",
      "group": -1,
      "name": "egg",
      "prep": "beaten",
      "quantity": "1",
      "synonym": "",
      "unit": ""
    },
    {
      "comment": "",
      "fdc_id": "",
      "formatted_quantity": "1",
      "group": -1,
      "name": "nigella seeds",
      "prep": "",
      "quantity": "1",
      "synonym": "",
      "unit": "tsp"
    },
    {
      "comment": "",
      "fdc_id": "",
      "formatted_quantity": "",
      "group": -1,
      "name": "Maldon sea salt flakes and freshly ground black pepper",
      "prep": "",
      "quantity": "",
      "synonym": "",
      "unit": ""
    }
  ],
  "instruction_headings": null,
  "instructions": [
    {
      "group": -1,
      "text": "Preheat the oven to [190°C]. "
    },
    {
      "group": -1,
      "text": "Place the squash halves, with their cut sides facing up, in a baking tray and drizzle over a little olive oil. Roast for about {50 minutes}, or until the flesh is cooked through and soft. (Don’t switch off the oven.)"
    },
    {
      "group": -1,
      "text": "When cool enough to handle, use a spoon to scoop the butternut squash flesh out of the skins and into a mixing bowl. Add the chilli, cinnamon and garlic, season with a generous amount of salt and pepper, then mash it all together. Now gently fold in the feta and parsley. Set aside."
    },
    {
      "group": -1,
      "text": "Increase the oven temperature to [200°C]. Line a baking tray with baking paper."
    },
    {
      "group": -1,
      "text": "Cut the pastry into <8> squares. Divide the filling into <8> portions. Shape one portion of filling into a sausage shape and place it diagonally across one of the pastry squares. Fold the pastry corners over the filling, pinching together - the filling will remain exposed at each end. Repeat with the remaining pastry and filling. Transfer the parcels to the prepared tray, brush with the beaten egg, scatter over the nigella seeds and bake for about {25 minutes}, or until deep golden brown. Serve hot or at room temperature according to your preference."
    }
  ],
  "lowEffort": false,
  "miseEnPlace": false,
  "name": "Butternut, feta & chilli rolls",
  "notes": null,
  "nutFree": false,
  "nutrition": null,
  "prepTime": "PT15M",
  "rating": "Neutral",
  "slug": "butternut-feta-chilli-rolls",
  "source": "Bazaar",
  "tags": null,
  "totalTime": "PT90M",
  "units": "metric",
  "url": null,
  "vegan": false,
  "yield_": "0"
}