{
  "archiveTimestamp": "2023-11-22 14:33:36",
  "archiveUrl": "https://web.archive.org/web/20231122143336/https://www.seriouseats.com/chacarero-chileno-steak-sandwich",
  "category": "RedMeat",
  "cookTime": "PT15M",
  "cuisine": "Chilean",
  "dairyFree": false,
  "dateCooked": "2023-05-07",
  "deadUrl": false,
  "description": "On paper, the chacarero chileno sandwich seems...weird. Grilled beef, sliced tomato, and cooked green beans. But when done properly, it works. Prove it to yourself by trying this recipe.",
  "future": false,
  "glutenFree": false,
  "image": "chacarero-chileno-chilean-steak-and-bean-sandwiches.webp",
  "inactiveTime": null,
  "ingredient_headings": null,
  "ingredients": [
    {
      "comment": "",
      "fdc_id": 2571981,
      "formatted_quantity": "",
      "group": -1,
      "name": "Kosher salt",
      "prep": "",
      "quantity": "",
      "synonym": "",
      "unit": ""
    },
    {
      "comment": "",
      "fdc_id": 2345289,
      "formatted_quantity": "225",
      "group": -1,
      "name": "green beans",
      "prep": "cut on a sharp bias into long, thin strips",
      "quantity": "225",
      "synonym": "beans",
      "unit": "g"
    },
    {
      "comment": "with their liquid",
      "fdc_id": "",
      "formatted_quantity": "1",
      "group": -1,
      "name": "jarred pickled peperoncini or pickled banana peppers",
      "prep": "peppers cut into rings",
      "quantity": "1",
      "synonym": "peperoncini",
      "unit": "cup"
    },
    {
      "comment": "",
      "fdc_id": "",
      "formatted_quantity": "680",
      "group": -1,
      "name": "skirt steaks, hanger steaks, or flap meat ",
      "prep": "",
      "quantity": "680",
      "synonym": "steak",
      "unit": "g"
    },
    {
      "comment": "",
      "fdc_id": 2345761,
      "formatted_quantity": "175",
      "group": -1,
      "name": "mayonnaise",
      "prep": "",
      "quantity": "175",
      "synonym": "",
      "unit": "ml"
    },
    {
      "comment": "",
      "fdc_id": 1104647,
      "formatted_quantity": "3",
      "group": -1,
      "name": "garlic",
      "prep": "minced",
      "quantity": "3",
      "synonym": "",
      "unit": "medium cloves"
    },
    {
      "comment": "",
      "fdc_id": 748608,
      "formatted_quantity": "3",
      "group": -1,
      "name": "extra-virgin olive oil",
      "prep": "",
      "quantity": "3",
      "synonym": "olive oil",
      "unit": "tablespoons"
    },
    {
      "comment": "",
      "fdc_id": 170931,
      "formatted_quantity": "",
      "group": -1,
      "name": "Freshly ground black pepper",
      "prep": "",
      "quantity": "",
      "synonym": "",
      "unit": ""
    },
    {
      "comment": "such as telera or ciabatta rolls",
      "fdc_id": "",
      "formatted_quantity": "4",
      "group": -1,
      "name": "sturdy rolls",
      "prep": "",
      "quantity": "4",
      "synonym": "",
      "unit": ""
    },
    {
      "comment": "",
      "fdc_id": "",
      "formatted_quantity": "",
      "group": -1,
      "name": "Sliced fresh tomato",
      "prep": "",
      "quantity": "",
      "synonym": "",
      "unit": ""
    }
  ],
  "instruction_headings": null,
  "instructions": [
    {
      "group": -1,
      "text": "Bring a large pot of salted water to a rolling boil. Add beans and cook until tender (they should be slightly softer than al dente), about {4 minutes}. Drain beans and run under cold water to halt cooking. Transfer to a medium bowl. Add peperoncini and their liquid and toss to combine. Set aside at room temperature."
    },
    {
      "group": -1,
      "text": "Working with one piece at a time, place a piece of steak between <2> sheets of plastic wrap or inside a heavy-duty zipper-lock bag and pound gently with the bottom of a skillet until the meat is less than <¼> inch thick. Cut each steak into lengths that slightly overhang the length of your bread. Set meat aside on a large tray."
    },
    {
      "group": -1,
      "text": "In a small bowl, stir together mayonnaise, garlic, and olive oil. Season generously with black pepper. Transfer half of mixture to a covered container and refrigerate until ready to use."
    },
    {
      "group": -1,
      "text": "With a pastry brush, brush steak pieces on both sides with remaining mayonnaise mixture. Season generously with salt."
    },
    {
      "group": -1,
      "text": "Light one chimney full of charcoal. When all charcoal is lit and covered with gray ash, pour out and arrange coals on one side of charcoal grate. Set cooking grate in place, cover grill, and allow to preheat for {5 minutes}. Alternatively, set half the burners on a gas grill to the highest heat setting, cover, and preheat for {10 minutes}. Clean and oil grilling grate."
    },
    {
      "group": -1,
      "text": "Working in batches if necessary, place meat directly over hot side of grill and cook without moving until well charred on first side, about {2 minutes}. Flip and cook until charred on second side, about {2 minutes} longer. Transfer steak to a clean plate as it finishes cooking. When steak is cooked, toast buns, cut side down, on grill until crisp and lightly charred."
    },
    {
      "group": -1,
      "text": "To Assemble the Sandwiches: Slather top and bottom buns with remaining mayonnaise mixture. Layer meat, tomatoes, and bean/pepper mixture on bottom buns, then close firmly with top buns. Cut sandwiches in half on a bias (remember: triangles taste better!) and serve."
    }
  ],
  "lowEffort": false,
  "miseEnPlace": false,
  "name": "Chacarero chileno (chilean steak and bean sandwiches)",
  "notes": null,
  "nutFree": false,
  "nutrition": {
    "calories": 908,
    "carbohydrates": 49,
    "fat": 58,
    "fibre": 6,
    "protein": 49,
    "salt": 1.06,
    "saturates": 11,
    "sugars": 9
  },
  "prepTime": "PT30M",
  "rating": "Neutral",
  "slug": "chacarero-chileno-chilean-steak-and-bean-sandwiches",
  "source": "www.seriouseats.com",
  "tags": [
    "beef",
    "sandwich"
  ],
  "totalTime": "PT45M",
  "units": "metric",
  "url": "https://www.seriouseats.com/chacarero-chileno-steak-sandwich",
  "vegan": false,
  "yield_": "4"
}