{
  "archiveTimestamp": "2023-11-22 07:11:43",
  "archiveUrl": "https://web.archive.org/web/20231122071143/https://www.sainsburysmagazine.co.uk/recipes/mains/chicken-stroganoff",
  "category": "Poultry",
  "cookTime": "PT45M",
  "cuisine": "Russian",
  "dairyFree": false,
  "dateCooked": "2022-04-02",
  "deadUrl": false,
  "description": "Try our healthier, but no-less-comforting, take on the Russian classic. ",
  "future": false,
  "glutenFree": false,
  "image": "chicken-stroganoff.webp",
  "inactiveTime": null,
  "ingredient_headings": null,
  "ingredients": [
    {
      "comment": "",
      "fdc_id": "",
      "formatted_quantity": "120",
      "group": -1,
      "name": "basmati and wild rice mix",
      "prep": "rinsed",
      "quantity": "120",
      "synonym": "rice",
      "unit": "g"
    },
    {
      "comment": "",
      "fdc_id": 2341434,
      "formatted_quantity": "1x",
      "group": -1,
      "name": "skinless chicken thigh fillets",
      "prep": "",
      "quantity": "1x",
      "synonym": "chicken",
      "unit": "320 g pack"
    },
    {
      "comment": "",
      "fdc_id": 1750351,
      "formatted_quantity": "3",
      "group": -1,
      "name": "olive oil",
      "prep": "",
      "quantity": "3",
      "synonym": "oil",
      "unit": "tsp"
    },
    {
      "comment": "",
      "fdc_id": "",
      "formatted_quantity": "200",
      "group": -1,
      "name": "chestnut mushrooms",
      "prep": "sliced",
      "quantity": "200",
      "synonym": "mushrooms",
      "unit": "g"
    },
    {
      "comment": "",
      "fdc_id": 171329,
      "formatted_quantity": "1",
      "group": -1,
      "name": "paprika",
      "prep": "",
      "quantity": "1",
      "synonym": "",
      "unit": "tsp"
    },
    {
      "comment": "",
      "fdc_id": 790018,
      "formatted_quantity": "1",
      "group": -1,
      "name": "plain flour",
      "prep": "",
      "quantity": "1",
      "synonym": "",
      "unit": "tbsp"
    },
    {
      "comment": "",
      "fdc_id": 1104647,
      "formatted_quantity": "2",
      "group": -1,
      "name": "garlic",
      "prep": "crushed",
      "quantity": "2",
      "synonym": "",
      "unit": "cloves"
    },
    {
      "comment": "",
      "fdc_id": 172924,
      "formatted_quantity": "250",
      "group": -1,
      "name": "chicken stock",
      "prep": "",
      "quantity": "250",
      "synonym": "stock",
      "unit": "ml"
    },
    {
      "comment": "",
      "fdc_id": "",
      "formatted_quantity": "100",
      "group": -1,
      "name": "lighter soured cream",
      "prep": "",
      "quantity": "100",
      "synonym": "soured cream",
      "unit": "g"
    },
    {
      "comment": "",
      "fdc_id": "",
      "formatted_quantity": "½-1",
      "group": -1,
      "name": "English mustard",
      "prep": "",
      "quantity": "0.5-1",
      "synonym": "mustard",
      "unit": "tsp"
    },
    {
      "comment": "",
      "fdc_id": "",
      "formatted_quantity": "1½",
      "group": -1,
      "name": "chopped tarragon",
      "prep": "",
      "quantity": "1.5",
      "synonym": "tarragon",
      "unit": "tbsp"
    }
  ],
  "instruction_headings": null,
  "instructions": [
    {
      "group": -1,
      "text": "Bring a pan of water to the boil and cook the rice for about {20 minutes} or until tender. Drain well, return to the pan, cover with a lid and allow to steam dry."
    },
    {
      "group": -1,
      "text": "Meanwhile, slice the chicken into thick strips and season. Heat <2> teaspoons of the oil in a large sauté pan and fry the chicken over a high heat for {6-8 minutes} or until browned on all sides. Set aside on a plate."
    },
    {
      "group": -1,
      "text": "Add the remaining <1> teaspoon of oil to the pan and fry the mushrooms with seasoning for {5 minutes} until browned. Reduce to a medium heat, return the chicken to the pan and stir in the paprika, plain flour and garlic; cook for {1 minute}. Gradually stir in the stock and simmer uncovered for {8-10 minutes} until the chicken is cooked through and the sauce has thickened slightly."
    },
    {
      "group": -1,
      "text": "Stir in the soured cream, mustard and most of the tarragon; warm through gently. Divide the cooked rice between two bowls and spoon the stroganoff over. Garnish with the rest of the tarragon just before serving."
    }
  ],
  "lowEffort": false,
  "miseEnPlace": false,
  "name": "Chicken stroganoff",
  "notes": null,
  "nutFree": false,
  "nutrition": {
    "calories": 419,
    "carbohydrates": 22,
    "fat": 17,
    "fibre": 2,
    "protein": 44,
    "salt": 0.7,
    "saturates": 6,
    "sugars": 2
  },
  "prepTime": "PT10M",
  "rating": "Neutral",
  "slug": "chicken-stroganoff",
  "source": "www.sainsburysmagazine.co.uk",
  "tags": null,
  "totalTime": "PT55M",
  "units": "metric",
  "url": "https://www.sainsburysmagazine.co.uk/recipes/mains/chicken-stroganoff",
  "vegan": false,
  "yield_": "2"
}