{
  "archiveTimestamp": "2023-11-22 07:08:48",
  "archiveUrl": "https://web.archive.org/web/20231122070848/https://www.bbcgoodfood.com/recipes/chicken-noodle-soup",
  "category": "Poultry",
  "cookTime": "PT30M",
  "cuisine": null,
  "dairyFree": false,
  "dateCooked": "2017-10-23",
  "deadUrl": false,
  "description": "Mary Cadogan's aromatic broth will warm you up on a winter's evening - it contains ginger, which is particularly good for colds, too.",
  "future": false,
  "glutenFree": false,
  "image": "chicken-noodle-soup.webp",
  "inactiveTime": null,
  "ingredient_headings": null,
  "ingredients": [
    {
      "comment": "",
      "fdc_id": "172884",
      "formatted_quantity": "900",
      "group": -1,
      "name": "chicken or vegetable stock",
      "prep": "",
      "quantity": "900",
      "synonym": "stock",
      "unit": "ml"
    },
    {
      "comment": "about 175g",
      "fdc_id": "2646170",
      "formatted_quantity": "1",
      "group": -1,
      "name": "boneless skinless chicken breast",
      "prep": "",
      "quantity": "1",
      "synonym": "chicken",
      "unit": ""
    },
    {
      "comment": "",
      "fdc_id": "",
      "formatted_quantity": "1",
      "group": -1,
      "name": "chopped fresh root ginger",
      "prep": "",
      "quantity": "1",
      "synonym": "ginger",
      "unit": "tsp"
    },
    {
      "comment": "",
      "fdc_id": "1104647",
      "formatted_quantity": "1",
      "group": -1,
      "name": "garlic",
      "prep": "finely chopped",
      "quantity": "1",
      "synonym": "",
      "unit": "clove"
    },
    {
      "comment": "",
      "fdc_id": "",
      "formatted_quantity": "50",
      "group": -1,
      "name": "rice or wheat noodles",
      "prep": "",
      "quantity": "50",
      "synonym": "noodles",
      "unit": "g"
    },
    {
      "comment": "canned or frozen",
      "fdc_id": "2345303",
      "formatted_quantity": "2",
      "group": -1,
      "name": "sweetcorn",
      "prep": "",
      "quantity": "2",
      "synonym": "corn",
      "unit": "tbsp"
    },
    {
      "comment": "",
      "fdc_id": "1999629",
      "formatted_quantity": "2-3",
      "group": -1,
      "name": "mushrooms",
      "prep": "thinly sliced",
      "quantity": "2-3",
      "synonym": "",
      "unit": ""
    },
    {
      "comment": "",
      "fdc_id": "170005",
      "formatted_quantity": "2",
      "group": -1,
      "name": "spring onions",
      "prep": "shredded",
      "quantity": "2",
      "synonym": "",
      "unit": ""
    },
    {
      "comment": "plus extra for serving",
      "fdc_id": "2342917",
      "formatted_quantity": "2",
      "group": -1,
      "name": "soy sauce",
      "prep": "",
      "quantity": "2",
      "synonym": "",
      "unit": "tsp"
    },
    {
      "comment": "(optional), to serve",
      "fdc_id": "",
      "formatted_quantity": "",
      "group": -1,
      "name": "mint or basil leaves and a little shredded chilli",
      "prep": "",
      "quantity": "",
      "synonym": "",
      "unit": ""
    }
  ],
  "instruction_headings": null,
  "instructions": [
    {
      "group": -1,
      "text": "Pour the stock into a pan and add the chicken, ginger and garlic. Bring to the boil, then reduce the heat, partly cover and simmer for {20 mins}, until the chicken is tender. Remove the chicken to a board and shred into bite-size pieces using a couple of forks.   "
    },
    {
      "group": -1,
      "text": "Return the chicken to the stock with the noodles, corn, mushrooms, half the spring onions and the soy sauce. Simmer for {3-4 mins} until the noodles are tender. Ladle into two bowls and scatter over the remaining spring onions, herbs and chilli shreds if using. Serve with extra soy sauce for sprinkling.  "
    }
  ],
  "lowEffort": false,
  "miseEnPlace": false,
  "name": "Chicken noodle soup",
  "notes": null,
  "nutFree": false,
  "nutrition": {
    "calories": 217,
    "carbohydrates": 26,
    "fat": 2,
    "fibre": 0.6,
    "protein": 26,
    "salt": 2.52,
    "saturates": 0.4,
    "sugars": 1
  },
  "prepTime": "PT10M",
  "rating": "Neutral",
  "slug": "chicken-noodle-soup",
  "source": "www.bbcgoodfood.com",
  "tags": null,
  "totalTime": "PT40M",
  "units": "metric",
  "url": "https://www.bbcgoodfood.com/recipes/1869/chicken-noodle-soup",
  "vegan": false,
  "yield_": "2"
}