{
  "archiveTimestamp": null,
  "archiveUrl": null,
  "category": "Seafood",
  "cookTime": "PT20M",
  "cuisine": null,
  "dairyFree": false,
  "dateCooked": "2016-09-21",
  "deadUrl": false,
  "description": null,
  "future": false,
  "glutenFree": false,
  "image": "chorizo-new-potatoes-and-haddock.webp",
  "inactiveTime": null,
  "ingredient_headings": null,
  "ingredients": [
    {
      "comment": "",
      "fdc_id": "748608",
      "formatted_quantity": "1",
      "group": -1,
      "name": "extra virgin olive oil",
      "prep": "",
      "quantity": "1",
      "synonym": "oil",
      "unit": "tbsp"
    },
    {
      "comment": "",
      "fdc_id": "2341591",
      "formatted_quantity": "50",
      "group": -1,
      "name": "chorizo",
      "prep": "peeled and thinly sliced",
      "quantity": "50",
      "synonym": "",
      "unit": "g"
    },
    {
      "comment": "",
      "fdc_id": "",
      "formatted_quantity": "450",
      "group": -1,
      "name": "salad or new potatoes",
      "prep": "sliced",
      "quantity": "450",
      "synonym": "potatoes",
      "unit": "g"
    },
    {
      "comment": "",
      "fdc_id": "2346267",
      "formatted_quantity": "4",
      "group": -1,
      "name": "dry sherry",
      "prep": "",
      "quantity": "4",
      "synonym": "sherry",
      "unit": "tbsp"
    },
    {
      "comment": "",
      "fdc_id": "",
      "formatted_quantity": "2",
      "group": -1,
      "name": "skinless thick white fish",
      "prep": "",
      "quantity": "2",
      "synonym": "fish",
      "unit": "fillets"
    },
    {
      "comment": "",
      "fdc_id": "2378728",
      "formatted_quantity": "",
      "group": -1,
      "name": "cherry tomatoes",
      "prep": "",
      "quantity": "",
      "synonym": "",
      "unit": "handful"
    },
    {
      "comment": "",
      "fdc_id": "2345316",
      "formatted_quantity": "20",
      "group": -1,
      "name": "bunch flat-leaf parsley",
      "prep": "",
      "quantity": "20",
      "synonym": "parsley",
      "unit": "g"
    },
    {
      "comment": "to serve",
      "fdc_id": "325871",
      "formatted_quantity": "",
      "group": -1,
      "name": "crusty bread",
      "prep": "",
      "quantity": "",
      "synonym": "",
      "unit": ""
    }
  ],
  "instruction_headings": null,
  "instructions": [
    {
      "group": -1,
      "text": "Heat a large lidded frying pan, then add the oil. Tip in the chorizo, fry for {2 minutes} until it starts to release its oil, then tip in the potatoes and some seasoning. Splash over <2> tbsp of the sherry, cover the pan tightly, then leave to cook for {10-15 minutes} until the potatoes are just tender. Move them around the pan a bit halfway through.  "
    },
    {
      "group": -1,
      "text": "Season the fish well. Give the potatoes another stir, add the cherry tomatoes and most of the chopped parsley to the pan, then lay the fish on top. Splash over <1> tbsp more of the sherry, put the lid on again, then leave to cook for {5 minutes}, or until the fish has turned white and is flaky. Scatter the whole dish with the rest of the parsley and drizzle with more of the olive oil. Serve straight away with crusty bread. "
    }
  ],
  "lowEffort": false,
  "miseEnPlace": false,
  "name": "Chorizo, new potatoes and haddock",
  "notes": null,
  "nutFree": false,
  "nutrition": {
    "calories": 534,
    "carbohydrates": 39,
    "fat": 19,
    "fibre": 3,
    "protein": 47,
    "salt": 0.79,
    "saturates": 4,
    "sugars": 5
  },
  "prepTime": "PT10M",
  "rating": "Neutral",
  "slug": "chorizo-new-potatoes-and-haddock",
  "source": "BBC Good Food: One-pot Dishes",
  "tags": null,
  "totalTime": "PT30M",
  "units": "metric",
  "url": null,
  "vegan": false,
  "yield_": "2"
}