{
  "archiveTimestamp": null,
  "archiveUrl": null,
  "category": "Pork",
  "cookTime": "PT40M",
  "cuisine": null,
  "dairyFree": false,
  "dateCooked": "2016-10-18",
  "deadUrl": false,
  "description": "This is a good, everyday pie, using pork mince, which is slightly less expensive than lamb or beef. Gluten-free: use gluten-free plain flour in the sauce.",
  "future": false,
  "glutenFree": true,
  "image": "cider-pork-bacon-pie-with-cauliflower-and-potato-mash.webp",
  "inactiveTime": null,
  "ingredient_headings": {
    "1": "Filling"
  },
  "ingredients": [
    {
      "comment": "",
      "fdc_id": 2346401,
      "formatted_quantity": "5",
      "group": -1,
      "name": "potatoes",
      "prep": "peeled and cut into 2 cm chunks",
      "quantity": "5",
      "synonym": "",
      "unit": "medium"
    },
    {
      "comment": "",
      "fdc_id": 169986,
      "formatted_quantity": "1",
      "group": -1,
      "name": "cauliflower",
      "prep": "cut into small pieces",
      "quantity": "1",
      "synonym": "",
      "unit": "small"
    },
    {
      "comment": "",
      "fdc_id": 328637,
      "formatted_quantity": "¾",
      "group": -1,
      "name": "grated Cheddar cheese",
      "prep": "",
      "quantity": "0.75",
      "synonym": "cheese",
      "unit": "mug"
    },
    {
      "comment": "",
      "fdc_id": 326698,
      "formatted_quantity": "1",
      "group": -1,
      "name": "wholegrain mustard",
      "prep": "",
      "quantity": "1",
      "synonym": "mustard",
      "unit": "tsp"
    },
    {
      "comment": "",
      "fdc_id": "",
      "formatted_quantity": "150",
      "group": 1,
      "name": "streaky bacon",
      "prep": "",
      "quantity": "150",
      "synonym": "bacon",
      "unit": "g"
    },
    {
      "comment": "",
      "fdc_id": 790646,
      "formatted_quantity": "1",
      "group": 1,
      "name": "onion",
      "prep": "",
      "quantity": "1",
      "synonym": "",
      "unit": ""
    },
    {
      "comment": "",
      "fdc_id": 2341268,
      "formatted_quantity": "500",
      "group": 1,
      "name": "pork mince",
      "prep": "",
      "quantity": "500",
      "synonym": "mince",
      "unit": "g"
    },
    {
      "comment": "",
      "fdc_id": 168426,
      "formatted_quantity": "2",
      "group": -1,
      "name": "leeks",
      "prep": "sliced",
      "quantity": "2",
      "synonym": "",
      "unit": ""
    },
    {
      "comment": "",
      "fdc_id": 790018,
      "formatted_quantity": "1",
      "group": -1,
      "name": "plain flour",
      "prep": "",
      "quantity": "1",
      "synonym": "flour",
      "unit": "tbsp"
    },
    {
      "comment": "",
      "fdc_id": 2344813,
      "formatted_quantity": "1",
      "group": -1,
      "name": "cider",
      "prep": "",
      "quantity": "1",
      "synonym": "",
      "unit": "mug"
    },
    {
      "comment": "",
      "fdc_id": 2345664,
      "formatted_quantity": "1",
      "group": -1,
      "name": "veg stock cube",
      "prep": "",
      "quantity": "1",
      "synonym": "stock cube",
      "unit": ""
    }
  ],
  "instruction_headings": null,
  "instructions": [
    {
      "group": -1,
      "text": "Preheat the oven to [200°C]/gas <7>. Grease a large casserole dish.  "
    },
    {
      "group": -1,
      "text": "Put the potatoes and the cauliflower in a saucepan of boiling water. Bring to the boil and then turn down to simmer for {10 minutes}. Drain and return to the ban. Add the cheese and mustard and mash together.  "
    },
    {
      "group": -1,
      "text": "Meanwhile, fry the bacon in a large frying pan until it is crispy. Remove from the pan and cut into small pieces.  "
    },
    {
      "group": -1,
      "text": "In the same frying pan, fry the onions until they become soft. Add the mince and fry until it is no longer pink.  "
    },
    {
      "group": -1,
      "text": "Add the leeks and fry for {2 minutes}. Add the flour and stir well.  "
    },
    {
      "group": -1,
      "text": "Add the cider and the stock cube. Mix together, bring to the boil and season. Add the chopped bacon and pour into the casserole dish.  "
    },
    {
      "group": -1,
      "text": "Put the mash on top. Place in the oven for {25-30 minutes}, or until the top is browned. "
    }
  ],
  "lowEffort": false,
  "miseEnPlace": false,
  "name": "Cider pork & bacon pie with cauliflower and potato mash",
  "notes": null,
  "nutFree": false,
  "nutrition": null,
  "prepTime": "PT15M",
  "rating": "Neutral",
  "slug": "cider-pork-bacon-pie-with-cauliflower-and-potato-mash",
  "source": "Nosh: Quick & Easy",
  "tags": [
    "pie"
  ],
  "totalTime": "PT55M",
  "units": "metric",
  "url": null,
  "vegan": false,
  "yield_": "4"
}