{
  "archiveTimestamp": null,
  "archiveUrl": null,
  "category": "Veggie",
  "cookTime": "PT35M",
  "cuisine": null,
  "dairyFree": false,
  "dateCooked": "2023-10-19",
  "deadUrl": false,
  "description": null,
  "future": false,
  "glutenFree": false,
  "image": "corn-ish-pie.webp",
  "inactiveTime": null,
  "ingredient_headings": null,
  "ingredients": [
    {
      "comment": "",
      "fdc_id": "",
      "formatted_quantity": "220",
      "group": -1,
      "name": "soy mince",
      "prep": "",
      "quantity": "220",
      "synonym": "",
      "unit": "g"
    },
    {
      "comment": "",
      "fdc_id": 790646,
      "formatted_quantity": "1",
      "group": -1,
      "name": "onion",
      "prep": "",
      "quantity": "1",
      "synonym": "onions",
      "unit": ""
    },
    {
      "comment": "",
      "fdc_id": 2345324,
      "formatted_quantity": "200",
      "group": -1,
      "name": "swede",
      "prep": "",
      "quantity": "200",
      "synonym": "",
      "unit": "g"
    },
    {
      "comment": "",
      "fdc_id": 2346403,
      "formatted_quantity": "300",
      "group": -1,
      "name": "potato",
      "prep": "",
      "quantity": "300",
      "synonym": "potatoes",
      "unit": "g"
    },
    {
      "comment": "",
      "fdc_id": 2258586,
      "formatted_quantity": "100",
      "group": -1,
      "name": "carrot",
      "prep": "",
      "quantity": "100",
      "synonym": "carrots",
      "unit": "g"
    },
    {
      "comment": "",
      "fdc_id": "",
      "formatted_quantity": "500",
      "group": -1,
      "name": "stock",
      "prep": "",
      "quantity": "500",
      "synonym": "",
      "unit": "ml"
    },
    {
      "comment": "",
      "fdc_id": 790018,
      "formatted_quantity": "1",
      "group": -1,
      "name": "flour",
      "prep": "",
      "quantity": "1",
      "synonym": "",
      "unit": "tb"
    },
    {
      "comment": "",
      "fdc_id": 170931,
      "formatted_quantity": "1",
      "group": -1,
      "name": "black pepper",
      "prep": "",
      "quantity": "1",
      "synonym": "",
      "unit": "tsp"
    },
    {
      "comment": "",
      "fdc_id": 170933,
      "formatted_quantity": "½",
      "group": -1,
      "name": "white pepper",
      "prep": "",
      "quantity": "0.5",
      "synonym": "",
      "unit": "tsps"
    },
    {
      "comment": "",
      "fdc_id": 171315,
      "formatted_quantity": "¼",
      "group": -1,
      "name": "allspice",
      "prep": "",
      "quantity": "0.25",
      "synonym": "",
      "unit": "tsps"
    },
    {
      "comment": "",
      "fdc_id": "",
      "formatted_quantity": "½",
      "group": -1,
      "name": "marmite",
      "prep": "",
      "quantity": "0.5",
      "synonym": "",
      "unit": "tsps"
    },
    {
      "comment": "",
      "fdc_id": "",
      "formatted_quantity": "",
      "group": -1,
      "name": "butter / oil",
      "prep": "",
      "quantity": "",
      "synonym": "",
      "unit": ""
    }
  ],
  "instruction_headings": null,
  "instructions": [
    {
      "group": -1,
      "text": "Heat the oil and gently cook the finely diced onions, carrots and swede. Drop a few knobs of butter in top of the vegetable mix. Cook for {10 minutes} until vegetables are starting to tender."
    },
    {
      "group": -1,
      "text": "Add the potatoes and cook for a further few minutes. Add the soy mince and mix through. Cook for a further few minutes then mix in the dry spices and flour and coat the vegetables."
    },
    {
      "group": -1,
      "text": "Meanwhile make up the stock and dissolve the marmite in. Add to the pan and mix well. Simmer the mix for {20 minutes} until the potatoes are tender."
    }
  ],
  "lowEffort": false,
  "miseEnPlace": false,
  "name": "Corn-ish pie",
  "notes": null,
  "nutFree": false,
  "nutrition": null,
  "prepTime": "PT10M",
  "rating": "Neutral",
  "slug": "corn-ish-pie",
  "source": "David",
  "tags": null,
  "totalTime": "PT45M",
  "units": "metric",
  "url": null,
  "vegan": false,
  "yield_": "4"
}