{
  "archiveTimestamp": null,
  "archiveUrl": null,
  "category": "Pork",
  "cookTime": "PT50M",
  "cuisine": null,
  "dairyFree": false,
  "dateCooked": "2018-09-02",
  "deadUrl": false,
  "description": "This thrifty and comforting pasta bake for two is made with a punchy garlic and chilli spiked tomato sauce, then topped with mozzarella.",
  "future": false,
  "glutenFree": false,
  "image": "courgette-sausage-rigatoni-bake.webp",
  "inactiveTime": null,
  "ingredient_headings": null,
  "ingredients": [
    {
      "comment": "",
      "fdc_id": 1750351,
      "formatted_quantity": "1",
      "group": -1,
      "name": "olive oil",
      "prep": "",
      "quantity": "1",
      "synonym": "oil",
      "unit": "tbsp"
    },
    {
      "comment": "",
      "fdc_id": 2341603,
      "formatted_quantity": "4",
      "group": -1,
      "name": "good quality pork sausages",
      "prep": "",
      "quantity": "4",
      "synonym": "sausage",
      "unit": ""
    },
    {
      "comment": "",
      "fdc_id": 2345328,
      "formatted_quantity": "2",
      "group": -1,
      "name": "courgettes",
      "prep": "sliced on the diagonal then chopped into batons",
      "quantity": "2",
      "synonym": "courgette",
      "unit": ""
    },
    {
      "comment": "",
      "fdc_id": 1104647,
      "formatted_quantity": "3",
      "group": -1,
      "name": "garlic",
      "prep": "finely sliced",
      "quantity": "3",
      "synonym": "",
      "unit": "cloves"
    },
    {
      "comment": "",
      "fdc_id": "",
      "formatted_quantity": "",
      "group": -1,
      "name": "chilli flakes",
      "prep": "",
      "quantity": "",
      "synonym": "",
      "unit": "pinch"
    },
    {
      "comment": "",
      "fdc_id": 333281,
      "formatted_quantity": "1x",
      "group": -1,
      "name": "chopped tomatoes",
      "prep": "",
      "quantity": "1x",
      "synonym": "tomatoes",
      "unit": "400 g can"
    },
    {
      "comment": "",
      "fdc_id": 2343841,
      "formatted_quantity": "200",
      "group": -1,
      "name": "rigatoni",
      "prep": "",
      "quantity": "200",
      "synonym": "pasta",
      "unit": "g"
    },
    {
      "comment": "",
      "fdc_id": 329370,
      "formatted_quantity": "0.5x",
      "group": -1,
      "name": "mozzarella",
      "prep": "patted dry and torn into chunks",
      "quantity": "0.5x",
      "synonym": "cheese",
      "unit": "150 g ball"
    }
  ],
  "instruction_headings": null,
  "instructions": [
    {
      "group": -1,
      "text": "Heat the slow cooker. Heat the oil in a large frying pan. Squeeze the sausage meat out of the skins, breaking it into little chunks, and pop in the pan. Fry for {8 minutes} until golden and cooked through, then scoop into the slow cooker pot. Add the courgette, garlic, chilli flakes, tomatoes, pasta and <250> ml water to the slow cooker pot, season and cook on High for {30 minutes}."
    },
    {
      "group": -1,
      "text": "Spoon the pasta and sauce into two small flameproof dishes. Heat the grill to high. Dot the cheese on top of the sauce dishes, then put under the grill until the cheese is golden and bubbling (about {5-10 minutes}), and serve."
    }
  ],
  "lowEffort": false,
  "miseEnPlace": false,
  "name": "Courgette, sausage & rigatoni bake",
  "notes": null,
  "nutFree": false,
  "nutrition": {
    "calories": 417,
    "carbohydrates": 37,
    "fat": 22,
    "fibre": 2.5,
    "protein": 19,
    "salt": 1.55,
    "saturates": 8,
    "sugars": 7
  },
  "prepTime": "PT10M",
  "rating": "Neutral",
  "slug": "courgette-sausage-rigatoni-bake",
  "source": "BBC Good Food: Slow Cooker Favourites",
  "tags": [
    "slow-cooker"
  ],
  "totalTime": "PT60M",
  "units": "metric",
  "url": null,
  "vegan": false,
  "yield_": "2"
}