{
  "archiveTimestamp": null,
  "archiveUrl": null,
  "category": "Dessert",
  "cookTime": "PT30M",
  "cuisine": null,
  "dairyFree": false,
  "dateCooked": "2022-03-20",
  "deadUrl": false,
  "description": null,
  "future": false,
  "glutenFree": false,
  "image": "cranberry-oat-and-white-chocolate-biscuits.webp",
  "inactiveTime": null,
  "ingredient_headings": null,
  "ingredients": [
    {
      "comment": "",
      "fdc_id": "2346393",
      "formatted_quantity": "150",
      "group": -1,
      "name": "whole almonds",
      "prep": "skin on",
      "quantity": "150",
      "synonym": "almonds",
      "unit": "g"
    },
    {
      "comment": "",
      "fdc_id": "790018",
      "formatted_quantity": "150",
      "group": -1,
      "name": "plain flour",
      "prep": "",
      "quantity": "150",
      "synonym": "",
      "unit": "g"
    },
    {
      "comment": "",
      "fdc_id": "",
      "formatted_quantity": "75",
      "group": -1,
      "name": "wholemeal flour",
      "prep": "",
      "quantity": "75",
      "synonym": "",
      "unit": "g"
    },
    {
      "comment": "",
      "fdc_id": "",
      "formatted_quantity": "150",
      "group": -1,
      "name": "jumbo rolled outs",
      "prep": "",
      "quantity": "150",
      "synonym": "oats",
      "unit": "g"
    },
    {
      "comment": "",
      "fdc_id": "746775",
      "formatted_quantity": "¼",
      "group": -1,
      "name": "salt",
      "prep": "",
      "quantity": "0.25",
      "synonym": "",
      "unit": "tsp"
    },
    {
      "comment": "",
      "fdc_id": "789828",
      "formatted_quantity": "225",
      "group": -1,
      "name": "unsalted butter",
      "prep": "at room temperature, roughly cut into 3-4 cm pieces",
      "quantity": "225",
      "synonym": "butter",
      "unit": "g"
    },
    {
      "comment": "",
      "fdc_id": "2675517",
      "formatted_quantity": "100",
      "group": -1,
      "name": "caster sugar",
      "prep": "",
      "quantity": "100",
      "synonym": "sugar",
      "unit": "g"
    },
    {
      "comment": "",
      "fdc_id": "",
      "formatted_quantity": "",
      "group": -1,
      "name": "finely grated zest of 1 large orange",
      "prep": "",
      "quantity": "",
      "synonym": "",
      "unit": ""
    },
    {
      "comment": "",
      "fdc_id": "",
      "formatted_quantity": "125",
      "group": -1,
      "name": "dried cranberries",
      "prep": "chopped in half, soaked in 25 ml orange juice",
      "quantity": "125",
      "synonym": "cranberries",
      "unit": "g"
    },
    {
      "comment": "",
      "fdc_id": "167571",
      "formatted_quantity": "250",
      "group": -1,
      "name": "white chocolate",
      "prep": "",
      "quantity": "250",
      "synonym": "",
      "unit": "g"
    }
  ],
  "instruction_headings": null,
  "instructions": [
    {
      "group": -1,
      "text": "Preheat the oven to [160°C]/Gas <4>."
    },
    {
      "group": -1,
      "text": "Spread the almonds out on a baking tray and roast for {10 minutes}. Remove from the oven and, once cool enough to handle, roughly chop into <0.5-1> cm pieces. Transfer the nuts to a large bowl and add the flours, oats and salt. Mix together and set aside."
    },
    {
      "group": -1,
      "text": "Increase the oven temperature to [170°C]/Gas <5>. Line two or three baking trays with baking parchment and set aside."
    },
    {
      "group": -1,
      "text": "Place the butter, sugar and orange zest in the bowl of an electric mixer with the paddle attachment in place. Beat on a medium speed for about {2 minutes}, until combined and light. Add the almond and flour mix to the butter and sugar and continue to mix on a low speed until the dough just comes together. Add the cranberries and orange juice and mix for another few seconds to combine, then tip the dough on to a lightly floured work surface. Knead into a ball, sprinkling over more flour if needed to prevent it getting too sticky."
    },
    {
      "group": -1,
      "text": "Cut the dough in half and roll out one half so that it’s just over <0.5> cm thick. Use a <7> cm cookie cutter to cut the dough into rounds. Transfer these to a lined tray while you continue with the remaining dough. Bake for {18 minutes}, until lightly coloured all over. Remove from the oven and set aside until completely cool."
    },
    {
      "group": -1,
      "text": "Meanwhile, place the white chocolate in a small bowl over a pan of gently simmering water, stirring occasionally, until melted. Do not let the base of the bowl touch the water. To coat the cookies, use the back of a dessert spoon to spread a tablespoon of melted chocolate over each. Set aside on a cooling rack for the chocolate to set, which can take up to an hour, before serving."
    }
  ],
  "lowEffort": false,
  "miseEnPlace": false,
  "name": "Cranberry, oat and white chocolate biscuits",
  "notes": null,
  "nutFree": false,
  "nutrition": null,
  "prepTime": "PT15M",
  "rating": "Neutral",
  "slug": "cranberry-oat-and-white-chocolate-biscuits",
  "source": "SWEET by Ottolenghi",
  "tags": [
    "cookies"
  ],
  "totalTime": "PT45M",
  "units": "metric",
  "url": null,
  "vegan": false,
  "yield_": "30"
}