{
  "archiveTimestamp": "2023-11-22 07:40:46",
  "archiveUrl": "https://web.archive.org/web/20231122074046/https://cooking.nytimes.com/recipes/2223-curried-shepherds-pie",
  "category": "RedMeat",
  "cookTime": "PT50M",
  "cuisine": "British",
  "dairyFree": false,
  "dateCooked": "2022-01-29",
  "deadUrl": false,
  "description": null,
  "future": false,
  "glutenFree": false,
  "image": "curried-shepherds-pie.webp",
  "inactiveTime": null,
  "ingredient_headings": null,
  "ingredients": [
    {
      "comment": "",
      "fdc_id": "2346401",
      "formatted_quantity": "6",
      "group": -1,
      "name": "Russet potatoes",
      "prep": "peeled and cut into 1.5 inch cubes",
      "quantity": "2",
      "synonym": "potatoes",
      "unit": "lbs"
    },
    {
      "comment": "if desired",
      "fdc_id": "746775",
      "formatted_quantity": "",
      "group": -1,
      "name": "Salt to taste",
      "prep": "",
      "quantity": "",
      "synonym": "",
      "unit": ""
    },
    {
      "comment": "",
      "fdc_id": "",
      "formatted_quantity": "1",
      "group": -1,
      "name": "peanut, vegetable or corn oil",
      "prep": "",
      "quantity": "1",
      "synonym": "oil",
      "unit": "tablespoon"
    },
    {
      "comment": "",
      "fdc_id": "790646",
      "formatted_quantity": "¾",
      "group": -1,
      "name": "onions",
      "prep": "finely chopped",
      "quantity": "0.75",
      "synonym": "",
      "unit": "cup"
    },
    {
      "comment": "",
      "fdc_id": "",
      "formatted_quantity": "1",
      "group": -1,
      "name": "finely minced garlic",
      "prep": "",
      "quantity": "1",
      "synonym": "garlic",
      "unit": "tablespoon"
    },
    {
      "comment": "",
      "fdc_id": "170924",
      "formatted_quantity": "1",
      "group": -1,
      "name": "curry powder",
      "prep": "",
      "quantity": "1",
      "synonym": "",
      "unit": "tablespoon"
    },
    {
      "comment": "",
      "fdc_id": "384420",
      "formatted_quantity": "1",
      "group": -1,
      "name": "ground cumin",
      "prep": "",
      "quantity": "1",
      "synonym": "cumin",
      "unit": "teaspoon"
    },
    {
      "comment": "",
      "fdc_id": "170921",
      "formatted_quantity": "1",
      "group": -1,
      "name": "ground coriander",
      "prep": "",
      "quantity": "1",
      "synonym": "coriander",
      "unit": "teaspoon"
    },
    {
      "comment": "",
      "fdc_id": "",
      "formatted_quantity": "2",
      "group": -1,
      "name": "ground lean beef",
      "prep": "",
      "quantity": "2",
      "synonym": "",
      "unit": "lbs"
    },
    {
      "comment": "to taste",
      "fdc_id": "",
      "formatted_quantity": "",
      "group": -1,
      "name": "Freshly ground pepper",
      "prep": "",
      "quantity": "",
      "synonym": "",
      "unit": ""
    },
    {
      "comment": "",
      "fdc_id": "",
      "formatted_quantity": "1",
      "group": -1,
      "name": "crushed, canned tomatoes",
      "prep": "",
      "quantity": "1",
      "synonym": "tomatoes",
      "unit": "cup"
    },
    {
      "comment": "",
      "fdc_id": "",
      "formatted_quantity": "½",
      "group": -1,
      "name": "fresh or canned chicken broth",
      "prep": "",
      "quantity": "0.5",
      "synonym": "broth",
      "unit": "cup"
    },
    {
      "comment": "",
      "fdc_id": "746784",
      "formatted_quantity": "1",
      "group": -1,
      "name": "sugar",
      "prep": "",
      "quantity": "1",
      "synonym": "",
      "unit": "teaspoon"
    },
    {
      "comment": "",
      "fdc_id": "",
      "formatted_quantity": "2",
      "group": -1,
      "name": "cooked fresh or frozen green peas",
      "prep": "",
      "quantity": "2",
      "synonym": "peas",
      "unit": "cups"
    },
    {
      "comment": "",
      "fdc_id": "",
      "formatted_quantity": "0.5",
      "group": -1,
      "name": "hot milk",
      "prep": "",
      "quantity": "0.5",
      "synonym": "",
      "unit": "cup"
    },
    {
      "comment": "",
      "fdc_id": "789828",
      "formatted_quantity": "3",
      "group": -1,
      "name": "butter",
      "prep": "",
      "quantity": "3",
      "synonym": "",
      "unit": "tablespoons"
    }
  ],
  "instruction_headings": null,
  "instructions": [
    {
      "group": -1,
      "text": "Put the potatoes into a pot and add water to cover and salt to taste. Bring to the boil and cook <10> to {15 minutes} or until the potatoes are tender when pierced with a fork."
    },
    {
      "group": -1,
      "text": "As the potatoes cook, heat the oil in a skillet and add the onions and garlic over medium heat. Cook, stirring occasionally, until they are wilted. Add the curry powder, cumin and coriander and cook briefly, stirring."
    },
    {
      "group": -1,
      "text": "Add the meat and cook, stirring down with the side of a heavy kitchen spoon to break up the lumps. Add salt, pepper, the tomatoes, broth and sugar. Cook, stirring occasionally, about <20> to {30 minutes}."
    },
    {
      "group": -1,
      "text": "Meanwhile, preheat the broiler."
    },
    {
      "group": -1,
      "text": "Drain the potatoes and put them through a food mill or a potato ricer back into the pot. Stir in the peas and cook briefly."
    },
    {
      "group": -1,
      "text": "Add the hot milk, two tablespoons of the butter and pepper, preferably white, beating with a wooden spoon."
    },
    {
      "group": -1,
      "text": "Heat an eight-cup baking dish (a souffle dish works well) and spoon the piping-hot curried meat into it. Top with the hot mashed potatoes. Smooth over the top. Dot with the remaining tablespoon of butter."
    },
    {
      "group": -1,
      "text": "Run the mixture under the broiler until the top is golden brown. Serve immediately."
    }
  ],
  "lowEffort": false,
  "miseEnPlace": false,
  "name": "Curried shepherd's pie",
  "notes": null,
  "nutFree": false,
  "nutrition": {
    "calories": 321,
    "carbohydrates": 26,
    "fat": 12,
    "fibre": 4,
    "protein": 30,
    "salt": 0.787,
    "saturates": 5,
    "sugars": 5
  },
  "prepTime": "PT25M",
  "rating": "Neutral",
  "slug": "curried-shepherds-pie",
  "source": "cooking.nytimes.com",
  "tags": [
    "beef",
    "pie"
  ],
  "totalTime": "PT1H15M",
  "units": "imperial",
  "url": "https://cooking.nytimes.com/recipes/2223-curried-shepherds-pie",
  "vegan": false,
  "yield_": "6-8"
}