{
  "archiveTimestamp": "2023-11-22 07:48:34",
  "archiveUrl": "https://web.archive.org/web/20231122074834/https://www.sainsburysmagazine.co.uk/recipes/mains/fajita-chicken-traybake",
  "category": "Poultry",
  "cookTime": "PT20M",
  "cuisine": "Mexican",
  "dairyFree": false,
  "dateCooked": "2019-06-20",
  "deadUrl": false,
  "description": "This speedy traybake is packed with fajita flavours, and is on the table in 30 minutes. You can make it veggie by replacing the chicken with diced sweet potato and butternut squash.",
  "future": false,
  "glutenFree": true,
  "image": "fajita-chicken-traybake.webp",
  "inactiveTime": null,
  "ingredient_headings": null,
  "ingredients": [
    {
      "comment": "check that your chosen fajita mix is gluten free if required",
      "fdc_id": "",
      "formatted_quantity": "1",
      "group": -1,
      "name": "fajita spice mix",
      "prep": "",
      "quantity": "1",
      "synonym": "spice mix",
      "unit": "pack"
    },
    {
      "comment": "",
      "fdc_id": "2345737",
      "formatted_quantity": "2",
      "group": -1,
      "name": "vegetable oil",
      "prep": "",
      "quantity": "2",
      "synonym": "oil",
      "unit": "tbsp"
    },
    {
      "comment": "",
      "fdc_id": "790577",
      "formatted_quantity": "2",
      "group": -1,
      "name": "red onions",
      "prep": "sliced",
      "quantity": "2",
      "synonym": "onions",
      "unit": ""
    },
    {
      "comment": "",
      "fdc_id": "",
      "formatted_quantity": "3",
      "group": -1,
      "name": "mixed peppers",
      "prep": "deseeded and sliced",
      "quantity": "3",
      "synonym": "peppers",
      "unit": ""
    },
    {
      "comment": "",
      "fdc_id": "",
      "formatted_quantity": "320",
      "group": -1,
      "name": "pack mini chicken fillets",
      "prep": "cut into thirds",
      "quantity": "320",
      "synonym": "chicken",
      "unit": "g"
    },
    {
      "comment": "",
      "fdc_id": "2644285",
      "formatted_quantity": "1x",
      "group": -1,
      "name": "black beans",
      "prep": "rinsed and drained",
      "quantity": "1x",
      "synonym": "",
      "unit": "380 g pack"
    },
    {
      "comment": "",
      "fdc_id": "2343898",
      "formatted_quantity": "1x",
      "group": -1,
      "name": "pre-cooked brown rice",
      "prep": "",
      "quantity": "1x",
      "synonym": "rice",
      "unit": "250 g pack"
    },
    {
      "comment": "",
      "fdc_id": "",
      "formatted_quantity": "150",
      "group": -1,
      "name": "pot soured cream",
      "prep": "",
      "quantity": "150",
      "synonym": "soured cream",
      "unit": "ml"
    },
    {
      "comment": "",
      "fdc_id": "2345302",
      "formatted_quantity": "2",
      "group": -1,
      "name": "chopped coriander",
      "prep": "",
      "quantity": "2",
      "synonym": "",
      "unit": "tbsp"
    }
  ],
  "instruction_headings": null,
  "instructions": [
    {
      "group": -1,
      "text": "Preheat the oven to [200°C], gas <7>, with a very large shallow roasting tin inside (if you don’t have a really large one, use <2> trays)."
    },
    {
      "group": -1,
      "text": "In a large bowl, stir the spice mix into the oil, then toss the onions, peppers and chicken in to coat. Tip into the hot roasting tin (or divide between <2> trays – you want everything fairly well spread out so that they roast rather than steam). Roast in the oven for {10 minutes}."
    },
    {
      "group": -1,
      "text": "Stir everything around and cook for another {5 minutes}, then mix in the black beans and rice and return to the oven to heat through for {5 minutes}."
    },
    {
      "group": -1,
      "text": "Serve with the soured cream drizzled over, scattered with chopped coriander."
    }
  ],
  "lowEffort": false,
  "miseEnPlace": false,
  "name": "Fajita chicken traybake",
  "notes": null,
  "nutFree": false,
  "nutrition": {
    "calories": 425,
    "carbohydrates": 47,
    "fat": 13,
    "fibre": 12,
    "protein": 31,
    "salt": 1.3,
    "saturates": 3,
    "sugars": 11
  },
  "prepTime": "PT10M",
  "rating": "Neutral",
  "slug": "fajita-chicken-traybake",
  "source": "www.sainsburysmagazine.co.uk",
  "tags": null,
  "totalTime": "PT30M",
  "units": "metric",
  "url": "https://www.sainsburysmagazine.co.uk/recipes/mains/fajita-chicken-traybake",
  "vegan": false,
  "yield_": "4"
}