{
  "archiveTimestamp": null,
  "archiveUrl": null,
  "category": "Pork",
  "cookTime": "PT10M",
  "cuisine": null,
  "dairyFree": false,
  "dateCooked": "2016-01-05",
  "deadUrl": false,
  "description": "This has a real takeaway feel, but with fresh ingredients and no additives. It is, at least, half the price and also much quicker than waiting for the takeaway! Gluten-free: make sure the soy sauce is GlutenFree.",
  "future": false,
  "glutenFree": true,
  "image": "five-spice-pork-with-ginger-and-honey.webp",
  "inactiveTime": null,
  "ingredient_headings": {
    "1": "Sauce"
  },
  "ingredients": [
    {
      "comment": "",
      "fdc_id": 2343892,
      "formatted_quantity": "1½",
      "group": -1,
      "name": "basmati rice",
      "prep": "",
      "quantity": "1.5",
      "synonym": "rice",
      "unit": "mugs"
    },
    {
      "comment": "",
      "fdc_id": 169698,
      "formatted_quantity": "2",
      "group": -1,
      "name": "cornflour",
      "prep": "",
      "quantity": "2",
      "synonym": "",
      "unit": "tsp"
    },
    {
      "comment": "",
      "fdc_id": "",
      "formatted_quantity": "3",
      "group": -1,
      "name": "5 spice powder",
      "prep": "",
      "quantity": "3",
      "synonym": "",
      "unit": "tsp"
    },
    {
      "comment": "",
      "fdc_id": 2646168,
      "formatted_quantity": "4",
      "group": -1,
      "name": "pork steaks",
      "prep": "thinly sliced",
      "quantity": "4",
      "synonym": "pork",
      "unit": ""
    },
    {
      "comment": "",
      "fdc_id": 2345747,
      "formatted_quantity": "2",
      "group": -1,
      "name": "toasted sesame oil",
      "prep": "",
      "quantity": "2",
      "synonym": "oil",
      "unit": "tbsp"
    },
    {
      "comment": "",
      "fdc_id": "",
      "formatted_quantity": "1",
      "group": -1,
      "name": "green or red pepper",
      "prep": "chopped",
      "quantity": "1",
      "synonym": "pepper",
      "unit": ""
    },
    {
      "comment": "",
      "fdc_id": 170005,
      "formatted_quantity": "6",
      "group": -1,
      "name": "spring onions",
      "prep": "chopped",
      "quantity": "6",
      "synonym": "onions",
      "unit": ""
    },
    {
      "comment": "",
      "fdc_id": 169231,
      "formatted_quantity": "2",
      "group": -1,
      "name": "freshly grated ginger",
      "prep": "",
      "quantity": "2",
      "synonym": "ginger",
      "unit": "tbsp"
    },
    {
      "comment": "",
      "fdc_id": 173647,
      "formatted_quantity": "1",
      "group": 1,
      "name": "water",
      "prep": "",
      "quantity": "1",
      "synonym": "",
      "unit": "mug"
    },
    {
      "comment": "",
      "fdc_id": 169698,
      "formatted_quantity": "1",
      "group": 1,
      "name": "cornflour",
      "prep": "",
      "quantity": "1",
      "synonym": "",
      "unit": "tbsp"
    },
    {
      "comment": "",
      "fdc_id": "",
      "formatted_quantity": "2",
      "group": 1,
      "name": "mirin",
      "prep": "",
      "quantity": "2",
      "synonym": "",
      "unit": "tbsp"
    },
    {
      "comment": "",
      "fdc_id": "",
      "formatted_quantity": "2",
      "group": 1,
      "name": "soy",
      "prep": "",
      "quantity": "2",
      "synonym": "",
      "unit": "tbsp"
    },
    {
      "comment": "",
      "fdc_id": "",
      "formatted_quantity": "",
      "group": 1,
      "name": "juice of &frac12; lime",
      "prep": "",
      "quantity": "",
      "synonym": "",
      "unit": ""
    },
    {
      "comment": "",
      "fdc_id": 2345841,
      "formatted_quantity": "2",
      "group": 1,
      "name": "honey",
      "prep": "",
      "quantity": "2",
      "synonym": "",
      "unit": "tbsp"
    }
  ],
  "instruction_headings": null,
  "instructions": [
    {
      "group": -1,
      "text": "Put the rice on to cook in <3> mugs of boiling water. Mix the sauce ingredients together.  "
    },
    {
      "group": -1,
      "text": "Mix the cornflour and <5> spice powder and place on a plate. Roll the pork slices in the mixture, making sure to cover all the pork. Season with salt and pepper.  "
    },
    {
      "group": -1,
      "text": "Heat the oil in a wok and fry the pork for {1-2 minutes}. Remove from the pan as soon as the pork is cooked through.  "
    },
    {
      "group": -1,
      "text": "Add the peppers to the pan and fry for {1 minute}. Add the onions and ginger and fry for a further minute.  "
    },
    {
      "group": -1,
      "text": "Add the sauce to the pan, bring to the boil and simmer for {1 minute}.  "
    },
    {
      "group": -1,
      "text": "Serve with the rice."
    }
  ],
  "lowEffort": false,
  "miseEnPlace": false,
  "name": "Five spice pork with ginger and honey",
  "notes": null,
  "nutFree": false,
  "nutrition": null,
  "prepTime": "PT10M",
  "rating": "Neutral",
  "slug": "five-spice-pork-with-ginger-and-honey",
  "source": "Nosh: Quick & Easy",
  "tags": null,
  "totalTime": "PT20M",
  "units": "metric",
  "url": null,
  "vegan": false,
  "yield_": "4"
}