{
  "archiveTimestamp": null,
  "archiveUrl": null,
  "category": "RedMeat",
  "cookTime": "PT20M",
  "cuisine": null,
  "dairyFree": false,
  "dateCooked": "2019-12-09",
  "deadUrl": false,
  "description": "Many people assume that red meat is bad for you, but eaten in moderation it offers protein, iron and valuable B vitamins. This makes a good choice for a bbq.",
  "future": false,
  "glutenFree": false,
  "image": "greek-lamb-with-smoked-aubergine-minty-broad-beans.webp",
  "inactiveTime": null,
  "ingredient_headings": null,
  "ingredients": [
    {
      "comment": "",
      "fdc_id": 2345305,
      "formatted_quantity": "1",
      "group": -1,
      "name": "aubergine",
      "prep": "",
      "quantity": "1",
      "synonym": "",
      "unit": ""
    },
    {
      "comment": "to serve",
      "fdc_id": 2344662,
      "formatted_quantity": "½",
      "group": -1,
      "name": "lemon",
      "prep": "zest and juice plus wedges",
      "quantity": "0.5",
      "synonym": "",
      "unit": ""
    },
    {
      "comment": "",
      "fdc_id": 1104647,
      "formatted_quantity": "2",
      "group": -1,
      "name": "garlic",
      "prep": "finely grated",
      "quantity": "2",
      "synonym": "",
      "unit": "large cloves"
    },
    {
      "comment": "or 0.5 tsp dried",
      "fdc_id": "",
      "formatted_quantity": "1",
      "group": -1,
      "name": "fresh oregano",
      "prep": "",
      "quantity": "1",
      "synonym": "oregano",
      "unit": "tsp"
    },
    {
      "comment": "plus 0.5 tsp",
      "fdc_id": 748608,
      "formatted_quantity": "2",
      "group": -1,
      "name": "extra virgin olive oil",
      "prep": "",
      "quantity": "2",
      "synonym": "oil",
      "unit": "tsp"
    },
    {
      "comment": "",
      "fdc_id": "",
      "formatted_quantity": "2",
      "group": -1,
      "name": "lean leg lamb steaks",
      "prep": "all visible fat removed",
      "quantity": "2",
      "synonym": "lamb steaks",
      "unit": ""
    },
    {
      "comment": "",
      "fdc_id": "",
      "formatted_quantity": "100",
      "group": -1,
      "name": "frozen baby broad beans or soya beans",
      "prep": "",
      "quantity": "100",
      "synonym": "beans",
      "unit": "g"
    },
    {
      "comment": "",
      "fdc_id": "",
      "formatted_quantity": "2",
      "group": -1,
      "name": "Greek bio yogurt",
      "prep": "",
      "quantity": "2",
      "synonym": "yogurt",
      "unit": "tbsp"
    },
    {
      "comment": "",
      "fdc_id": 2343062,
      "formatted_quantity": "2",
      "group": -1,
      "name": "tahini",
      "prep": "",
      "quantity": "2",
      "synonym": "",
      "unit": "tsp"
    },
    {
      "comment": "",
      "fdc_id": 173475,
      "formatted_quantity": "12",
      "group": -1,
      "name": "mint leaves",
      "prep": "roughly torn",
      "quantity": "12",
      "synonym": "",
      "unit": ""
    }
  ],
  "instruction_headings": null,
  "instructions": [
    {
      "group": -1,
      "text": "Turn on your largest gas flame and cook the aubergine on top of it, turning it every {2 minutes}, for about {7-8 minutes} until it is soft an the skins have charred. You can do this on the bbq if you don't have a gas hob. Allow to cool a little."
    },
    {
      "group": -1,
      "text": "Meanwhile, mix the lemon zest, half the garlic, oregano, some black pepper and <½> tsp oil then use this to coat the lamb steaks. Boil the beans for {4 minutes}."
    },
    {
      "group": -1,
      "text": "Put the aubergine on a large plate and carefully remove and discard the skin, then finely chop the flesh, which should now be soft and pulpy, with a knife and fork. Tip into a bowl and stir with the remaining garlic, yogurt, seasoning and tahini and stir well."
    },
    {
      "group": -1,
      "text": "Griddle or bbq the lamb for {5 minutes}, turning once. Meanwhile, mix the beans with the lemon juice, remaining olive oil and mint leaves. Spoon the aubergine puree onto plates and scatter round the minty beans. Top with the lamb and lemon wedges then serve."
    }
  ],
  "lowEffort": false,
  "miseEnPlace": false,
  "name": "Greek lamb with smoked aubergine & minty broad beans",
  "notes": null,
  "nutFree": false,
  "nutrition": {
    "calories": 366,
    "carbohydrates": 13,
    "fat": 19,
    "fibre": 11,
    "protein": 30,
    "salt": 0.2,
    "saturates": 8,
    "sugars": 7
  },
  "prepTime": "PT15M",
  "rating": "Neutral",
  "slug": "greek-lamb-with-smoked-aubergine-minty-broad-beans",
  "source": "BBC Good Food: Cheap & Healthy",
  "tags": [
    "lamb"
  ],
  "totalTime": "PT35M",
  "units": "metric",
  "url": null,
  "vegan": false,
  "yield_": "2"
}