{
  "archiveTimestamp": null,
  "archiveUrl": null,
  "category": "Veggie",
  "cookTime": "PT35M",
  "cuisine": null,
  "dairyFree": false,
  "dateCooked": "2024-07-12",
  "deadUrl": false,
  "description": "Stuffed peppers – retro or fantastic? As with pineapple upside-down cake, I think they are both. These lovely parcels, stuffed with rich artichokes and feta, are a far cry from the ones that turned up in school dinners, and show just how lovely stuffed vegetables can be.",
  "future": false,
  "glutenFree": false,
  "image": "herby-roasted-peppers-stuffed-with-artichokes-feta.webp",
  "inactiveTime": null,
  "ingredient_headings": {
    "1": "To serve"
  },
  "ingredients": [
    {
      "comment": "",
      "fdc_id": "2258590",
      "formatted_quantity": "4",
      "group": -1,
      "name": "long red peppers",
      "prep": "halved lenthways and deseeded",
      "quantity": "4",
      "synonym": "peppers",
      "unit": ""
    },
    {
      "comment": "",
      "fdc_id": "",
      "formatted_quantity": "1x",
      "group": -1,
      "name": "artichokes",
      "prep": "roughly chopped",
      "quantity": "1x",
      "synonym": "",
      "unit": "280 g jar"
    },
    {
      "comment": "",
      "fdc_id": "2341117",
      "formatted_quantity": "200",
      "group": -1,
      "name": "feta cheese",
      "prep": "crumbled",
      "quantity": "200",
      "synonym": "",
      "unit": "g"
    },
    {
      "comment": "",
      "fdc_id": "2346392",
      "formatted_quantity": "100",
      "group": -1,
      "name": "pine nuts",
      "prep": "",
      "quantity": "100",
      "synonym": "",
      "unit": "g"
    },
    {
      "comment": "",
      "fdc_id": "170931",
      "formatted_quantity": "",
      "group": -1,
      "name": "black pepper",
      "prep": "freshly ground",
      "quantity": "",
      "synonym": "",
      "unit": ""
    },
    {
      "comment": "",
      "fdc_id": "2345316",
      "formatted_quantity": "25",
      "group": -1,
      "name": "fresh flat-leaf parsley",
      "prep": "finely chopped",
      "quantity": "25",
      "synonym": "parsley",
      "unit": "g"
    },
    {
      "comment": "",
      "fdc_id": "2344662",
      "formatted_quantity": "1",
      "group": -1,
      "name": "lemon",
      "prep": "zest and juice",
      "quantity": "1",
      "synonym": "",
      "unit": ""
    },
    {
      "comment": "",
      "fdc_id": "325871",
      "formatted_quantity": "50",
      "group": -1,
      "name": "breadcrumbs",
      "prep": "",
      "quantity": "50",
      "synonym": "",
      "unit": "g"
    },
    {
      "comment": "",
      "fdc_id": "1750351",
      "formatted_quantity": "1",
      "group": -1,
      "name": "olive oil",
      "prep": "",
      "quantity": "1",
      "synonym": "",
      "unit": "tbsp"
    },
    {
      "comment": "",
      "fdc_id": "",
      "formatted_quantity": "",
      "group": 1,
      "name": "Focaccia or good bread",
      "prep": "",
      "quantity": "",
      "synonym": "",
      "unit": ""
    },
    {
      "comment": "",
      "fdc_id": "",
      "formatted_quantity": "",
      "group": 1,
      "name": "Crunchy green salad",
      "prep": "",
      "quantity": "",
      "synonym": "",
      "unit": ""
    }
  ],
  "instruction_headings": null,
  "instructions": [
    {
      "group": -1,
      "text": "Preheat the oven to [200°C]. Arrange the halved peppers in a lined roasting tin with plenty of room around them."
    },
    {
      "group": -1,
      "text": "Mix the artichokes, feta cheese, pine nuts, black pepper, parsley, lemon zest and juice and half the breadcrumbs, and stuff the mixture into the halved peppers."
    },
    {
      "group": -1,
      "text": "Top with the remaining breadcrumbs, drizzle over the olive oil, then transfer to the oven to roast for {30-35 minutes}, until the peppers are softened and slightly charred around the edges and the topping is crisp and golden."
    },
    {
      "group": -1,
      "text": "Serve hot, with a crunchy green salad and good bread alongside."
    }
  ],
  "lowEffort": false,
  "miseEnPlace": false,
  "name": "Herby roasted peppers stuffed with artichokes & feta",
  "notes": null,
  "nutFree": false,
  "nutrition": null,
  "prepTime": "PT10M",
  "rating": "Neutral",
  "slug": "herby-roasted-peppers-stuffed-with-artichokes-feta",
  "source": "The Green Roasting Tin",
  "tags": null,
  "totalTime": "PT45M",
  "units": "metric",
  "url": null,
  "vegan": false,
  "yield_": "4"
}