{
  "archiveTimestamp": "2023-11-22 08:20:01",
  "archiveUrl": "https://web.archive.org/web/20231122082001/https://www.bbcgoodfood.com/recipes/herby-lamb-burgers-beetroot-mayo",
  "category": "RedMeat",
  "cookTime": "PT15M",
  "cuisine": null,
  "dairyFree": false,
  "dateCooked": "2016-09-26",
  "deadUrl": false,
  "description": "Lamb and mint is a classic flavour combination, made even better with contrasting beetroot relish.",
  "future": false,
  "glutenFree": false,
  "image": "herby-lamb-burgers-with-sweet-potato-fries.webp",
  "inactiveTime": null,
  "ingredient_headings": null,
  "ingredients": [
    {
      "comment": "",
      "fdc_id": 2341313,
      "formatted_quantity": "400",
      "group": -1,
      "name": "lamb mince",
      "prep": "",
      "quantity": "400",
      "synonym": "lamb",
      "unit": "g"
    },
    {
      "comment": "",
      "fdc_id": 790577,
      "formatted_quantity": "1",
      "group": -1,
      "name": "red onion",
      "prep": "0.5 grated 0.5 thinly sliced",
      "quantity": "1",
      "synonym": "onion",
      "unit": "small"
    },
    {
      "comment": "",
      "fdc_id": 2345316,
      "formatted_quantity": "",
      "group": -1,
      "name": "parsley",
      "prep": "roughly chopped",
      "quantity": "",
      "synonym": "",
      "unit": "handful"
    },
    {
      "comment": "",
      "fdc_id": 173475,
      "formatted_quantity": "",
      "group": -1,
      "name": "mint",
      "prep": "roughly chopped",
      "quantity": "",
      "synonym": "",
      "unit": "handful"
    },
    {
      "comment": "oil",
      "fdc_id": 1750351,
      "formatted_quantity": "1",
      "group": -1,
      "name": "olive oil",
      "prep": "",
      "quantity": "1",
      "synonym": "",
      "unit": "tsp"
    },
    {
      "comment": "",
      "fdc_id": 2346404,
      "formatted_quantity": "2",
      "group": -1,
      "name": "sweet potatoes",
      "prep": "cut into chips",
      "quantity": "2",
      "synonym": "",
      "unit": ""
    },
    {
      "comment": "",
      "fdc_id": 2342917,
      "formatted_quantity": "1",
      "group": -1,
      "name": "light soy sauce",
      "prep": "",
      "quantity": "1",
      "synonym": "",
      "unit": "tbsp"
    },
    {
      "comment": "",
      "fdc_id": "",
      "formatted_quantity": "4",
      "group": -1,
      "name": "bread rolls",
      "prep": "",
      "quantity": "4",
      "synonym": "",
      "unit": ""
    },
    {
      "comment": "",
      "fdc_id": "",
      "formatted_quantity": "",
      "group": -1,
      "name": "couple handfuls watercress",
      "prep": "",
      "quantity": "",
      "synonym": "",
      "unit": ""
    }
  ],
  "instruction_headings": null,
  "instructions": [
    {
      "group": -1,
      "text": "Heat oven to [200°C]/gas <6>. In a large bowl, toss the sweet potato chips with oil and soy sauce. Transfer to a shallow roasting tin and season with black pepper. Bake for {30-40 mins}, until crisp.  "
    },
    {
      "group": -1,
      "text": "Meanwhile, mix the lamb, grated onion and herbs in a bowl with some seasoning, then divide the mix into <4> and shape into burgers.  "
    },
    {
      "group": -1,
      "text": "Heat a griddle pan until hot, rub the burgers with oil, and cook for {5-6 mins} on each side, or until cooked through.  "
    },
    {
      "group": -1,
      "text": "Fill the bread rolls with some watercress and a burger. Serve immediately.  "
    }
  ],
  "lowEffort": false,
  "miseEnPlace": false,
  "name": "Herby lamb burgers with sweet potato fries",
  "notes": null,
  "nutFree": false,
  "nutrition": {
    "calories": 490,
    "carbohydrates": 25,
    "fat": 32,
    "fibre": 2,
    "protein": 25,
    "salt": 1.1,
    "saturates": 9,
    "sugars": 4
  },
  "prepTime": "PT10M",
  "rating": "Neutral",
  "slug": "herby-lamb-burgers-with-sweet-potato-fries",
  "source": "www.bbcgoodfood.com",
  "tags": [
    "lamb",
    "burger"
  ],
  "totalTime": "PT25M",
  "units": "metric",
  "url": "https://www.bbcgoodfood.com/recipes/1959658/herby-lamb-burgers-with-beetroot-mayo",
  "vegan": false,
  "yield_": "4"
}