{
  "archiveTimestamp": "2023-11-22 14:42:53",
  "archiveUrl": "https://web.archive.org/web/20231122144253/https://www.ambitiouskitchen.com/herby-italian-orzo-salad/",
  "category": "Veggie",
  "cookTime": "PT10M",
  "cuisine": "Italian",
  "dairyFree": false,
  "dateCooked": "2023-07-15",
  "deadUrl": false,
  "description": "Beautiful herby Italian orzo salad filled with crunchy veggies, savory olives and delicious feta crumbles. Everything gets tossed in a light homemade Italian dressing for the perfect summer lunch or dinner that's easy to customize. Bring this fresh Italian orzo salad to your next BBQ!",
  "future": false,
  "glutenFree": false,
  "image": "herby-olive-italian-orzo-salad.webp",
  "inactiveTime": null,
  "ingredient_headings": {
    "1": "For the dressing",
    "2": "For the salad"
  },
  "ingredients": [
    {
      "comment": "",
      "fdc_id": 1750351,
      "formatted_quantity": "¼",
      "group": 1,
      "name": "olive oil",
      "prep": "",
      "quantity": "0.25",
      "synonym": "",
      "unit": "cups"
    },
    {
      "comment": "",
      "fdc_id": 2344675,
      "formatted_quantity": "3",
      "group": 1,
      "name": "lemon juice",
      "prep": "",
      "quantity": "3",
      "synonym": "",
      "unit": "tablespoons"
    },
    {
      "comment": "",
      "fdc_id": 1104647,
      "formatted_quantity": "1",
      "group": 1,
      "name": "garlic",
      "prep": "finely minced",
      "quantity": "1",
      "synonym": "",
      "unit": "clove"
    },
    {
      "comment": "",
      "fdc_id": 326698,
      "formatted_quantity": "1",
      "group": 1,
      "name": "dijon mustard",
      "prep": "",
      "quantity": "1",
      "synonym": "dijon",
      "unit": "teaspoon"
    },
    {
      "comment": "dried",
      "fdc_id": 171328,
      "formatted_quantity": "½",
      "group": 1,
      "name": "oregano",
      "prep": "",
      "quantity": "0.5",
      "synonym": "",
      "unit": "teaspoons"
    },
    {
      "comment": "",
      "fdc_id": 746775,
      "formatted_quantity": "½",
      "group": 1,
      "name": "salt",
      "prep": "",
      "quantity": "0.5",
      "synonym": "",
      "unit": "teaspoons"
    },
    {
      "comment": "",
      "fdc_id": 170931,
      "formatted_quantity": "",
      "group": 1,
      "name": "Freshly ground black pepper",
      "prep": "",
      "quantity": "",
      "synonym": "",
      "unit": ""
    },
    {
      "comment": "",
      "fdc_id": 2343841,
      "formatted_quantity": "10",
      "group": 2,
      "name": "orzo",
      "prep": "",
      "quantity": "10",
      "synonym": "pasta",
      "unit": "oz"
    },
    {
      "comment": "",
      "fdc_id": "",
      "formatted_quantity": "1½",
      "group": 2,
      "name": "halved cherry or grape tomatoes",
      "prep": "",
      "quantity": "1.5",
      "synonym": "tomatoes",
      "unit": "cups"
    },
    {
      "comment": "(or 1 cucumber, sliced and quartered)",
      "fdc_id": "",
      "formatted_quantity": "2",
      "group": 2,
      "name": "persian cucumbers",
      "prep": "sliced and quartered",
      "quantity": "2",
      "synonym": "cucumber",
      "unit": ""
    },
    {
      "comment": "",
      "fdc_id": 2258590,
      "formatted_quantity": "1",
      "group": 2,
      "name": "red bell pepper",
      "prep": "diced",
      "quantity": "1",
      "synonym": "bell pepper",
      "unit": ""
    },
    {
      "comment": "",
      "fdc_id": 2345617,
      "formatted_quantity": "½",
      "group": 2,
      "name": "pitted kalamata olives",
      "prep": "chopped or sliced",
      "quantity": "0.5",
      "synonym": "kalamata olives",
      "unit": "cups"
    },
    {
      "comment": "",
      "fdc_id": 2345616,
      "formatted_quantity": "½",
      "group": 2,
      "name": "pitted green olives",
      "prep": "chopped or sliced",
      "quantity": "0.5",
      "synonym": "green olives",
      "unit": "cups"
    },
    {
      "comment": "",
      "fdc_id": "",
      "formatted_quantity": "⅓",
      "group": 2,
      "name": "pepperoncini",
      "prep": "sliced",
      "quantity": "0.333",
      "synonym": "pepperoncinis",
      "unit": "cups"
    },
    {
      "comment": "",
      "fdc_id": 790577,
      "formatted_quantity": "¼",
      "group": 2,
      "name": "red onion",
      "prep": "thinly sliced",
      "quantity": "0.25",
      "synonym": "",
      "unit": "cups"
    },
    {
      "comment": "",
      "fdc_id": "",
      "formatted_quantity": "½",
      "group": 2,
      "name": "feta crumbles",
      "prep": "",
      "quantity": "0.5",
      "synonym": "feta",
      "unit": "cups"
    },
    {
      "comment": "",
      "fdc_id": 2345300,
      "formatted_quantity": "⅓",
      "group": 2,
      "name": "fresh basil",
      "prep": "chopped",
      "quantity": "0.333",
      "synonym": "basil",
      "unit": "cups"
    },
    {
      "comment": "",
      "fdc_id": 2345316,
      "formatted_quantity": "¼",
      "group": 2,
      "name": "fresh parsley",
      "prep": "chopped",
      "quantity": "0.25",
      "synonym": "parsley",
      "unit": "cups"
    }
  ],
  "instruction_headings": null,
  "instructions": [
    {
      "group": -1,
      "text": "First make the dressing: whisk together the olive oil, lemon juice, garlic, dijon, oregano and salt and pepper in a small bowl until well combined. You can also add them all to a mason jar, add the lid and then shake until well combined."
    },
    {
      "group": -1,
      "text": "Next cook your pasta until al dente according to the directions on the package. Once done cooking, drain and add to a large bowl."
    },
    {
      "group": -1,
      "text": "Add the tomatoes, cucumber, bell pepper, kalamata olives, green olives, pepperoncinis, red onion, feta, basil and parsley to the bowl with the pasta. Pour dressing over the top and toss together until combined. Serve and enjoy!"
    }
  ],
  "lowEffort": false,
  "miseEnPlace": false,
  "name": "Herby olive italian orzo salad",
  "notes": null,
  "nutFree": false,
  "nutrition": {
    "calories": 359,
    "carbohydrates": 41.6,
    "fat": 18.3,
    "fibre": 3.6,
    "protein": 8.9,
    "salt": 0,
    "saturates": 3.8,
    "sugars": 3.3
  },
  "prepTime": "PT20M",
  "rating": "Neutral",
  "slug": "herby-olive-italian-orzo-salad",
  "source": "www.ambitiouskitchen.com",
  "tags": null,
  "totalTime": "PT30M",
  "units": "imperial",
  "url": "https://www.ambitiouskitchen.com/herby-italian-orzo-salad/",
  "vegan": false,
  "yield_": "6"
}