{
  "archiveTimestamp": "2023-11-22 08:20:52",
  "archiveUrl": "https://web.archive.org/web/20231122082052/https://cooking.nytimes.com/recipes/1020728-homemade-hamburger-helper",
  "category": "RedMeat",
  "cookTime": "PT1H",
  "cuisine": "American",
  "dairyFree": false,
  "dateCooked": "2021-10-09",
  "deadUrl": false,
  "description": null,
  "future": false,
  "glutenFree": false,
  "image": "homemade-hamburger-helper.webp",
  "inactiveTime": null,
  "ingredient_headings": null,
  "ingredients": [
    {
      "comment": "such as canola or vegetable",
      "fdc_id": "",
      "formatted_quantity": "¼",
      "group": -1,
      "name": "neutral oil",
      "prep": "",
      "quantity": "0.25",
      "synonym": "oil",
      "unit": "cup"
    },
    {
      "comment": "",
      "fdc_id": "790646",
      "formatted_quantity": "1",
      "group": -1,
      "name": "yellow onion",
      "prep": "diced into 0.5 inch pieces",
      "quantity": "1",
      "synonym": "onion",
      "unit": "large"
    },
    {
      "comment": "",
      "fdc_id": "",
      "formatted_quantity": "",
      "group": -1,
      "name": "Kosher salt and black pepper",
      "prep": "",
      "quantity": "",
      "synonym": "",
      "unit": ""
    },
    {
      "comment": "",
      "fdc_id": "1104647",
      "formatted_quantity": "3",
      "group": -1,
      "name": "garlic",
      "prep": "minced",
      "quantity": "3",
      "synonym": "",
      "unit": "cloves"
    },
    {
      "comment": "",
      "fdc_id": "",
      "formatted_quantity": "5",
      "group": -1,
      "name": "strips uncooked smoked bacon",
      "prep": "finely chopped",
      "quantity": "5",
      "synonym": "bacon",
      "unit": ""
    },
    {
      "comment": "",
      "fdc_id": "2341259",
      "formatted_quantity": "1",
      "group": -1,
      "name": "ground beef",
      "prep": "",
      "quantity": "1",
      "synonym": "",
      "unit": "lb"
    },
    {
      "comment": "",
      "fdc_id": "2346264",
      "formatted_quantity": "1",
      "group": -1,
      "name": "dry white wine",
      "prep": "",
      "quantity": "1",
      "synonym": "white wine",
      "unit": "cup"
    },
    {
      "comment": "",
      "fdc_id": "",
      "formatted_quantity": "3",
      "group": -1,
      "name": "chicken stock or water",
      "prep": "",
      "quantity": "3",
      "synonym": "chicken stock",
      "unit": "cups"
    },
    {
      "comment": "",
      "fdc_id": "2346386",
      "formatted_quantity": "¾",
      "group": -1,
      "name": "heavy cream",
      "prep": "",
      "quantity": "0.75",
      "synonym": "",
      "unit": "cup"
    },
    {
      "comment": "",
      "fdc_id": "2345620",
      "formatted_quantity": "¼-⅓",
      "group": -1,
      "name": "hot sauce",
      "prep": "",
      "quantity": "0.25-0.333",
      "synonym": "",
      "unit": "cups"
    },
    {
      "comment": "",
      "fdc_id": "171329",
      "formatted_quantity": "2",
      "group": -1,
      "name": "hot smoked paprika",
      "prep": "",
      "quantity": "2",
      "synonym": "paprika",
      "unit": "tsp"
    },
    {
      "comment": "",
      "fdc_id": "170917",
      "formatted_quantity": "1",
      "group": -1,
      "name": "bay leaf",
      "prep": "",
      "quantity": "1",
      "synonym": "",
      "unit": ""
    },
    {
      "comment": "",
      "fdc_id": "",
      "formatted_quantity": "8",
      "group": -1,
      "name": "elbow pasta",
      "prep": "",
      "quantity": "8",
      "synonym": "pasta",
      "unit": "oz"
    },
    {
      "comment": "",
      "fdc_id": "",
      "formatted_quantity": "5",
      "group": -1,
      "name": "slices American cheese",
      "prep": "ripped into small pieces",
      "quantity": "5",
      "synonym": "",
      "unit": ""
    },
    {
      "comment": "",
      "fdc_id": "328637",
      "formatted_quantity": "1½",
      "group": -1,
      "name": "grated Cheddar",
      "prep": "",
      "quantity": "1.5",
      "synonym": "",
      "unit": "cups"
    },
    {
      "comment": "",
      "fdc_id": "2345301",
      "formatted_quantity": "½",
      "group": -1,
      "name": "finely chopped chives",
      "prep": "",
      "quantity": "0.5",
      "synonym": "",
      "unit": "cup"
    }
  ],
  "instruction_headings": null,
  "instructions": [
    {
      "group": -1,
      "text": "Heat a large (<12>-inch) saute pan or Dutch oven over medium-low heat, and add oil and onion; season lightly with salt and pepper. (The hot sauce added in Step <6> will add a lot of flavor, so be careful not to overseason here.) Let cook until the onions turn light beige in color and begin to caramelize, <20> to {25 minutes}."
    },
    {
      "group": -1,
      "text": "Add garlic, and cook until fragrant and starting to brown ever so slightly, about {2 minutes}."
    },
    {
      "group": -1,
      "text": "Increase heat to medium-high and add bacon and ground beef, using the back of a large spoon to break up the meat into smaller pieces. Continue to cook until the liquid has mostly evaporated and the meat starts to sear and develop a crust on the bottom of the pan, <12> to {15 minutes}."
    },
    {
      "group": -1,
      "text": "Remove pan from the heat and carefully drain off most of the fat, leaving a little in the pan to keep the meat moist."
    },
    {
      "group": -1,
      "text": "Return pan to the medium-high heat and add white wine, allowing it to reduce until the mixture is almost dry, about {10 minutes}."
    },
    {
      "group": -1,
      "text": "Add the chicken stock, heavy cream, hot sauce, paprika and bay leaf to the pan. Mix until combined and bring to a boil over medium-high."
    },
    {
      "group": -1,
      "text": "Once the mixture is boiling, add the pasta and cook until al dente, stirring often, about {9 minutes}."
    },
    {
      "group": -1,
      "text": "Reduce the heat to low and stir in both types of cheese, stirring until completely melted and sauce is thickened."
    },
    {
      "group": -1,
      "text": "Remove the pan from heat, stir in chives and season to taste with salt and pepper. Serve immediately."
    }
  ],
  "lowEffort": false,
  "miseEnPlace": false,
  "name": "Homemade hamburger helper",
  "notes": null,
  "nutFree": false,
  "nutrition": null,
  "prepTime": "PT15M",
  "rating": "Neutral",
  "slug": "homemade-hamburger-helper",
  "source": "cooking.nytimes.com",
  "tags": [
    "beef",
    "burger"
  ],
  "totalTime": "PT1H15M",
  "units": "imperial",
  "url": "https://cooking.nytimes.com/recipes/1020728-homemade-hamburger-helper",
  "vegan": false,
  "yield_": "4"
}