{
  "archiveTimestamp": "2023-11-06 07:01:05",
  "archiveUrl": "https://web.archive.org/web/20231106070105/https://www.sainsburysmagazine.co.uk/recipes/mains/honey-mustard-bacon-steaks-with-sweetcorn-crush",
  "category": "Pork",
  "cookTime": "PT15M",
  "cuisine": null,
  "dairyFree": false,
  "dateCooked": "2023-06-10",
  "deadUrl": false,
  "description": "A simple honey and mustard glaze is one of the simplest pan sauces you can make - try it with chicken or salmon, too",
  "future": false,
  "glutenFree": false,
  "image": "honey-mustard-bacon-steaks-with-sweetcorn-crush.webp",
  "inactiveTime": null,
  "ingredient_headings": null,
  "ingredients": [
    {
      "comment": "",
      "fdc_id": "",
      "formatted_quantity": "700",
      "group": -1,
      "name": "baby potatoes",
      "prep": "",
      "quantity": "700",
      "synonym": "",
      "unit": "g"
    },
    {
      "comment": "",
      "fdc_id": "",
      "formatted_quantity": "400",
      "group": -1,
      "name": "Tenderstem or regular broccoli",
      "prep": "",
      "quantity": "400",
      "synonym": "broccoli",
      "unit": "g"
    },
    {
      "comment": "",
      "fdc_id": 2345737,
      "formatted_quantity": "2",
      "group": -1,
      "name": "vegetable oil",
      "prep": "",
      "quantity": "2",
      "synonym": "oil",
      "unit": "tsp"
    },
    {
      "comment": "",
      "fdc_id": "",
      "formatted_quantity": "2x",
      "group": -1,
      "name": "lean bacon loin steaks",
      "prep": "",
      "quantity": "2x",
      "synonym": "back steaks",
      "unit": "250 g packs"
    },
    {
      "comment": "",
      "fdc_id": 2345841,
      "formatted_quantity": "4",
      "group": -1,
      "name": "clear honey",
      "prep": "",
      "quantity": "4",
      "synonym": "honey",
      "unit": "tbsps"
    },
    {
      "comment": "",
      "fdc_id": 326698,
      "formatted_quantity": "4",
      "group": -1,
      "name": "wholegrain mustard",
      "prep": "",
      "quantity": "4",
      "synonym": "mustard",
      "unit": "tbsps"
    },
    {
      "comment": "",
      "fdc_id": 789828,
      "formatted_quantity": "2",
      "group": -1,
      "name": "butter",
      "prep": "",
      "quantity": "2",
      "synonym": "",
      "unit": "tsp"
    },
    {
      "comment": "",
      "fdc_id": 170005,
      "formatted_quantity": "6",
      "group": -1,
      "name": "spring onions",
      "prep": "chopped",
      "quantity": "6",
      "synonym": "",
      "unit": ""
    },
    {
      "comment": "",
      "fdc_id": 2345303,
      "formatted_quantity": "2x",
      "group": -1,
      "name": "sweetcorn",
      "prep": "drained",
      "quantity": "2x",
      "synonym": "",
      "unit": "198 g tin"
    }
  ],
  "instruction_headings": null,
  "instructions": [
    {
      "group": -1,
      "text": "Cook the baby potatoes in a pan of boiling water for {15-20 minutes} until tender, adding the broccoli for the last {3 minutes}."
    },
    {
      "group": -1,
      "text": "Heat the oil in a frying pan and add the bacon steaks. Fry on a medium heat for {8-10 minutes}, turning a few times, until cooked through and golden. Add the honey, mustard and <1> tablespoon of water to the pan and allow to bubble for about {1 minute}, turning the steaks in the glaze. Remove from the heat."
    },
    {
      "group": -1,
      "text": "Drain the potatoes and broccoli. Melt the butter in the saucepan and fry the spring onions for {1-2 minutes}, then add the drained sweetcorn to heat through. Return the potatoes to the pan and lightly crush everything together. Divide the potato- corn crush and the broccoli between two warmed plates and serve with the steaks and honey-mustard sauce."
    }
  ],
  "lowEffort": false,
  "miseEnPlace": false,
  "name": "Honey-mustard bacon steaks with sweetcorn crush",
  "notes": null,
  "nutFree": false,
  "nutrition": {
    "calories": 548,
    "carbohydrates": 56,
    "fat": 13,
    "fibre": 11,
    "protein": 47,
    "salt": 4,
    "saturates": 4,
    "sugars": 26
  },
  "prepTime": "PT10M",
  "rating": "Neutral",
  "slug": "honey-mustard-bacon-steaks-with-sweetcorn-crush",
  "source": "www.sainsburysmagazine.co.uk",
  "tags": null,
  "totalTime": "PT25M",
  "units": "metric",
  "url": "https://www.sainsburysmagazine.co.uk/recipes/mains/honey-mustard-bacon-steaks-with-sweetcorn-crush",
  "vegan": false,
  "yield_": "4"
}