{
  "archiveTimestamp": null,
  "archiveUrl": null,
  "category": "RedMeat",
  "cookTime": "PT1H30M",
  "cuisine": null,
  "dairyFree": false,
  "dateCooked": "2024-02-18",
  "deadUrl": false,
  "description": "Every Indian home needs an all-guns-blazing rich meat curry. Ordinarily we would only ever cook lamb on the bone, and hence in Mowgli we add marrow bones in for the long simmer. A luxurious richness is brought with the aromatic spicings and I added a sweet headiness by including ground anise and prunes, which turn to a thick, sweet mass in the pan. I love using rotis to mop up the deep, sweet juices.",
  "future": false,
  "glutenFree": false,
  "image": "house-lamb-curry.webp",
  "inactiveTime": null,
  "ingredient_headings": null,
  "ingredients": [
    {
      "comment": "",
      "fdc_id": "2345737",
      "formatted_quantity": "6",
      "group": -1,
      "name": "vegetable oil",
      "prep": "",
      "quantity": "6",
      "synonym": "oil",
      "unit": "tbsps"
    },
    {
      "comment": "",
      "fdc_id": "1104962",
      "formatted_quantity": "1",
      "group": -1,
      "name": "white onion",
      "prep": "cut in half and thinly sliced",
      "quantity": "1",
      "synonym": "onion",
      "unit": "large"
    },
    {
      "comment": "",
      "fdc_id": "169231",
      "formatted_quantity": "7½",
      "group": -1,
      "name": "fresh root ginger",
      "prep": "peeled and grated",
      "quantity": "7.5",
      "synonym": "ginger",
      "unit": "cm"
    },
    {
      "comment": "",
      "fdc_id": "1104647",
      "formatted_quantity": "4",
      "group": -1,
      "name": "garlic",
      "prep": "minced",
      "quantity": "4",
      "synonym": "",
      "unit": "cloves"
    },
    {
      "comment": "",
      "fdc_id": "",
      "formatted_quantity": "800",
      "group": -1,
      "name": "lamb leg",
      "prep": "diced",
      "quantity": "800",
      "synonym": "lamb",
      "unit": "g"
    },
    {
      "comment": "",
      "fdc_id": "172231",
      "formatted_quantity": "¼",
      "group": -1,
      "name": "ground turmeric",
      "prep": "",
      "quantity": "0.25",
      "synonym": "",
      "unit": "tsps"
    },
    {
      "comment": "",
      "fdc_id": "171319",
      "formatted_quantity": "¼",
      "group": -1,
      "name": "chilli powder",
      "prep": "",
      "quantity": "0.25",
      "synonym": "",
      "unit": "tsps"
    },
    {
      "comment": "",
      "fdc_id": "333281",
      "formatted_quantity": "200",
      "group": -1,
      "name": "canned chopped tomatoes",
      "prep": "",
      "quantity": "200",
      "synonym": "chopped tomatoes",
      "unit": "g"
    },
    {
      "comment": "",
      "fdc_id": "",
      "formatted_quantity": "1",
      "group": -1,
      "name": "star anise powder",
      "prep": "",
      "quantity": "1",
      "synonym": "",
      "unit": "tsp"
    },
    {
      "comment": "",
      "fdc_id": "384420",
      "formatted_quantity": "1",
      "group": -1,
      "name": "ground cumin",
      "prep": "",
      "quantity": "1",
      "synonym": "",
      "unit": "tbsp"
    },
    {
      "comment": "",
      "fdc_id": "170921",
      "formatted_quantity": "1",
      "group": -1,
      "name": "ground coriander",
      "prep": "",
      "quantity": "1",
      "synonym": "coriander",
      "unit": "tbsp"
    },
    {
      "comment": "",
      "fdc_id": "171320",
      "formatted_quantity": "1",
      "group": -1,
      "name": "ground cinnamon",
      "prep": "",
      "quantity": "1",
      "synonym": "cinnamon",
      "unit": "tsp"
    },
    {
      "comment": "",
      "fdc_id": "",
      "formatted_quantity": "3",
      "group": -1,
      "name": "green cardamom",
      "prep": "",
      "quantity": "3",
      "synonym": "cardamom",
      "unit": "pods"
    },
    {
      "comment": "",
      "fdc_id": "171321",
      "formatted_quantity": "4",
      "group": -1,
      "name": "cloves",
      "prep": "",
      "quantity": "4",
      "synonym": "",
      "unit": ""
    },
    {
      "comment": "",
      "fdc_id": "2709211",
      "formatted_quantity": "125",
      "group": -1,
      "name": "prunes",
      "prep": "",
      "quantity": "125",
      "synonym": "",
      "unit": "g"
    },
    {
      "comment": "",
      "fdc_id": "",
      "formatted_quantity": "200",
      "group": -1,
      "name": "canned chickpeas / garbanzo beans",
      "prep": "drained and rinsed",
      "quantity": "200",
      "synonym": "chickpeas",
      "unit": "g"
    },
    {
      "comment": "",
      "fdc_id": "746775",
      "formatted_quantity": "2",
      "group": -1,
      "name": "salt",
      "prep": "",
      "quantity": "2",
      "synonym": "",
      "unit": "tsps"
    },
    {
      "comment": "",
      "fdc_id": "746784",
      "formatted_quantity": "2",
      "group": -1,
      "name": "sugar",
      "prep": "",
      "quantity": "2",
      "synonym": "",
      "unit": "tsps"
    },
    {
      "comment": "",
      "fdc_id": "",
      "formatted_quantity": "1",
      "group": -1,
      "name": "fresh coriander / cilantro",
      "prep": "leaves and stalks chopped",
      "quantity": "1",
      "synonym": "fresh coriander",
      "unit": "small bunch"
    },
    {
      "comment": "",
      "fdc_id": "170497",
      "formatted_quantity": "1",
      "group": -1,
      "name": "green chilli",
      "prep": "deseeded and thinly sliced",
      "quantity": "1",
      "synonym": "",
      "unit": ""
    },
    {
      "comment": "to serve",
      "fdc_id": "",
      "formatted_quantity": "",
      "group": -1,
      "name": "Rotis",
      "prep": "",
      "quantity": "",
      "synonym": "",
      "unit": ""
    }
  ],
  "instruction_headings": null,
  "instructions": [
    {
      "group": -1,
      "text": "Put the oil in a large heavy pan and set over a medium-high heat. When hot, add the sliced onion, ginger and garlic and fry for {8 minutes} or until the onion has softened and turned golden brown."
    },
    {
      "group": -1,
      "text": "With the heat still on medium-high, add the diced lamb, ground turmeric and chilli powder and fry for {6 minutes}, until the lamb is browned all over."
    },
    {
      "group": -1,
      "text": "Next add the chopped tomatoes, <500> ml water, star anise powder, ground cumin, coriander, cinnamon, cardamom and cloves. Bring up to the boil, then reduce the heat to low and simmer gently, partially covered, for {30 minutes}."
    },
    {
      "group": -1,
      "text": "Add the prunes, chickpeas, salt and sugar and continue to simmer for a further {35-40 minutes} or until the lamb is cooked through and tender. Finish by stirring through the fresh coriander and green chilli just before serving with fresh rotis."
    }
  ],
  "lowEffort": false,
  "miseEnPlace": false,
  "name": "House lamb curry",
  "notes": null,
  "nutFree": false,
  "nutrition": null,
  "prepTime": "PT10M",
  "rating": "Neutral",
  "slug": "house-lamb-curry",
  "source": "Mowgli Street Food",
  "tags": [
    "lamb"
  ],
  "totalTime": "PT1H40M",
  "units": "metric",
  "url": null,
  "vegan": false,
  "yield_": "4"
}