{
  "archiveTimestamp": "2023-11-22 13:43:18",
  "archiveUrl": "https://web.archive.org/web/20231122134318/https://www.simplybeefandlamb.co.uk/recipes/lamb-mini-roast-with-warm-spices/",
  "category": "RedMeat",
  "cookTime": "PT40M",
  "cuisine": null,
  "dairyFree": false,
  "dateCooked": "2022-10-22",
  "deadUrl": false,
  "description": "A great all in one mid week roasting joint for two to three people that takes only 35 to 40 minutes to cook.  Mini lamb leg or shoulder roasting joint brushed with a warm spice mix made from with cumin powder, turmeric, ground coriander, seasoning and the juice of 1 small orange.  Joint is roasted on a bed of small new potatoes onions and fresh bay leaves.",
  "future": false,
  "glutenFree": false,
  "image": "lamb-mini-roast-with-warm-spices.webp",
  "inactiveTime": null,
  "ingredient_headings": null,
  "ingredients": [
    {
      "comment": "",
      "fdc_id": "",
      "formatted_quantity": "350-400",
      "group": -1,
      "name": "lean lamb leg or shoulder mini roast",
      "prep": "",
      "quantity": "350-400",
      "synonym": "mini roast",
      "unit": "g"
    },
    {
      "comment": "",
      "fdc_id": "",
      "formatted_quantity": "450",
      "group": -1,
      "name": "new potatoes",
      "prep": "quartered",
      "quantity": "450",
      "synonym": "potatoes",
      "unit": "g"
    },
    {
      "comment": "",
      "fdc_id": "790646",
      "formatted_quantity": "2",
      "group": -1,
      "name": "onions",
      "prep": "peeled and cut into wedges",
      "quantity": "2",
      "synonym": "",
      "unit": "medium"
    },
    {
      "comment": "",
      "fdc_id": "748323",
      "formatted_quantity": "4",
      "group": -1,
      "name": "oil",
      "prep": "",
      "quantity": "4",
      "synonym": "",
      "unit": "teaspoons"
    },
    {
      "comment": "",
      "fdc_id": "",
      "formatted_quantity": "3",
      "group": -1,
      "name": "fresh bay leaves",
      "prep": "torn",
      "quantity": "3",
      "synonym": "",
      "unit": ""
    },
    {
      "comment": "",
      "fdc_id": "384420",
      "formatted_quantity": "1",
      "group": -1,
      "name": "ground cumin",
      "prep": "",
      "quantity": "1",
      "synonym": "",
      "unit": "teaspoon"
    },
    {
      "comment": "",
      "fdc_id": "172231",
      "formatted_quantity": "1",
      "group": -1,
      "name": "ground turmeric",
      "prep": "",
      "quantity": "1",
      "synonym": "",
      "unit": "teaspoon"
    },
    {
      "comment": "",
      "fdc_id": "170921",
      "formatted_quantity": "2",
      "group": -1,
      "name": "ground coriander",
      "prep": "",
      "quantity": "2",
      "synonym": "",
      "unit": "teaspoons"
    },
    {
      "comment": "",
      "fdc_id": "",
      "formatted_quantity": "",
      "group": -1,
      "name": "Juice of 1 small orange",
      "prep": "",
      "quantity": "",
      "synonym": "",
      "unit": ""
    }
  ],
  "instruction_headings": null,
  "instructions": [
    {
      "group": -1,
      "text": "Preheat the oven to <160-170>°C."
    },
    {
      "group": -1,
      "text": "Place the potatoes and onions in the base of a non-stick roasting tin. Drizzle with half the oil and sprinkle over the bay leaves."
    },
    {
      "group": -1,
      "text": "To prepare the warm spice mix, in a small bowl mix all the ingredients together with the remaining oil."
    },
    {
      "group": -1,
      "text": "Place the mini roast on a chopping board and make several slits over the surface then brush with the spice mix all over."
    },
    {
      "group": -1,
      "text": "Place on top of the potatoes and roast uncovered for {35-40 minutes} (for medium). Cover the meat with foil if browning too quickly."
    },
    {
      "group": -1,
      "text": "Serve with the potatoes and seasonal vegetables."
    }
  ],
  "lowEffort": false,
  "miseEnPlace": false,
  "name": "Lamb mini roast with warm spices",
  "notes": null,
  "nutFree": false,
  "nutrition": {
    "calories": 410,
    "carbohydrates": 35,
    "fat": 17,
    "fibre": 5.6,
    "protein": 39.2,
    "salt": 0.6,
    "saturates": 3.6,
    "sugars": 8.7
  },
  "prepTime": "PT15M",
  "rating": "Potential",
  "slug": "lamb-mini-roast-with-warm-spices",
  "source": "www.simplybeefandlamb.co.uk",
  "tags": [
    "lamb"
  ],
  "totalTime": "PT55M",
  "units": "metric",
  "url": "https://www.simplybeefandlamb.co.uk/recipes/lamb-mini-roast-with-warm-spices/",
  "vegan": false,
  "yield_": "3"
}