{
  "archiveTimestamp": "2023-11-22 14:26:02",
  "archiveUrl": "https://web.archive.org/web/20231122142602/https://www.themediterraneandish.com/lebanese-rice-with-vermicelli/",
  "category": "Veggie",
  "cookTime": "PT20M",
  "cuisine": "Lebanese",
  "dairyFree": false,
  "dateCooked": "2023-04-10",
  "deadUrl": false,
  "description": "Vegan Lebanese rice with vermicelli and pine nuts. A great side dish next to many Mediterranean favorites.",
  "future": false,
  "glutenFree": false,
  "image": "lebanese-rice-with-vermicelli.webp",
  "inactiveTime": null,
  "ingredient_headings": null,
  "ingredients": [
    {
      "comment": "",
      "fdc_id": "",
      "formatted_quantity": "2",
      "group": -1,
      "name": "long grain or medium grain rice",
      "prep": "",
      "quantity": "2",
      "synonym": "rice",
      "unit": "cups"
    },
    {
      "comment": "",
      "fdc_id": 173647,
      "formatted_quantity": "",
      "group": -1,
      "name": "Water",
      "prep": "",
      "quantity": "",
      "synonym": "",
      "unit": ""
    },
    {
      "comment": "",
      "fdc_id": "",
      "formatted_quantity": "1",
      "group": -1,
      "name": "broken vermicelli pasta",
      "prep": "",
      "quantity": "1",
      "synonym": "vermicelli",
      "unit": "cup"
    },
    {
      "comment": "",
      "fdc_id": 1750351,
      "formatted_quantity": "2½",
      "group": -1,
      "name": "olive oil",
      "prep": "",
      "quantity": "2.5",
      "synonym": "",
      "unit": "tbsps"
    },
    {
      "comment": "",
      "fdc_id": 746775,
      "formatted_quantity": "",
      "group": -1,
      "name": "Salt",
      "prep": "",
      "quantity": "",
      "synonym": "",
      "unit": ""
    },
    {
      "comment": "optional to finish",
      "fdc_id": 2346392,
      "formatted_quantity": "½",
      "group": -1,
      "name": "toasted pine nuts",
      "prep": "",
      "quantity": "0.5",
      "synonym": "",
      "unit": "cups"
    }
  ],
  "instruction_headings": null,
  "instructions": [
    {
      "group": -1,
      "text": "Rinse the rice well (a few times) then place it in a medium bowl and cover with water. Soak for {15-20 minutes}. Test to see if you can easily break a grain of rice by simply placing it between your thumb and index finger. Drain well."
    },
    {
      "group": -1,
      "text": "In a medium non-stick cooking pot, heat the olive oil on medium-high. Add the vermicelli and continuously stir to toast it evenly. Vermicelli should turn a nice golden brown, but watch carefully not to over-brown or burn it (If it burns, you must throw the vermicelli away and start over)."
    },
    {
      "group": -1,
      "text": "Add the rice and continue to stir so that the rice will be well-coated with the olive oil. Season with salt."
    },
    {
      "group": -1,
      "text": "Now add <3½> cups of water and bring it to a boil until the water significantly reduces. Turn the heat to low and cover."
    },
    {
      "group": -1,
      "text": "Cook for {15-20 minutes} on low. Once fully cooked, turn the heat off and leave the rice undisturbed in it's cooking pot for {10-15 minutes}, then uncover and fluff with a fork."
    },
    {
      "group": -1,
      "text": "Transfer to a serving platter and top with the toasted pine nuts. Enjoy!"
    }
  ],
  "lowEffort": false,
  "miseEnPlace": false,
  "name": "Lebanese rice with vermicelli",
  "notes": null,
  "nutFree": false,
  "nutrition": {
    "calories": 332,
    "carbohydrates": 61,
    "fat": 5.4,
    "fibre": 1.4,
    "protein": 6.4,
    "salt": 0.9,
    "saturates": 0.7,
    "sugars": 0.4
  },
  "prepTime": "PT15M",
  "rating": "Negative",
  "slug": "lebanese-rice-with-vermicelli",
  "source": "www.themediterraneandish.com",
  "tags": null,
  "totalTime": "PT35M",
  "units": "imperial",
  "url": "https://www.themediterraneandish.com/lebanese-rice-with-vermicelli/",
  "vegan": false,
  "yield_": "6"
}