{
  "archiveTimestamp": null,
  "archiveUrl": null,
  "category": "Seafood",
  "cookTime": "PT25M",
  "cuisine": null,
  "dairyFree": false,
  "dateCooked": "2016-04-27",
  "deadUrl": false,
  "description": "Gluten-free: use gluten-free plain flour in the sauce.",
  "future": false,
  "glutenFree": true,
  "image": "leek-and-salmon-pie.webp",
  "inactiveTime": null,
  "ingredient_headings": null,
  "ingredients": [
    {
      "comment": "",
      "fdc_id": "2346401",
      "formatted_quantity": "5",
      "group": -1,
      "name": "potatoes",
      "prep": "cut into 2 cm dice",
      "quantity": "5",
      "synonym": "",
      "unit": "medium"
    },
    {
      "comment": "",
      "fdc_id": "789828",
      "formatted_quantity": "75",
      "group": -1,
      "name": "butter",
      "prep": "",
      "quantity": "75",
      "synonym": "",
      "unit": "g"
    },
    {
      "comment": "",
      "fdc_id": "168426",
      "formatted_quantity": "2",
      "group": -1,
      "name": "leeks",
      "prep": "sliced",
      "quantity": "2",
      "synonym": "",
      "unit": "medium"
    },
    {
      "comment": "",
      "fdc_id": "790018",
      "formatted_quantity": "2",
      "group": -1,
      "name": "plain flour",
      "prep": "",
      "quantity": "2",
      "synonym": "flour",
      "unit": "tbsp"
    },
    {
      "comment": "",
      "fdc_id": "746778",
      "formatted_quantity": "1½",
      "group": -1,
      "name": "milk",
      "prep": "",
      "quantity": "1.5",
      "synonym": "",
      "unit": "mugs"
    },
    {
      "comment": "double or single",
      "fdc_id": "2340995",
      "formatted_quantity": "300",
      "group": -1,
      "name": "cream",
      "prep": "",
      "quantity": "300",
      "synonym": "",
      "unit": "ml"
    },
    {
      "comment": "",
      "fdc_id": "2341700",
      "formatted_quantity": "4",
      "group": -1,
      "name": "salmon steaks",
      "prep": "cut into bitesized pieces",
      "quantity": "4",
      "synonym": "fish",
      "unit": ""
    },
    {
      "comment": "",
      "fdc_id": "170012",
      "formatted_quantity": "1",
      "group": -1,
      "name": "frozen peas",
      "prep": "defrosted",
      "quantity": "1",
      "synonym": "peas",
      "unit": "mug"
    },
    {
      "comment": "",
      "fdc_id": "172233",
      "formatted_quantity": "2",
      "group": -1,
      "name": "dill",
      "prep": "freshly chopped",
      "quantity": "2",
      "synonym": "",
      "unit": "tbsp"
    },
    {
      "comment": "",
      "fdc_id": "325036",
      "formatted_quantity": "½",
      "group": -1,
      "name": "Parmesan",
      "prep": "",
      "quantity": "0.5",
      "synonym": "",
      "unit": "mug"
    }
  ],
  "instruction_headings": null,
  "instructions": [
    {
      "group": -1,
      "text": "Preheat the oven to [180°C]/gas <6>. Grease a large casserole dish.  "
    },
    {
      "group": -1,
      "text": "Put the potatoes on to boil and simmer for {10 minutes}. Drain and return to the pan. Add <25> g of the butter and shake the pan around to distribute.  "
    },
    {
      "group": -1,
      "text": "Add another <25> g of the butter to a large frying pan and fry the leaks until they begin to soften and brown. Put the leeks in the casserole dish along with the defrosted peas.  "
    },
    {
      "group": -1,
      "text": "Add the last <25> g butter to the frying pan along with the flour, and cook on a medium heat until the flour is absorbed. Add the milk and cream to the pan and gently bring to the boil, stirring all the time. Add the fish, peas and dill to the sauce and cook, on a medium heat, for {2 minutes}. The fish does not need to be cooked through as it will go in the oven.   "
    },
    {
      "group": -1,
      "text": "Pour the sauce and the fish into the casserole dish and mix with the leeks. Pile the potatoes on top and sprinkle the Parmesan over.  "
    },
    {
      "group": -1,
      "text": "Place in the oven for {20 minutes}. The top should be lightly browned."
    }
  ],
  "lowEffort": false,
  "miseEnPlace": false,
  "name": "Leek and salmon pie",
  "notes": null,
  "nutFree": false,
  "nutrition": null,
  "prepTime": "PT15M",
  "rating": "Neutral",
  "slug": "leek-and-salmon-pie",
  "source": "Nosh: Quick & Easy",
  "tags": [
    "pie"
  ],
  "totalTime": "PT40M",
  "units": "metric",
  "url": null,
  "vegan": false,
  "yield_": "4"
}