{
  "archiveTimestamp": null,
  "archiveUrl": null,
  "category": "Seafood",
  "cookTime": "PT210M",
  "cuisine": null,
  "dairyFree": false,
  "dateCooked": "2018-08-28",
  "deadUrl": false,
  "description": "A simple tuna and tomato sauce can be really delicious if done well. and this one is packed with flavour.",
  "future": false,
  "glutenFree": false,
  "image": "linguine-with-tuna-sauce.webp",
  "inactiveTime": null,
  "ingredient_headings": null,
  "ingredients": [
    {
      "comment": "",
      "fdc_id": "748608",
      "formatted_quantity": "4",
      "group": -1,
      "name": "extra virgin olive oil",
      "prep": "",
      "quantity": "4",
      "synonym": "oil",
      "unit": "tbsp"
    },
    {
      "comment": "",
      "fdc_id": "",
      "formatted_quantity": "3",
      "group": -1,
      "name": "chopped flat-leaf parsley",
      "prep": "",
      "quantity": "3",
      "synonym": "parsley",
      "unit": "tbsp"
    },
    {
      "comment": "",
      "fdc_id": "1104647",
      "formatted_quantity": "2",
      "group": -1,
      "name": "garlic",
      "prep": "finely chopped",
      "quantity": "2",
      "synonym": "",
      "unit": "cloves"
    },
    {
      "comment": "",
      "fdc_id": "170106",
      "formatted_quantity": "1",
      "group": -1,
      "name": "red chilli",
      "prep": "deseeded and finely chopped",
      "quantity": "1",
      "synonym": "chilli",
      "unit": ""
    },
    {
      "comment": "",
      "fdc_id": "169231",
      "formatted_quantity": "1",
      "group": -1,
      "name": "ginger",
      "prep": "peeled and finely chopped",
      "quantity": "1",
      "synonym": "",
      "unit": "cm knob"
    },
    {
      "comment": "",
      "fdc_id": "",
      "formatted_quantity": "450",
      "group": -1,
      "name": "passata",
      "prep": "",
      "quantity": "450",
      "synonym": "",
      "unit": "g"
    },
    {
      "comment": "",
      "fdc_id": "",
      "formatted_quantity": "400",
      "group": -1,
      "name": "tuna in olive oil",
      "prep": "drained and flaked",
      "quantity": "400",
      "synonym": "tuna",
      "unit": "g"
    },
    {
      "comment": "",
      "fdc_id": "2343841",
      "formatted_quantity": "375",
      "group": -1,
      "name": "linguine",
      "prep": "",
      "quantity": "375",
      "synonym": "",
      "unit": "g"
    }
  ],
  "instruction_headings": null,
  "instructions": [
    {
      "group": -1,
      "text": "Heat the slow cooker if necessary. Put the oil, <2> tbsp of the parsley, the garlic, chilli, ginger and passata into the slow cooker pot. Cover and cook on high for {2-3 hours}."
    },
    {
      "group": -1,
      "text": "Stir in the tuna, re-cover and cook on high for another {30 minutes}."
    },
    {
      "group": -1,
      "text": "Cook the linguine according to the pack instructions then drain well. Toss the linguine into the tuna sauce and sprinkle over the remaining parsley. Divide among four plates and serve immediately."
    }
  ],
  "lowEffort": false,
  "miseEnPlace": false,
  "name": "Linguine with tuna sauce",
  "notes": null,
  "nutFree": false,
  "nutrition": {
    "calories": 615,
    "carbohydrates": 78,
    "fat": 20,
    "fibre": 3,
    "protein": 35,
    "salt": 1.2,
    "saturates": 3,
    "sugars": 2
  },
  "prepTime": "PT5M",
  "rating": "Neutral",
  "slug": "linguine-with-tuna-sauce",
  "source": "BBC Good Food: Slow Cooker Favourites",
  "tags": [
    "slow-cooker"
  ],
  "totalTime": "PT215M",
  "units": "metric",
  "url": null,
  "vegan": false,
  "yield_": "4"
}