{
  "archiveTimestamp": null,
  "archiveUrl": null,
  "category": "Dessert",
  "cookTime": "PT50M",
  "cuisine": null,
  "dairyFree": false,
  "dateCooked": "2024-10-25",
  "deadUrl": false,
  "description": "Many of my favourite things in one loaf: this chapter wouldn’t be complete without a lemon cake, and as for some reason I’ve never got on with lemon drizzle, this cake is spiked with golden pieces of marzipan instead. Extremely moreish – especially baked in mini-loaf tins.",
  "future": false,
  "glutenFree": false,
  "image": "marzipan-lemon-cardamom-loaf.webp",
  "inactiveTime": null,
  "ingredient_headings": null,
  "ingredients": [
    {
      "comment": "",
      "fdc_id": "789828",
      "formatted_quantity": "170",
      "group": -1,
      "name": "unsalted butter",
      "prep": "softened",
      "quantity": "170",
      "synonym": "butter",
      "unit": "g"
    },
    {
      "comment": "(golden if preferred)",
      "fdc_id": "746784",
      "formatted_quantity": "170",
      "group": -1,
      "name": "caster sugar",
      "prep": "",
      "quantity": "170",
      "synonym": "sugar",
      "unit": "g"
    },
    {
      "comment": "",
      "fdc_id": "748967",
      "formatted_quantity": "3",
      "group": -1,
      "name": "free-range eggs",
      "prep": "",
      "quantity": "3",
      "synonym": "eggs",
      "unit": "medium"
    },
    {
      "comment": "",
      "fdc_id": "2344662",
      "formatted_quantity": "1",
      "group": -1,
      "name": "lemon",
      "prep": "zest and juice",
      "quantity": "1",
      "synonym": "",
      "unit": ""
    },
    {
      "comment": "",
      "fdc_id": "",
      "formatted_quantity": "230",
      "group": -1,
      "name": "self-raising flour",
      "prep": "",
      "quantity": "230",
      "synonym": "",
      "unit": "g"
    },
    {
      "comment": "",
      "fdc_id": "172805",
      "formatted_quantity": "1",
      "group": -1,
      "name": "baking powder",
      "prep": "",
      "quantity": "1",
      "synonym": "",
      "unit": "tsp"
    },
    {
      "comment": "",
      "fdc_id": "170919",
      "formatted_quantity": "4",
      "group": -1,
      "name": "cardamom pods",
      "prep": "seeds ground, outer pods discarded",
      "quantity": "4",
      "synonym": "cardamom",
      "unit": ""
    },
    {
      "comment": "",
      "fdc_id": "",
      "formatted_quantity": "100",
      "group": -1,
      "name": "marzipan",
      "prep": "chopped into 1 cm chunks",
      "quantity": "100",
      "synonym": "",
      "unit": "g"
    }
  ],
  "instruction_headings": null,
  "instructions": [
    {
      "group": -1,
      "text": "Preheat the oven to [160°C]/Gas <4>. Whisk the butter and sugar together until pale and fluffy, then beat in the eggs one at a time, followed by the lemon zest and juice."
    },
    {
      "group": -1,
      "text": "Gently fold in the self-raising flour, baking powder and ground cardamom, taking care not to over mix. Transfer the batter to a lined 900 g loaf or between 8 mini-loaf tins."
    },
    {
      "group": -1,
      "text": "Scatter the marzipan chunks all over the cake mix, then transfer to the oven and bake for {45-50 minutes} for a large loaf or {25 minutes} for mini loaves, until firm to the touch and a skewer inserted comes out clean (less any bits of marzipan that you hit)."
    },
    {
      "group": -1,
      "text": "Let the cake cool briefly on a wire rack before slicing and serving warm."
    },
    {
      "group": -1,
      "text": "The cake will keep well in an airtight container in a cool room for <2-3> days."
    }
  ],
  "lowEffort": false,
  "miseEnPlace": false,
  "name": "Marzipan, lemon & cardamom loaf",
  "notes": null,
  "nutFree": false,
  "nutrition": null,
  "prepTime": "PT15M",
  "rating": "Neutral",
  "slug": "marzipan-lemon-cardamom-loaf",
  "source": "The Sweet Roasting Tin",
  "tags": [
    "cake"
  ],
  "totalTime": "PT1H5M",
  "units": "metric",
  "url": null,
  "vegan": false,
  "yield_": "8"
}