{
  "archiveTimestamp": null,
  "archiveUrl": null,
  "category": "Seafood",
  "cookTime": "PT30M",
  "cuisine": "Mediterranean",
  "dairyFree": false,
  "dateCooked": "2019-07-23",
  "deadUrl": false,
  "description": "Roasting vegetables like courgettes and tomatoes concentrates their flavours and turns them into fantastic partners for fillets of fish.",
  "future": false,
  "glutenFree": false,
  "image": "mediterranean-fish-roast.webp",
  "inactiveTime": null,
  "ingredient_headings": null,
  "ingredients": [
    {
      "comment": "",
      "fdc_id": "",
      "formatted_quantity": "1",
      "group": -1,
      "name": "new potatoes",
      "prep": "unpeeled halved or quartered if large",
      "quantity": "1",
      "synonym": "potatoes",
      "unit": "kg"
    },
    {
      "comment": "",
      "fdc_id": "171430",
      "formatted_quantity": "",
      "group": -1,
      "name": "low calorie cooking spray",
      "prep": "",
      "quantity": "",
      "synonym": "",
      "unit": ""
    },
    {
      "comment": "",
      "fdc_id": "790577",
      "formatted_quantity": "1",
      "group": -1,
      "name": "red onion",
      "prep": "thinly sliced",
      "quantity": "1",
      "synonym": "onion",
      "unit": "large"
    },
    {
      "comment": "",
      "fdc_id": "1999634",
      "formatted_quantity": "4",
      "group": -1,
      "name": "ripe tomatoes",
      "prep": "quartered",
      "quantity": "4",
      "synonym": "tomatoes",
      "unit": ""
    },
    {
      "comment": "",
      "fdc_id": "2345328",
      "formatted_quantity": "2",
      "group": -1,
      "name": "courgettes",
      "prep": "trimmed, halved lengthways and sliced",
      "quantity": "2",
      "synonym": "",
      "unit": "large"
    },
    {
      "comment": "",
      "fdc_id": "",
      "formatted_quantity": "12",
      "group": -1,
      "name": "pitted black olives in brine",
      "prep": "",
      "quantity": "12",
      "synonym": "olives",
      "unit": ""
    },
    {
      "comment": "(cod, haddock or basa)",
      "fdc_id": "",
      "formatted_quantity": "4",
      "group": -1,
      "name": "frozen skinless white fish fillets",
      "prep": "thawed",
      "quantity": "4",
      "synonym": "fish fillets",
      "unit": ""
    },
    {
      "comment": "",
      "fdc_id": "2344662",
      "formatted_quantity": "1",
      "group": -1,
      "name": "lemon",
      "prep": "",
      "quantity": "1",
      "synonym": "",
      "unit": ""
    },
    {
      "comment": "",
      "fdc_id": "",
      "formatted_quantity": "6",
      "group": -1,
      "name": "hot fish stock",
      "prep": "",
      "quantity": "6",
      "synonym": "stock",
      "unit": "tbsp"
    },
    {
      "comment": "",
      "fdc_id": "",
      "formatted_quantity": "",
      "group": -1,
      "name": "salt and freshly ground black pepper",
      "prep": "",
      "quantity": "",
      "synonym": "",
      "unit": ""
    },
    {
      "comment": "to garnish (optional)",
      "fdc_id": "",
      "formatted_quantity": "",
      "group": -1,
      "name": "of roughly chopped fresh parsley",
      "prep": "",
      "quantity": "",
      "synonym": "parsley",
      "unit": "small handful"
    }
  ],
  "instruction_headings": null,
  "instructions": [
    {
      "group": -1,
      "text": "Preheat the oven to [180°C]/Gas <6>."
    },
    {
      "group": -1,
      "text": "Cook the potatoes in a pan of lightly salted boiling water for {10 minutes} or until just tender. Drain well and tip into a large roasting tin."
    },
    {
      "group": -1,
      "text": "Meanwhile, spray a frying pan with low calorie cooking spray and sauté the onion for {5 minutes} or until softened and beginning to colour. Scatter the onion over the potatoes along with the tomatoes, courgettes and olives."
    },
    {
      "group": -1,
      "text": "Arrange the fish fillets on top of the vegetables. Cut four slices from the lemon and place one slice on each piece of fish, then squeeze the juice from the remaining lemon over the fish. Pour over the stock, spray with a little low calorie cooking spray and roast for {20 minutes}."
    },
    {
      "group": -1,
      "text": "Season, scatter the parsley, if using, and serve with your favourite vegetables."
    }
  ],
  "lowEffort": false,
  "miseEnPlace": false,
  "name": "Mediterranean fish roast",
  "notes": null,
  "nutFree": false,
  "nutrition": null,
  "prepTime": "PT15M",
  "rating": "Neutral",
  "slug": "mediterranean-fish-roast",
  "source": "slimmingworld.co.uk",
  "tags": null,
  "totalTime": "PT45M",
  "units": "metric",
  "url": "https://mobile.slimmingworld.co.uk/recipes/view-recipe/mediterranean-fish-roast",
  "vegan": false,
  "yield_": "4"
}