{
  "archiveTimestamp": null,
  "archiveUrl": null,
  "category": "Seafood",
  "cookTime": "PT25M",
  "cuisine": "Mediterranean",
  "dairyFree": false,
  "dateCooked": "2021-10-30",
  "deadUrl": false,
  "description": "This Mediterranean take on fried rice has all the crispy and salty bits as well as the very best bit: the crispy 'tahdig' layer at the bottom of the pan. 'Tahdig' is the Persian word referring to the bottom of the pot, where the rice forms a crunchy golden layer of crispy decadence. Also called 'socarrat' in Spain, this scorched rice is the part we look forward to the most.",
  "future": false,
  "glutenFree": false,
  "image": "mediterranean-style-fried-rice-with-anchovy-dressing.webp",
  "inactiveTime": null,
  "ingredient_headings": {
    "1": "Anchovy Dressing"
  },
  "ingredients": [
    {
      "comment": "",
      "fdc_id": "1750351",
      "formatted_quantity": "60",
      "group": -1,
      "name": "olive oil",
      "prep": "",
      "quantity": "60",
      "synonym": "",
      "unit": "ml"
    },
    {
      "comment": "",
      "fdc_id": "2258588",
      "formatted_quantity": "1",
      "group": -1,
      "name": "green pepper",
      "prep": "stem and seeds discarded and flesh cut roughly into 3 cm cubes",
      "quantity": "1",
      "synonym": "",
      "unit": ""
    },
    {
      "comment": "",
      "fdc_id": "1104647",
      "formatted_quantity": "6",
      "group": -1,
      "name": "garlic",
      "prep": "peeled",
      "quantity": "6",
      "synonym": "",
      "unit": "small cloves"
    },
    {
      "comment": "",
      "fdc_id": "",
      "formatted_quantity": "1",
      "group": -1,
      "name": "mild red chilli",
      "prep": "halved lengthways",
      "quantity": "1",
      "synonym": "red chilli",
      "unit": ""
    },
    {
      "comment": "",
      "fdc_id": "170005",
      "formatted_quantity": "4",
      "group": -1,
      "name": "spring onions",
      "prep": "white and green parts separated, each cut into 3 cm lengths",
      "quantity": "4",
      "synonym": "",
      "unit": ""
    },
    {
      "comment": "with their soft sprigs",
      "fdc_id": "173470",
      "formatted_quantity": "5",
      "group": -1,
      "name": "thyme leaves",
      "prep": "",
      "quantity": "5",
      "synonym": "thyme",
      "unit": "g"
    },
    {
      "comment": "",
      "fdc_id": "2343892",
      "formatted_quantity": "350",
      "group": -1,
      "name": "cooked basmati rice",
      "prep": "",
      "quantity": "350",
      "synonym": "rice",
      "unit": "g"
    },
    {
      "comment": "",
      "fdc_id": "748967",
      "formatted_quantity": "2",
      "group": -1,
      "name": "eggs",
      "prep": "",
      "quantity": "2",
      "synonym": "",
      "unit": ""
    },
    {
      "comment": "",
      "fdc_id": "",
      "formatted_quantity": "15",
      "group": 1,
      "name": "anchovies in oil (about 5)",
      "prep": "drained and finely chopped",
      "quantity": "15",
      "synonym": "anchovies",
      "unit": "g"
    },
    {
      "comment": "",
      "fdc_id": "1104647",
      "formatted_quantity": "2",
      "group": 1,
      "name": "garlic",
      "prep": "crushed",
      "quantity": "2",
      "synonym": "",
      "unit": "cloves"
    },
    {
      "comment": "",
      "fdc_id": "170923",
      "formatted_quantity": "½",
      "group": 1,
      "name": "cumin seeds",
      "prep": "roughly crushed with a pestle and mortar",
      "quantity": "0.5",
      "synonym": "cumin",
      "unit": "tsp"
    },
    {
      "comment": "",
      "fdc_id": "1750351",
      "formatted_quantity": "2",
      "group": 1,
      "name": "olive oil",
      "prep": "",
      "quantity": "2",
      "synonym": "oil",
      "unit": "tbsp"
    },
    {
      "comment": "",
      "fdc_id": "",
      "formatted_quantity": "1",
      "group": 1,
      "name": "lemon",
      "prep": "finely shave the skin to get 6 strips and then juice to get 1½ tbsp",
      "quantity": "1",
      "synonym": "",
      "unit": ""
    },
    {
      "comment": "",
      "fdc_id": "",
      "formatted_quantity": "1",
      "group": 1,
      "name": "parsley leaves",
      "prep": "roughly chopped",
      "quantity": "1",
      "synonym": "",
      "unit": "tbsp"
    },
    {
      "comment": "",
      "fdc_id": "",
      "formatted_quantity": "",
      "group": 1,
      "name": "salt and black pepper",
      "prep": "",
      "quantity": "",
      "synonym": "",
      "unit": ""
    }
  ],
  "instruction_headings": null,
  "instructions": [
    {
      "group": -1,
      "text": "Make the anchovy dressing by putting the anchovies, garlic, cumin, oil and a good grind of pepper into a small saucepan on a medium heat. As soon as the mixture starts to bubble, remove it from the heat and add the lemon juice. Set aside to cool, then stir in the parsley."
    },
    {
      "group": -1,
      "text": "Put <1> tablespoon of oil into a large frying pan, for which you have a lid, on a medium-high heat. Add the green pepper pieces and cook for {3 minutes}, stirring occasionally, until nicely coloured and softened. Add <2> more tablespoons of oil, the garlic, red chilli and the white parts of the spring onions and cook for {90 seconds} more, until they've also taken on some colour. Now add the green parts of the spring onions, the thyme and lemon skin and cook for another {30 seconds}, then add the rice, <¼> teaspoon of salt and a good grind of pepper. Stir frequently, breaking apart any clumps with a spoon, and cook for {3 minutes} to take on a little colour."
    },
    {
      "group": -1,
      "text": "Use a spoon to create two wells in the rice mixture, exposing the bottom of the pan. Add <1½> teaspoons of oil to each well, then crack an egg into both and turn the heat down to medium. Sprinkle lightly with salt and pepper, with the lid and cook for about {4-5 minutes}, or until the whites are set, the yolks are still runny and the bottom of the rice is nice and crispy. Drizzle all over with the anchovy dressing and serve right away."
    }
  ],
  "lowEffort": false,
  "miseEnPlace": false,
  "name": "Mediterranean style fried rice with anchovy dressing",
  "notes": null,
  "nutFree": false,
  "nutrition": null,
  "prepTime": "PT20M",
  "rating": "Neutral",
  "slug": "mediterranean-style-fried-rice-with-anchovy-dressing",
  "source": "Ottolenghi Test Kitchen: Shelf Love",
  "tags": null,
  "totalTime": "PT45M",
  "units": "metric",
  "url": null,
  "vegan": false,
  "yield_": "2"
}