{
  "archiveTimestamp": null,
  "archiveUrl": null,
  "category": "Pork",
  "cookTime": "PT30M",
  "cuisine": "Mediterranean",
  "dairyFree": false,
  "dateCooked": "2018-06-05",
  "deadUrl": false,
  "description": null,
  "future": false,
  "glutenFree": false,
  "image": "mediterranean-pork-stew.webp",
  "inactiveTime": null,
  "ingredient_headings": null,
  "ingredients": [
    {
      "comment": "",
      "fdc_id": "",
      "formatted_quantity": "600",
      "group": -1,
      "name": "lean pork medallions",
      "prep": "fat trimmed",
      "quantity": "600",
      "synonym": "pork",
      "unit": "g"
    },
    {
      "comment": "",
      "fdc_id": "790646",
      "formatted_quantity": "1",
      "group": -1,
      "name": "onion",
      "prep": "thinly sliced",
      "quantity": "1",
      "synonym": "",
      "unit": ""
    },
    {
      "comment": "",
      "fdc_id": "2346405",
      "formatted_quantity": "2",
      "group": -1,
      "name": "celery",
      "prep": "finely diced",
      "quantity": "2",
      "synonym": "",
      "unit": "sticks"
    },
    {
      "comment": "",
      "fdc_id": "1104647",
      "formatted_quantity": "3",
      "group": -1,
      "name": "garlic",
      "prep": "crushed",
      "quantity": "3",
      "synonym": "",
      "unit": "cloves"
    },
    {
      "comment": "",
      "fdc_id": "171329",
      "formatted_quantity": "1",
      "group": -1,
      "name": "smoked paprika",
      "prep": "",
      "quantity": "1",
      "synonym": "paprika",
      "unit": "tbsp"
    },
    {
      "comment": "",
      "fdc_id": "171323",
      "formatted_quantity": "1",
      "group": -1,
      "name": "fennel seeds",
      "prep": "",
      "quantity": "1",
      "synonym": "",
      "unit": "tsp"
    },
    {
      "comment": "",
      "fdc_id": "2345373",
      "formatted_quantity": "1x",
      "group": -1,
      "name": "butter beans",
      "prep": "drained and rinsed",
      "quantity": "1x",
      "synonym": "",
      "unit": "400 g tin"
    },
    {
      "comment": "",
      "fdc_id": "",
      "formatted_quantity": "175",
      "group": -1,
      "name": "chick stock",
      "prep": "",
      "quantity": "175",
      "synonym": "stock",
      "unit": "ml"
    },
    {
      "comment": "",
      "fdc_id": "173473",
      "formatted_quantity": "2",
      "group": -1,
      "name": "rosemary",
      "prep": "leaves picked",
      "quantity": "2",
      "synonym": "",
      "unit": "sprigs"
    },
    {
      "comment": "",
      "fdc_id": "2378728",
      "formatted_quantity": "12",
      "group": -1,
      "name": "cherry tomatoes",
      "prep": "",
      "quantity": "12",
      "synonym": "tomatoes",
      "unit": ""
    }
  ],
  "instruction_headings": null,
  "instructions": [
    {
      "group": -1,
      "text": "Mist a large pan with cooking spray and set over a medium-high heat. In batches, sear the pork for {2 minutes} of each side. Remove from the pan and set aside."
    },
    {
      "group": -1,
      "text": "Add the onion, celery and garlic to the pan and cook for {6-8 minutes} until soft. If the mixture starts to stick, add a splash of water to the pan."
    },
    {
      "group": -1,
      "text": "Stir in the paprika and fennel seeds, cook for {1 minute}, then add the butter beans, stock and rosemary. Bring to a boil then reduce the heat to low. Return the pork to the pan, add the tomatoes, then cover and simmer for {10 minutes}. Remove the lid and continue to simmer for {5 minutes} or until the pork is tender and the stew thickened."
    }
  ],
  "lowEffort": false,
  "miseEnPlace": false,
  "name": "Mediterranean pork stew",
  "notes": null,
  "nutFree": false,
  "nutrition": null,
  "prepTime": "PT15M",
  "rating": "Neutral",
  "slug": "mediterranean-pork-stew",
  "source": "Weight Watchers Magazine",
  "tags": null,
  "totalTime": "PT45M",
  "units": "metric",
  "url": null,
  "vegan": false,
  "yield_": "4"
}