{
  "archiveTimestamp": null,
  "archiveUrl": null,
  "category": "Dessert",
  "cookTime": "PT45M",
  "cuisine": null,
  "dairyFree": false,
  "dateCooked": "2023-07-17",
  "deadUrl": false,
  "description": "Buttery. Minty. Perfectly tangy. My Minty Lime Bars recipe is a refreshing, stress-free take on classic lemon squares using fragrant mint and rich lime curd. It is a simple and stress-free dessert recipe that requires only one bowl, a whisk, and less than 10 minutes to prepare!",
  "future": true,
  "glutenFree": false,
  "image": "minty-lime-bars.webp",
  "inactiveTime": "PT1H",
  "ingredient_headings": {
    "1": "Shortbread crust",
    "2": "Lemon curd"
  },
  "ingredients": [
    {
      "comment": "",
      "fdc_id": 746784,
      "formatted_quantity": "¼",
      "group": 1,
      "name": "granulated sugar",
      "prep": "",
      "quantity": "0.25",
      "synonym": "",
      "unit": "cups"
    },
    {
      "comment": "",
      "fdc_id": "",
      "formatted_quantity": "1-2",
      "group": 1,
      "name": "lime zest",
      "prep": "finely grated",
      "quantity": "1-2",
      "synonym": "",
      "unit": "tbsps"
    },
    {
      "comment": "",
      "fdc_id": 173475,
      "formatted_quantity": "2",
      "group": 1,
      "name": "fresh mint",
      "prep": "finely chopped",
      "quantity": "2",
      "synonym": "mint",
      "unit": "tbsps"
    },
    {
      "comment": "",
      "fdc_id": 790018,
      "formatted_quantity": "1½",
      "group": 1,
      "name": "all-purpose flour",
      "prep": "",
      "quantity": "1.5",
      "synonym": "",
      "unit": "cups"
    },
    {
      "comment": "",
      "fdc_id": 789828,
      "formatted_quantity": "½",
      "group": 1,
      "name": "unsalted butter",
      "prep": "softened",
      "quantity": "0.5",
      "synonym": "",
      "unit": "cups"
    },
    {
      "comment": "",
      "fdc_id": 746775,
      "formatted_quantity": "",
      "group": 1,
      "name": "of salt",
      "prep": "",
      "quantity": "",
      "synonym": "",
      "unit": "pinch"
    },
    {
      "comment": "",
      "fdc_id": 746784,
      "formatted_quantity": "1½",
      "group": 2,
      "name": "granulated sugar",
      "prep": "",
      "quantity": "1.5",
      "synonym": "",
      "unit": "cups"
    },
    {
      "comment": "",
      "fdc_id": 748967,
      "formatted_quantity": "4",
      "group": 2,
      "name": "eggs",
      "prep": "",
      "quantity": "4",
      "synonym": "",
      "unit": "large"
    },
    {
      "comment": "",
      "fdc_id": 790018,
      "formatted_quantity": "2",
      "group": 2,
      "name": "all-purpose flour",
      "prep": "",
      "quantity": "2",
      "synonym": "",
      "unit": "tbsps"
    },
    {
      "comment": "",
      "fdc_id": 746775,
      "formatted_quantity": "",
      "group": 2,
      "name": "of salt",
      "prep": "",
      "quantity": "",
      "synonym": "",
      "unit": "pinch"
    },
    {
      "comment": "~4 limes",
      "fdc_id": 2344678,
      "formatted_quantity": "½",
      "group": 2,
      "name": "fresh lime juice",
      "prep": "",
      "quantity": "0.5",
      "synonym": "",
      "unit": "cups"
    },
    {
      "comment": "",
      "fdc_id": 2344675,
      "formatted_quantity": "⅛",
      "group": 2,
      "name": "fresh lemon Juice",
      "prep": "~1 medium lemon",
      "quantity": "0.125",
      "synonym": "",
      "unit": "cups"
    },
    {
      "comment": "for decorating",
      "fdc_id": 2345819,
      "formatted_quantity": "1-2",
      "group": 2,
      "name": "icing sugar",
      "prep": "",
      "quantity": "1-2",
      "synonym": "",
      "unit": "tbsps"
    }
  ],
  "instruction_headings": null,
  "instructions": [
    {
      "group": -1,
      "text": "Start by preheating your oven to [165°C]. Line a <9>\"x <9>\" baking pan with parchment paper."
    },
    {
      "group": -1,
      "text": "In a large bowl, use clean hands to massage sugar into mint and lime zest. (Note: mixture will become wet and fragrant as the oils from the mint and lime zest are released into the sugar)."
    },
    {
      "group": -1,
      "text": "To the sugar mixture, add flour, salt, and butter. Continue to blend with your hands until a mixture resembling wet sand forms."
    },
    {
      "group": -1,
      "text": "Press mixture evenly into your prepared baking pan. Bake for ~{20 minutes} or until edges are golden brown."
    },
    {
      "group": -1,
      "text": "While crust is baking, whisk together eggs, sugar, and flour."
    },
    {
      "group": -1,
      "text": "Once crust is baked and removed from oven, whisk in lime and lemon juice into egg mixture and pour over the crust."
    },
    {
      "group": -1,
      "text": "Return baking pan to the oven for another {20-25 minutes} or until lime curd is set to a slight wobble in the centre."
    },
    {
      "group": -1,
      "text": "Allow Minty Lime Bars to cool completely in baking pan. Refrigerate for <1>h to overnight. Remove from pan, cut into squares, and decorate with icing sugar and additional grated lime zest!"
    }
  ],
  "lowEffort": false,
  "miseEnPlace": false,
  "name": "Minty lime bars",
  "notes": null,
  "nutFree": false,
  "nutrition": null,
  "prepTime": "PT10M",
  "rating": "Neutral",
  "slug": "minty-lime-bars",
  "source": "themindfulmeringue.com",
  "tags": null,
  "totalTime": "PT55M",
  "units": "imperial",
  "url": "https://themindfulmeringue.com/minty-lime-bars/",
  "vegan": false,
  "yield_": "16"
}