{
  "archiveTimestamp": null,
  "archiveUrl": null,
  "category": "Veggie",
  "cookTime": "PT50M",
  "cuisine": null,
  "dairyFree": false,
  "dateCooked": "2024-12-23",
  "deadUrl": false,
  "description": "This tasty tart makes a lovely lunch for four with a salad or is perfect for a picnic. Along with frozen peppers and sheets of pastry, thyme is one of those freezer essentials (hardy herbs freeze really well) which can be brought out to add a lovely scent to a simple tart such as this.",
  "future": false,
  "glutenFree": false,
  "image": "mixed-pepper-thyme-cheddar-tart.webp",
  "inactiveTime": null,
  "ingredient_headings": null,
  "ingredients": [
    {
      "comment": "",
      "fdc_id": "",
      "formatted_quantity": "500",
      "group": -1,
      "name": "frozen mixed peppers",
      "prep": "sliced",
      "quantity": "500",
      "synonym": "peppers",
      "unit": "g"
    },
    {
      "comment": "for dusting",
      "fdc_id": "",
      "formatted_quantity": "",
      "group": -1,
      "name": "plain flour",
      "prep": "",
      "quantity": "",
      "synonym": "",
      "unit": ""
    },
    {
      "comment": "",
      "fdc_id": "",
      "formatted_quantity": "1x",
      "group": -1,
      "name": "frozen ready-rolled shortcrust pastry",
      "prep": "defrosted",
      "quantity": "1x",
      "synonym": "pastry",
      "unit": "375 g"
    },
    {
      "comment": "",
      "fdc_id": "1750351",
      "formatted_quantity": "2",
      "group": -1,
      "name": "olive oil",
      "prep": "",
      "quantity": "2",
      "synonym": "",
      "unit": "tbsp"
    },
    {
      "comment": "",
      "fdc_id": "790577",
      "formatted_quantity": "1",
      "group": -1,
      "name": "red onion",
      "prep": "finely sliced",
      "quantity": "1",
      "synonym": "onion",
      "unit": ""
    },
    {
      "comment": "or 2 fresh cloves, finely chopped",
      "fdc_id": "",
      "formatted_quantity": "1",
      "group": -1,
      "name": "frozen chopped garlic",
      "prep": "",
      "quantity": "1",
      "synonym": "garlic",
      "unit": "tbsp"
    },
    {
      "comment": "",
      "fdc_id": "",
      "formatted_quantity": "",
      "group": -1,
      "name": "leaves from 2 bushy sprigs thyme",
      "prep": "",
      "quantity": "",
      "synonym": "thyme",
      "unit": ""
    },
    {
      "comment": "",
      "fdc_id": "",
      "formatted_quantity": "175",
      "group": -1,
      "name": "crème fraîche",
      "prep": "",
      "quantity": "175",
      "synonym": "",
      "unit": "g"
    },
    {
      "comment": "",
      "fdc_id": "748236",
      "formatted_quantity": "3",
      "group": -1,
      "name": "egg yolks",
      "prep": "",
      "quantity": "3",
      "synonym": "",
      "unit": "large"
    },
    {
      "comment": "",
      "fdc_id": "328637",
      "formatted_quantity": "140",
      "group": -1,
      "name": "Cheddar cheese",
      "prep": "grated",
      "quantity": "140",
      "synonym": "",
      "unit": "g"
    },
    {
      "comment": "",
      "fdc_id": "",
      "formatted_quantity": "",
      "group": -1,
      "name": "sea salt and ground black pepper",
      "prep": "",
      "quantity": "",
      "synonym": "",
      "unit": ""
    }
  ],
  "instruction_headings": null,
  "instructions": [
    {
      "group": -1,
      "text": "On a lightly floured surface, roll out the pastry a little more lengthways to make it long enough to fit the tin, then use it to line a <36> x <13> cm  tart tin. Pierce the pastry base several times with a fork and place in the fridge to chill for {30 minutes}. Preheat the oven to [190°C]/gas <5>."
    },
    {
      "group": -1,
      "text": "While the pastry is chilling, make the filling. Heat the olive oil in a frying pan and add the onion. Sauté gently for a good {8 minutes} until starting to soften and turn translucent. Add the garlic and thyme leaves and cook for another few minutes, then add the peppers and stir until everything is well combined. Season well with salt and pepper."
    },
    {
      "group": -1,
      "text": "Line the pastry case with baking parchment and fill with baking beans, then blind bake for {12 minutes}. Remove the parchment and baking beans and return to the oven for another {5 minutes} until the base is beginning to dry out and turn golden."
    },
    {
      "group": -1,
      "text": "Mix together the crème fraîche, egg yolks and about <100> g of the cheese, reserving the rest to sprinkle over the top. Season the mixture with salt and pepper."
    },
    {
      "group": -1,
      "text": "Spoon the creamy filling into the pastry case, spreading the cheese evenly, then top with the pepper mixture, again spreading it evenly over the top. Finish by sprinkling over the reserved grated Cheddar. Bake for about {25 minutes}, or until the top is golden, the filling is set and the pastry is cooked through and golden. Serve warm."
    }
  ],
  "lowEffort": false,
  "miseEnPlace": false,
  "name": "Mixed pepper, thyme & cheddar tart",
  "notes": null,
  "nutFree": false,
  "nutrition": null,
  "prepTime": "PT20M",
  "rating": "Neutral",
  "slug": "mixed-pepper-thyme-cheddar-tart",
  "source": "Foolproof Freezer: 60 Fuss-Free Meals that Make the Most of Your Freezer",
  "tags": null,
  "totalTime": "PT1H10M",
  "units": "metric",
  "url": null,
  "vegan": false,
  "yield_": "4"
}