{
  "archiveTimestamp": "2023-11-22 09:11:37",
  "archiveUrl": "https://web.archive.org/web/20231122091137/https://www.sainsburysmagazine.co.uk/recipes/lamb/moroccan-lamb-salad-with-jewelled-couscous",
  "category": "RedMeat",
  "cookTime": "PT20M",
  "cuisine": "Moroccan",
  "dairyFree": false,
  "dateCooked": "2020-05-24",
  "deadUrl": false,
  "description": "Step-by-step method for making Moroccan lamb salad with jewelled couscous yourself.",
  "future": false,
  "glutenFree": false,
  "image": "moroccan-lamb-salad-with-jewelled-couscous.webp",
  "inactiveTime": null,
  "ingredient_headings": null,
  "ingredients": [
    {
      "comment": "",
      "fdc_id": 2343925,
      "formatted_quantity": "200",
      "group": -1,
      "name": "couscous",
      "prep": "",
      "quantity": "200",
      "synonym": "",
      "unit": "g"
    },
    {
      "comment": "",
      "fdc_id": 2259794,
      "formatted_quantity": "300",
      "group": -1,
      "name": "Greek-style yogurt",
      "prep": "",
      "quantity": "300",
      "synonym": "yogurt",
      "unit": "g"
    },
    {
      "comment": "",
      "fdc_id": "",
      "formatted_quantity": "",
      "group": -1,
      "name": "juice of 2 lemons",
      "prep": "",
      "quantity": "",
      "synonym": "",
      "unit": ""
    },
    {
      "comment": "plus extra to drizzle",
      "fdc_id": 1750351,
      "formatted_quantity": "1½",
      "group": -1,
      "name": "olive oil",
      "prep": "",
      "quantity": "1.5",
      "synonym": "",
      "unit": "tbsp"
    },
    {
      "comment": "",
      "fdc_id": "",
      "formatted_quantity": "",
      "group": -1,
      "name": "seeds from 1 pomegranate",
      "prep": "",
      "quantity": "",
      "synonym": "",
      "unit": ""
    },
    {
      "comment": "",
      "fdc_id": 173475,
      "formatted_quantity": "1x",
      "group": -1,
      "name": "mint",
      "prep": "chopped, reserving a few leaves to garnish",
      "quantity": "1x",
      "synonym": "",
      "unit": "28 g pack"
    },
    {
      "comment": "",
      "fdc_id": 2345302,
      "formatted_quantity": "0.5x",
      "group": -1,
      "name": "coriander",
      "prep": "chopped",
      "quantity": "0.5x",
      "synonym": "",
      "unit": "30 g pack"
    },
    {
      "comment": "",
      "fdc_id": "",
      "formatted_quantity": "2",
      "group": -1,
      "name": "ras el hanout (Moroccan spice blend)",
      "prep": "",
      "quantity": "2",
      "synonym": "ras el hanout",
      "unit": "tbsp"
    },
    {
      "comment": "",
      "fdc_id": "",
      "formatted_quantity": "12",
      "group": -1,
      "name": "lamb cutlets",
      "prep": "",
      "quantity": "12",
      "synonym": "cutlets",
      "unit": ""
    },
    {
      "comment": "",
      "fdc_id": 2345328,
      "formatted_quantity": "2",
      "group": -1,
      "name": "courgettes",
      "prep": "cut lengthways into 3 mm slices",
      "quantity": "2",
      "synonym": "courgette",
      "unit": ""
    },
    {
      "comment": "",
      "fdc_id": "",
      "formatted_quantity": "4",
      "group": -1,
      "name": "pitta breads or flatbreads",
      "prep": "griddled or toasted to serve",
      "quantity": "4",
      "synonym": "pittas or flatbreads",
      "unit": ""
    }
  ],
  "instruction_headings": null,
  "instructions": [
    {
      "group": -1,
      "text": "Put the couscous in a large bowl, cover with <300> ml boiling water, season with salt and pepper and stir briefly. Cover with clingfilm and set aside for {5 minutes}."
    },
    {
      "group": -1,
      "text": "Combine the yogurt and the juice from <1> lemon in a bowl; season."
    },
    {
      "group": -1,
      "text": "Use a fork to fluff up the couscous grains; add the remaining lemon juice, <½> tablespoon of olive oil, pomegranate seeds and chopped herbs. Stir and season."
    },
    {
      "group": -1,
      "text": "Heat a griddle pan until very hot. In a bowl, mix the ras el hanout with <1> tablespoon olive oil and a pinch of salt and pepper, then brush onto the cutlets. Griddle the lamb, in batches, for {2 minutes} each side. Remove to a plate to rest. Return the griddle pan to the heat, cook the courgette slices in batches for {2 minutes} each side or until tender. Season to taste."
    },
    {
      "group": -1,
      "text": "Serve the pittas or flatbreads with the jewelled couscous, courgette and lamb cutlets; finish with a spoonful of yogurt. Garnish with the mint leaves."
    }
  ],
  "lowEffort": false,
  "miseEnPlace": false,
  "name": "Moroccan lamb salad with jewelled couscous",
  "notes": null,
  "nutFree": false,
  "nutrition": {
    "calories": 678,
    "carbohydrates": 71.0,
    "fat": 24.0,
    "fibre": 4.0,
    "protein": 45.0,
    "salt": 1.4,
    "saturates": 9.0,
    "sugars": 10.0
  },
  "prepTime": "PT0H20M",
  "rating": "Neutral",
  "slug": "moroccan-lamb-salad-with-jewelled-couscous",
  "source": "www.sainsburysmagazine.co.uk",
  "tags": [
    "lamb"
  ],
  "totalTime": "PT0H40M",
  "units": "metric",
  "url": "https://www.sainsburysmagazine.co.uk/recipes/lamb/moroccan-lamb-salad-with-jewelled-couscous",
  "vegan": false,
  "yield_": "4"
}