{
  "archiveTimestamp": null,
  "archiveUrl": null,
  "category": "Poultry",
  "cookTime": "PT50M",
  "cuisine": null,
  "dairyFree": false,
  "dateCooked": "2017-08-07",
  "deadUrl": false,
  "description": null,
  "future": false,
  "glutenFree": false,
  "image": "new-potato-mince-curry.webp",
  "inactiveTime": null,
  "ingredient_headings": null,
  "ingredients": [
    {
      "comment": "",
      "fdc_id": "",
      "formatted_quantity": "450",
      "group": -1,
      "name": "minced turkey",
      "prep": "",
      "quantity": "450",
      "synonym": "mince",
      "unit": "g"
    },
    {
      "comment": "",
      "fdc_id": 2345737,
      "formatted_quantity": "1",
      "group": -1,
      "name": "vegetable oil",
      "prep": "",
      "quantity": "1",
      "synonym": "oil",
      "unit": "tbsp"
    },
    {
      "comment": "",
      "fdc_id": 790646,
      "formatted_quantity": "1",
      "group": -1,
      "name": "onion",
      "prep": "chopped",
      "quantity": "1",
      "synonym": "",
      "unit": "small"
    },
    {
      "comment": "",
      "fdc_id": 1104647,
      "formatted_quantity": "3",
      "group": -1,
      "name": "garlic",
      "prep": "finely chopped",
      "quantity": "3",
      "synonym": "",
      "unit": "cloves"
    },
    {
      "comment": "",
      "fdc_id": "",
      "formatted_quantity": "1",
      "group": -1,
      "name": "coarsely grated ginger",
      "prep": "",
      "quantity": "1",
      "synonym": "ginger",
      "unit": "tbsp"
    },
    {
      "comment": "",
      "fdc_id": 170106,
      "formatted_quantity": "1",
      "group": -1,
      "name": "red chilli",
      "prep": "deseed and finely sliced",
      "quantity": "1",
      "synonym": "chilli",
      "unit": ""
    },
    {
      "comment": "",
      "fdc_id": "",
      "formatted_quantity": "2",
      "group": -1,
      "name": "each of ground cumin and coriander",
      "prep": "",
      "quantity": "2",
      "synonym": "",
      "unit": "tsp"
    },
    {
      "comment": "",
      "fdc_id": "",
      "formatted_quantity": "1",
      "group": -1,
      "name": "korma curry paste",
      "prep": "",
      "quantity": "1",
      "synonym": "curry paste",
      "unit": "tbsp"
    },
    {
      "comment": "",
      "fdc_id": "",
      "formatted_quantity": "500",
      "group": -1,
      "name": "new potatoes",
      "prep": "halved",
      "quantity": "500",
      "synonym": "potatoes",
      "unit": "g"
    },
    {
      "comment": "",
      "fdc_id": 1999633,
      "formatted_quantity": "100",
      "group": -1,
      "name": "spinach leaves",
      "prep": "",
      "quantity": "100",
      "synonym": "spinach",
      "unit": "g"
    },
    {
      "comment": "",
      "fdc_id": "",
      "formatted_quantity": "150",
      "group": -1,
      "name": "0% fat Greek yogurt",
      "prep": "",
      "quantity": "150",
      "synonym": "yogurt",
      "unit": "g"
    },
    {
      "comment": "to serve",
      "fdc_id": "",
      "formatted_quantity": "",
      "group": -1,
      "name": "chapattis or naan bread",
      "prep": "",
      "quantity": "",
      "synonym": "",
      "unit": ""
    }
  ],
  "instruction_headings": null,
  "instructions": [
    {
      "group": -1,
      "text": "Heat a frying pan and dry-fry the mince. Brown it all over, stirring to beak it up. Remove from the pan to a plate. Add the oil and onion to the pan, and cook for {5 minutes}.  "
    },
    {
      "group": -1,
      "text": "Stir in the garlic, ginger, chilli, spices and curry paste. Stir-fry for {1 minute}. Add the mince, potatoes and <600> ml water, bring to the boil, cover, then simmer for {30 minutes}. Season with salt to taste.  "
    },
    {
      "group": -1,
      "text": "Stir in the spinach and simmer for {1 minute} uncovered, until wilted. Swirl through the yogurt and serve with the naan bread.  "
    }
  ],
  "lowEffort": false,
  "miseEnPlace": false,
  "name": "New potato & mince curry",
  "notes": null,
  "nutFree": false,
  "nutrition": {
    "calories": 315,
    "carbohydrates": 25,
    "fat": 10,
    "fibre": 2,
    "protein": 32,
    "salt": 0.55,
    "saturates": 3,
    "sugars": 4
  },
  "prepTime": "PT10M",
  "rating": "Neutral",
  "slug": "new-potato-mince-curry",
  "source": "BBC Good Food: Low-fat Feasts",
  "tags": null,
  "totalTime": "PT60M",
  "units": "metric",
  "url": null,
  "vegan": false,
  "yield_": "4"
}