{
  "archiveTimestamp": null,
  "archiveUrl": null,
  "category": "RedMeat",
  "cookTime": "PT50M",
  "cuisine": "Syrian",
  "dairyFree": false,
  "dateCooked": "2023-08-13",
  "deadUrl": false,
  "description": "This is a comfort food typically eaten in Damascus. The pastries make an impression and are beautiful to present. Every guest is served their own small, savoury ouzi, as though made especially with them in mind. As a child, I ate these often when we were invited to my parents’ friends’ house. They came from the capital city and I thought it was exciting to visit them, wondering: will they serve ouzi pastries again?",
  "future": false,
  "glutenFree": false,
  "image": "ouzi-phyllo-pastries-with-meat-and-rice-filling.webp",
  "inactiveTime": null,
  "ingredient_headings": {
    "1": "To serve"
  },
  "ingredients": [
    {
      "comment": "",
      "fdc_id": "",
      "formatted_quantity": "2",
      "group": -1,
      "name": "of olive oil",
      "prep": "",
      "quantity": "2",
      "synonym": "oil",
      "unit": "tablespoons"
    },
    {
      "comment": "",
      "fdc_id": "",
      "formatted_quantity": "500",
      "group": -1,
      "name": "of minced beef",
      "prep": "",
      "quantity": "500",
      "synonym": "minced beef",
      "unit": "g"
    },
    {
      "comment": "",
      "fdc_id": "",
      "formatted_quantity": "1",
      "group": -1,
      "name": "of 7 spices blend",
      "prep": "",
      "quantity": "1",
      "synonym": "7 spices blend",
      "unit": "tablespoon"
    },
    {
      "comment": "(rinsed)",
      "fdc_id": "",
      "formatted_quantity": "100",
      "group": -1,
      "name": "of rice",
      "prep": "",
      "quantity": "100",
      "synonym": "rice",
      "unit": "g"
    },
    {
      "comment": "",
      "fdc_id": "",
      "formatted_quantity": "½",
      "group": -1,
      "name": "of ground cardamom",
      "prep": "",
      "quantity": "0.5",
      "synonym": "cardamom",
      "unit": "teaspoons"
    },
    {
      "comment": "",
      "fdc_id": "",
      "formatted_quantity": "500",
      "group": -1,
      "name": "of beef stock",
      "prep": "",
      "quantity": "500",
      "synonym": "beef stock",
      "unit": "ml"
    },
    {
      "comment": "",
      "fdc_id": "",
      "formatted_quantity": "",
      "group": -1,
      "name": "Salt and pepper",
      "prep": "",
      "quantity": "",
      "synonym": "",
      "unit": ""
    },
    {
      "comment": "",
      "fdc_id": "",
      "formatted_quantity": "200",
      "group": -1,
      "name": "of frozen peas",
      "prep": "",
      "quantity": "200",
      "synonym": "peas",
      "unit": "g"
    },
    {
      "comment": "",
      "fdc_id": "",
      "formatted_quantity": "100",
      "group": -1,
      "name": "of toasted nuts (almonds, cashews, pine nuts)",
      "prep": "",
      "quantity": "100",
      "synonym": "toasted nuts",
      "unit": "g"
    },
    {
      "comment": " (approx. 20 x 25 cm)",
      "fdc_id": "",
      "formatted_quantity": "20",
      "group": -1,
      "name": "of phyllo dough",
      "prep": "",
      "quantity": "20",
      "synonym": "phyllo dough",
      "unit": "sheets"
    },
    {
      "comment": "for brushing",
      "fdc_id": 1750351,
      "formatted_quantity": "",
      "group": -1,
      "name": "Olive oil",
      "prep": "",
      "quantity": "",
      "synonym": "",
      "unit": ""
    },
    {
      "comment": "",
      "fdc_id": "",
      "formatted_quantity": "1",
      "group": 1,
      "name": "of pistachios",
      "prep": "",
      "quantity": "1",
      "synonym": "",
      "unit": "handful"
    }
  ],
  "instruction_headings": null,
  "instructions": [
    {
      "group": -1,
      "text": "Heat the oil in a large pan on medium heat. Break the minced beef up into small pieces with a wooden spoon and brown for {7 minutes}. Stir in the 7 spices blend."
    },
    {
      "group": -1,
      "text": "Mix the rice and cardamom into the minced beef and add the beef stock. Add salt and pepper, and continue cooking the rice for {15 minutes}, or until most of the stock has been absorbed."
    },
    {
      "group": -1,
      "text": "Stir the peas and the toasted nuts into the cooked rice. Warm everything for another minute and then turn the heat off, cover and let the pilaf rest for {5 minutes}. Salt and pepper to taste."
    },
    {
      "group": -1,
      "text": "Make the pastries by using a little bowl or cup (<9> cm diameter). Make a double layer of two sheets of phyllo dough, fold them in half and brush on some olive oil to help them stick together. Line the little bowl or cup with this double layer of dough to form a phyllo cup."
    },
    {
      "group": -1,
      "text": "Fill the phyllo cup with the pilaf and press on the rice with the round part of a spoon. Fold the excess dough hanging at the edges over the rice to cover. Seal the phyllo edges by brushing once more with some olive oil. Turn the pastry out onto a plate. Repeat to form the other pastries in the same way."
    },
    {
      "group": -1,
      "text": "Heat the oven to [200°C]. Prepare a baking tray with baking paper, set the pastries on the baking paper and then brush with olive oil. Bake for {15-20 minutes}, until they are a nice golden brown. Garnish the pastries with a pistachio and eat them warm."
    }
  ],
  "lowEffort": false,
  "miseEnPlace": false,
  "name": "Ouzi — phyllo pastries with meat and rice filling",
  "notes": null,
  "nutFree": false,
  "nutrition": null,
  "prepTime": "PT20M",
  "rating": "Neutral",
  "slug": "ouzi-phyllo-pastries-with-meat-and-rice-filling",
  "source": "Sumac",
  "tags": [
    "beef"
  ],
  "totalTime": "PT70M",
  "units": "metric",
  "url": null,
  "vegan": false,
  "yield_": "10"
}