{
  "archiveTimestamp": null,
  "archiveUrl": null,
  "category": "Seafood",
  "cookTime": "PT15M",
  "cuisine": "Lebanese",
  "dairyFree": false,
  "dateCooked": "2022-04-23",
  "deadUrl": false,
  "description": "With a serving of fries, this dish is the Lebanese version of fish and chips. The fillets\nare crispy on the outside and juicy on the inside, and, more importantly, they have\nvery few bones, making them easy for kids as well as adults to eat and enjoy.",
  "future": false,
  "glutenFree": false,
  "image": "oven-fried-fish-fillets.webp",
  "inactiveTime": "PT2H",
  "ingredient_headings": null,
  "ingredients": [
    {
      "comment": "",
      "fdc_id": "",
      "formatted_quantity": "2",
      "group": -1,
      "name": "grouper fillets",
      "prep": "",
      "quantity": "2",
      "synonym": "fish",
      "unit": "lbs"
    },
    {
      "comment": "",
      "fdc_id": 748608,
      "formatted_quantity": "1",
      "group": -1,
      "name": "extra virgin olive oil",
      "prep": "",
      "quantity": "1",
      "synonym": "oil",
      "unit": "cup"
    },
    {
      "comment": "",
      "fdc_id": 172237,
      "formatted_quantity": "⅔",
      "group": -1,
      "name": "white vinegar",
      "prep": "",
      "quantity": "0.667",
      "synonym": "vinegar",
      "unit": "cup"
    },
    {
      "comment": "",
      "fdc_id": 789828,
      "formatted_quantity": "1",
      "group": -1,
      "name": "unsalted butter",
      "prep": "",
      "quantity": "1",
      "synonym": "butter",
      "unit": "tbsp"
    },
    {
      "comment": "",
      "fdc_id": "",
      "formatted_quantity": "1",
      "group": -1,
      "name": "sea salt",
      "prep": "",
      "quantity": "1",
      "synonym": "salt",
      "unit": "tsp"
    },
    {
      "comment": "",
      "fdc_id": 170931,
      "formatted_quantity": "1",
      "group": -1,
      "name": "freshly ground black pepper",
      "prep": "",
      "quantity": "1",
      "synonym": "pepper",
      "unit": "tsp"
    },
    {
      "comment": "",
      "fdc_id": "",
      "formatted_quantity": "1",
      "group": -1,
      "name": "chopped fresh sage",
      "prep": "",
      "quantity": "1",
      "synonym": "sage",
      "unit": "tsp"
    },
    {
      "comment": "",
      "fdc_id": 2345316,
      "formatted_quantity": "1",
      "group": -1,
      "name": "finely chopped fresh parsley",
      "prep": "",
      "quantity": "1",
      "synonym": "parlsey",
      "unit": "tbsp"
    },
    {
      "comment": "",
      "fdc_id": 748967,
      "formatted_quantity": "1",
      "group": -1,
      "name": "egg",
      "prep": "beaten",
      "quantity": "1",
      "synonym": "",
      "unit": "large"
    },
    {
      "comment": "",
      "fdc_id": 325871,
      "formatted_quantity": "1",
      "group": -1,
      "name": "breadcrumbs",
      "prep": "",
      "quantity": "1",
      "synonym": "",
      "unit": "cup"
    },
    {
      "comment": "",
      "fdc_id": 2344662,
      "formatted_quantity": "1",
      "group": -1,
      "name": "lemon",
      "prep": "cut into wedges",
      "quantity": "1",
      "synonym": "",
      "unit": ""
    }
  ],
  "instruction_headings": null,
  "instructions": [
    {
      "group": -1,
      "text": "Put the fish in a bowl or a glass baking dish, and cover with the oil and vinegar. Let marinate in the refrigerator for {2 hours}."
    },
    {
      "group": -1,
      "text": "Preheat the oven to [205°C]. Grease a baking sheet with the butter. "
    },
    {
      "group": -1,
      "text": "Remove the fish from the marinade, and transfer to the prepared baking sheet. Season with the salt, pepper, and sage."
    },
    {
      "group": -1,
      "text": "In a bowl, whisk the parsley into the beaten egg, and pour over the fish."
    },
    {
      "group": -1,
      "text": "Sprinkle the breadcrumbs on top, covering the fish completely."
    },
    {
      "group": -1,
      "text": "Oven fry until the fish flakes easily with a fork, about {15 minutes}. Serve immediately with the\nlemon wedges."
    }
  ],
  "lowEffort": false,
  "miseEnPlace": false,
  "name": "Oven fried fish fillets",
  "notes": null,
  "nutFree": false,
  "nutrition": null,
  "prepTime": "PT10M",
  "rating": "Neutral",
  "slug": "oven-fried-fish-fillets",
  "source": "My Lebanese Cookbook",
  "tags": null,
  "totalTime": "PT25M",
  "units": "imperial",
  "url": null,
  "vegan": false,
  "yield_": "4"
}