{
  "archiveTimestamp": null,
  "archiveUrl": null,
  "category": "Seafood",
  "cookTime": "PT15M",
  "cuisine": "Thai",
  "dairyFree": false,
  "dateCooked": "2018-06-04",
  "deadUrl": false,
  "description": null,
  "future": false,
  "glutenFree": false,
  "image": "pad-thai-omelette.webp",
  "inactiveTime": null,
  "ingredient_headings": null,
  "ingredients": [
    {
      "comment": "",
      "fdc_id": "2345737",
      "formatted_quantity": "1",
      "group": -1,
      "name": "vegetable oil",
      "prep": "",
      "quantity": "1",
      "synonym": "oil",
      "unit": "tbsp"
    },
    {
      "comment": "",
      "fdc_id": "170499",
      "formatted_quantity": "1",
      "group": -1,
      "name": "shallot",
      "prep": "sliced",
      "quantity": "1",
      "synonym": "",
      "unit": ""
    },
    {
      "comment": "",
      "fdc_id": "2258586",
      "formatted_quantity": "1",
      "group": -1,
      "name": "carrot",
      "prep": "cut into matchsticks",
      "quantity": "1",
      "synonym": "",
      "unit": ""
    },
    {
      "comment": "",
      "fdc_id": "2345328",
      "formatted_quantity": "1",
      "group": -1,
      "name": "courgette",
      "prep": "cut into matchsticks",
      "quantity": "1",
      "synonym": "",
      "unit": "small"
    },
    {
      "comment": "",
      "fdc_id": "",
      "formatted_quantity": "5",
      "group": -1,
      "name": "chunk of fresh root ginger",
      "prep": "peeled and finely chopped",
      "quantity": "5",
      "synonym": "ginger",
      "unit": "g"
    },
    {
      "comment": "",
      "fdc_id": "170106",
      "formatted_quantity": "1",
      "group": -1,
      "name": "red chilli",
      "prep": "deseeded and sliced",
      "quantity": "1",
      "synonym": "chilli",
      "unit": ""
    },
    {
      "comment": "",
      "fdc_id": "1104647",
      "formatted_quantity": "2",
      "group": -1,
      "name": "garlic",
      "prep": "sliced",
      "quantity": "2",
      "synonym": "",
      "unit": "cloves"
    },
    {
      "comment": "",
      "fdc_id": "",
      "formatted_quantity": "100",
      "group": -1,
      "name": "shelled raw tiger prawns",
      "prep": "roughly chopped",
      "quantity": "100",
      "synonym": "prawns",
      "unit": "g"
    },
    {
      "comment": "",
      "fdc_id": "2345288",
      "formatted_quantity": "100",
      "group": -1,
      "name": "bean sprouts",
      "prep": "",
      "quantity": "100",
      "synonym": "",
      "unit": "g"
    },
    {
      "comment": "for spraying",
      "fdc_id": "748323",
      "formatted_quantity": "",
      "group": -1,
      "name": "oil",
      "prep": "",
      "quantity": "",
      "synonym": "",
      "unit": ""
    },
    {
      "comment": "",
      "fdc_id": "748967",
      "formatted_quantity": "4",
      "group": -1,
      "name": "eggs",
      "prep": "",
      "quantity": "4",
      "synonym": "",
      "unit": ""
    },
    {
      "comment": "",
      "fdc_id": "",
      "formatted_quantity": "",
      "group": -1,
      "name": "salt and pepper",
      "prep": "",
      "quantity": "",
      "synonym": "",
      "unit": ""
    },
    {
      "comment": "",
      "fdc_id": "",
      "formatted_quantity": "1",
      "group": -1,
      "name": "tamarind paste",
      "prep": "",
      "quantity": "1",
      "synonym": "",
      "unit": "tsp"
    },
    {
      "comment": "",
      "fdc_id": "2341881",
      "formatted_quantity": "1",
      "group": -1,
      "name": "fish sauce",
      "prep": "",
      "quantity": "1",
      "synonym": "",
      "unit": "tbsp"
    },
    {
      "comment": "",
      "fdc_id": "2675517",
      "formatted_quantity": "1",
      "group": -1,
      "name": "caster sugar",
      "prep": "",
      "quantity": "1",
      "synonym": "",
      "unit": "tsp"
    },
    {
      "comment": "",
      "fdc_id": "",
      "formatted_quantity": "¼",
      "group": -1,
      "name": "shrimp paste (optional)",
      "prep": "",
      "quantity": "0.25",
      "synonym": "shrimp paste",
      "unit": "tsp"
    },
    {
      "comment": "",
      "fdc_id": "170005",
      "formatted_quantity": "2",
      "group": -1,
      "name": "spring onions",
      "prep": "shredded",
      "quantity": "2",
      "synonym": "",
      "unit": ""
    },
    {
      "comment": "",
      "fdc_id": "2345302",
      "formatted_quantity": "",
      "group": -1,
      "name": "coriander",
      "prep": "chopped",
      "quantity": "",
      "synonym": "",
      "unit": "handful"
    },
    {
      "comment": "",
      "fdc_id": "",
      "formatted_quantity": "1",
      "group": -1,
      "name": "finely chopped peanuts",
      "prep": "",
      "quantity": "1",
      "synonym": "peanuts",
      "unit": "tsp"
    }
  ],
  "instruction_headings": null,
  "instructions": [
    {
      "group": -1,
      "text": "To make the sauce, mix the tamarind paste, fish sauce, caster sugar and shrimp paste, if using, together. Taste a little and adjust the quantities of any of the ingredients to taste."
    },
    {
      "group": -1,
      "text": "To make the pad thai, heat the oil in a wok until smoking, then add the shallot, carrot, courgette, ginger and chilli. Stir-fry for about {3 minutes} until the vegetables are starting to cook through, then add the garlic. Stir-fry for another minute, then push everything to one side of the wok and add the prawns. Cook for another minute and then pour over the sauce. Let it bubble for a few minutes and stir in the bean sprouts. Set it aside and keep warm."
    },
    {
      "group": -1,
      "text": "Lightly spray a large non-stick frying pan with oil and place it over a medium heat until hot. Break <2> eggs into a bowl and whisk, then season with salt and pepper. Pour the eggs into the frying pan, swirling it around so the whole base is covered. Cook for a couple of minutes until the eggs are just cooked through, then turn down the heat."
    },
    {
      "group": -1,
      "text": "Put half of the pad thai mixture in a line slightly to the side of the centre of the omelette. Sprinkle over half the spring onions, coriander and peanuts. Fold one side over the filling, then folder the other side. Now roll the omelette over and out of the frying pan straight on to a plate. Repeat with the other <2> eggs and the rest of the filling to make the second omelette and serve at once."
    }
  ],
  "lowEffort": false,
  "miseEnPlace": false,
  "name": "Pad thai omelette",
  "notes": null,
  "nutFree": false,
  "nutrition": null,
  "prepTime": "PT20M",
  "rating": "Neutral",
  "slug": "pad-thai-omelette",
  "source": "The Hairy Dieters: Good Eating",
  "tags": null,
  "totalTime": "PT35M",
  "units": "metric",
  "url": null,
  "vegan": false,
  "yield_": "2"
}