{
  "archiveTimestamp": null,
  "archiveUrl": null,
  "category": "Poultry",
  "cookTime": "PT20M",
  "cuisine": null,
  "dairyFree": false,
  "dateCooked": "2015-11-10",
  "deadUrl": false,
  "description": null,
  "future": false,
  "glutenFree": false,
  "image": "pan-fried-chicken-with-lime-coconut-sauce.webp",
  "inactiveTime": null,
  "ingredient_headings": {
    "1": "Lime and cocunut sauce"
  },
  "ingredients": [
    {
      "comment": "",
      "fdc_id": 2343892,
      "formatted_quantity": "1½",
      "group": -1,
      "name": "basmati rice",
      "prep": "",
      "quantity": "1.5",
      "synonym": "rice",
      "unit": "mugs"
    },
    {
      "comment": "",
      "fdc_id": "",
      "formatted_quantity": "1",
      "group": -1,
      "name": "pilau seasoning",
      "prep": "",
      "quantity": "1",
      "synonym": "",
      "unit": "tsp"
    },
    {
      "comment": "",
      "fdc_id": 2345302,
      "formatted_quantity": "2",
      "group": -1,
      "name": "freshly chopped coriander",
      "prep": "",
      "quantity": "2",
      "synonym": "coriander",
      "unit": "tbsp"
    },
    {
      "comment": "",
      "fdc_id": 2345747,
      "formatted_quantity": "1",
      "group": -1,
      "name": "toasted sesame oil",
      "prep": "",
      "quantity": "1",
      "synonym": "",
      "unit": "tbsp"
    },
    {
      "comment": "",
      "fdc_id": 2646170,
      "formatted_quantity": "3",
      "group": -1,
      "name": "chicken breasts",
      "prep": "",
      "quantity": "3",
      "synonym": "",
      "unit": ""
    },
    {
      "comment": "",
      "fdc_id": 2345747,
      "formatted_quantity": "1",
      "group": 1,
      "name": "toasted sesame oil",
      "prep": "",
      "quantity": "1",
      "synonym": "",
      "unit": "tbsp"
    },
    {
      "comment": "",
      "fdc_id": 1104647,
      "formatted_quantity": "1",
      "group": 1,
      "name": "garlic",
      "prep": "",
      "quantity": "1",
      "synonym": "",
      "unit": "clove"
    },
    {
      "comment": "",
      "fdc_id": 169231,
      "formatted_quantity": "2",
      "group": 1,
      "name": "freshly grated ginger",
      "prep": "",
      "quantity": "2",
      "synonym": "ginger",
      "unit": "tbsp"
    },
    {
      "comment": "",
      "fdc_id": "",
      "formatted_quantity": "",
      "group": 1,
      "name": "juice of a lime",
      "prep": "",
      "quantity": "",
      "synonym": "",
      "unit": ""
    },
    {
      "comment": "",
      "fdc_id": 171563,
      "formatted_quantity": "1",
      "group": 1,
      "name": "chicken stock cube",
      "prep": "",
      "quantity": "1",
      "synonym": "",
      "unit": ""
    },
    {
      "comment": "",
      "fdc_id": 2341881,
      "formatted_quantity": "2",
      "group": 1,
      "name": "fish sauce",
      "prep": "",
      "quantity": "2",
      "synonym": "",
      "unit": "tsp"
    },
    {
      "comment": "",
      "fdc_id": 746784,
      "formatted_quantity": "1",
      "group": 1,
      "name": "sugar",
      "prep": "",
      "quantity": "1",
      "synonym": "",
      "unit": "tsp"
    },
    {
      "comment": "",
      "fdc_id": 2343044,
      "formatted_quantity": "1x",
      "group": 1,
      "name": "coconut milk",
      "prep": "",
      "quantity": "1x",
      "synonym": "",
      "unit": "400 ml can"
    },
    {
      "comment": "",
      "fdc_id": 2345747,
      "formatted_quantity": "1",
      "group": -1,
      "name": "toasted sesame oil",
      "prep": "",
      "quantity": "1",
      "synonym": "",
      "unit": "tbsp"
    },
    {
      "comment": "",
      "fdc_id": 75104000,
      "formatted_quantity": "4",
      "group": -1,
      "name": "pak choi",
      "prep": "sliced",
      "quantity": "4",
      "synonym": "",
      "unit": ""
    }
  ],
  "instruction_headings": null,
  "instructions": [
    {
      "group": -1,
      "text": "Put the rice on the cook in <3> mugs of boiling water. Add the pilau seasoning and simmer for {12 minutes}. Just before you serve the rice, add the chopped coriander.  "
    },
    {
      "group": -1,
      "text": "Heat the oil in a frying pan and add the chicken breasts. Season well. Cook on a fairly high heat for {2 minutes} each side. Turn down to medium heat and cook for a further {4 minutes} each side, with a lid on the pan. If the chicken breasts are smaller, then cook for less time. Remove from the pan and set to one side until needed.  "
    },
    {
      "group": -1,
      "text": "To make the sauce, heat the toasted sesame oil in a small saucepan and gently fry the garlic and ginger. Add the rest of the sauce ingredients and simmer gently for {5-6 minutes}.  "
    },
    {
      "group": -1,
      "text": "Heat the other tablespoon of toasted sesame oil in the frying pan and stir-fry the pak choi for {1 minutes}, or until it begins to wilt slights; it needs to be quite 'al dente'."
    }
  ],
  "lowEffort": false,
  "miseEnPlace": false,
  "name": "Pan fried chicken with lime & coconut sauce",
  "notes": null,
  "nutFree": false,
  "nutrition": null,
  "prepTime": "PT10M",
  "rating": "Neutral",
  "slug": "pan-fried-chicken-with-lime-coconut-sauce",
  "source": "Nosh: Quick & Easy",
  "tags": null,
  "totalTime": "PT30M",
  "units": "metric",
  "url": null,
  "vegan": false,
  "yield_": "4"
}