{
  "archiveTimestamp": "2023-11-22 15:03:32",
  "archiveUrl": "https://web.archive.org/web/20231122150332/https://www.sainsburysmagazine.co.uk/recipes/mains/parmesan-chicken-butties-with-red-cabbage-slaw",
  "category": "Poultry",
  "cookTime": "PT10M",
  "cuisine": null,
  "dairyFree": false,
  "dateCooked": "2023-09-23",
  "deadUrl": false,
  "description": "You can easily double the quantities for the slaw; it keeps in the fridge for up to four days and is great for impromptu barbecues",
  "future": false,
  "glutenFree": false,
  "image": "parmesan-chicken-butties-with-red-cabbage-slaw.webp",
  "inactiveTime": null,
  "ingredient_headings": null,
  "ingredients": [
    {
      "comment": "(300 g)",
      "fdc_id": "",
      "formatted_quantity": "2",
      "group": -1,
      "name": "chicken breast fillets",
      "prep": "",
      "quantity": "2",
      "synonym": "chicken breast",
      "unit": ""
    },
    {
      "comment": "",
      "fdc_id": 325036,
      "formatted_quantity": "40",
      "group": -1,
      "name": "Parmesan",
      "prep": "very finely grated",
      "quantity": "40",
      "synonym": "",
      "unit": "g"
    },
    {
      "comment": "",
      "fdc_id": 1750351,
      "formatted_quantity": "1½",
      "group": -1,
      "name": "olive oil",
      "prep": "",
      "quantity": "1.5",
      "synonym": "",
      "unit": "tbsps"
    },
    {
      "comment": "",
      "fdc_id": 2344662,
      "formatted_quantity": "1",
      "group": -1,
      "name": "lemon",
      "prep": "zest and juice",
      "quantity": "1",
      "synonym": "",
      "unit": ""
    },
    {
      "comment": "",
      "fdc_id": 2345778,
      "formatted_quantity": "3",
      "group": -1,
      "name": "light mayonnaise",
      "prep": "",
      "quantity": "3",
      "synonym": "mayonnaise",
      "unit": "tbsps"
    },
    {
      "comment": "",
      "fdc_id": 2346408,
      "formatted_quantity": "150",
      "group": -1,
      "name": "red cabbage",
      "prep": "",
      "quantity": "150",
      "synonym": "",
      "unit": "g"
    },
    {
      "comment": "",
      "fdc_id": 2258586,
      "formatted_quantity": "1",
      "group": -1,
      "name": "carrot",
      "prep": "",
      "quantity": "1",
      "synonym": "",
      "unit": "large"
    },
    {
      "comment": "",
      "fdc_id": 170005,
      "formatted_quantity": "2",
      "group": -1,
      "name": "spring onions",
      "prep": "",
      "quantity": "2",
      "synonym": "",
      "unit": ""
    },
    {
      "comment": "",
      "fdc_id": 2345316,
      "formatted_quantity": "2",
      "group": -1,
      "name": "chopped parsley",
      "prep": "",
      "quantity": "2",
      "synonym": "parsley",
      "unit": "tbsps"
    },
    {
      "comment": "",
      "fdc_id": "",
      "formatted_quantity": "2",
      "group": -1,
      "name": "soft white rolls",
      "prep": "",
      "quantity": "2",
      "synonym": "rolls",
      "unit": ""
    },
    {
      "comment": "",
      "fdc_id": "",
      "formatted_quantity": "",
      "group": -1,
      "name": "of shredded Romaine lettuce",
      "prep": "",
      "quantity": "",
      "synonym": "lettuce",
      "unit": "handful"
    }
  ],
  "instruction_headings": null,
  "instructions": [
    {
      "group": -1,
      "text": "Slice each chicken breast in half, then bash out to about <5> mm thick and season on both sides. Put the grated Parmesan on a plate then press the chicken into the cheese to coat lightly, patting it on to make it stick. Add <½> tablespoon olive oil to a non-stick frying pan on a medium-high heat and fry the coated chicken for {4-5 minutes} on each side until crisp, golden and cooked through. Alternatively, brush with the oil and cook in an air fryer at <200> °C for about {10 minutes}."
    },
    {
      "group": -1,
      "text": "Stir half of the lemon zest and juice into the mayonnaise then set aside."
    },
    {
      "group": -1,
      "text": "Very finely shred the red cabbage, carrot and spring onions and toss together with seasoning, the parsley, the remaining lemon zest and juice, plus <1> tablespoon of olive oil."
    },
    {
      "group": -1,
      "text": "Split the rolls open and toast or griddle the cut sides. Spread with the zesty mayonnaise then fill with the Parmesan chicken and shredded lettuce. Serve the butties with the slaw."
    }
  ],
  "lowEffort": false,
  "miseEnPlace": false,
  "name": "Parmesan chicken butties with red cabbage slaw",
  "notes": null,
  "nutFree": false,
  "nutrition": {
    "calories": 564,
    "carbohydrates": 35,
    "fat": 24,
    "fibre": 6,
    "protein": 50,
    "salt": 1.7,
    "saturates": 6,
    "sugars": 9
  },
  "prepTime": "PT15M",
  "rating": "Neutral",
  "slug": "parmesan-chicken-butties-with-red-cabbage-slaw",
  "source": "www.sainsburysmagazine.co.uk",
  "tags": null,
  "totalTime": "PT25M",
  "units": "metric",
  "url": "https://www.sainsburysmagazine.co.uk/recipes/mains/parmesan-chicken-butties-with-red-cabbage-slaw",
  "vegan": false,
  "yield_": "2"
}