{
  "archiveTimestamp": null,
  "archiveUrl": null,
  "category": "Poultry",
  "cookTime": "PT20M",
  "cuisine": "Indian",
  "dairyFree": false,
  "dateCooked": "2024-11-03",
  "deadUrl": false,
  "description": "Adapted from a traditional Parsi recipe, our flavour-filled Persian red curry tones down the Kashmiri chilli in favour of a gentler Romano pepper heat; removing the fiery hit of chili whilst keeping the delicious intensity that the dish is renowned for. ",
  "future": false,
  "glutenFree": false,
  "image": "persian-red-curry.webp",
  "inactiveTime": null,
  "ingredient_headings": {
    "1": "Tyga spices"
  },
  "ingredients": [
    {
      "comment": "",
      "fdc_id": "790646",
      "formatted_quantity": "2",
      "group": -1,
      "name": "onions",
      "prep": "",
      "quantity": "2",
      "synonym": "",
      "unit": "medium"
    },
    {
      "comment": "vegetable, rapeseed, olive",
      "fdc_id": "",
      "formatted_quantity": "3",
      "group": -1,
      "name": "oil",
      "prep": "",
      "quantity": "3",
      "synonym": "",
      "unit": "tbsp"
    },
    {
      "comment": "",
      "fdc_id": "",
      "formatted_quantity": "1",
      "group": -1,
      "name": "salt",
      "prep": "",
      "quantity": "1",
      "synonym": "",
      "unit": "tsp"
    },
    {
      "comment": "",
      "fdc_id": "",
      "formatted_quantity": "2",
      "group": -1,
      "name": "red Romano peppers",
      "prep": "",
      "quantity": "2",
      "synonym": "romano pepper",
      "unit": ""
    },
    {
      "comment": "",
      "fdc_id": "2345841",
      "formatted_quantity": "1",
      "group": -1,
      "name": "honey",
      "prep": "",
      "quantity": "1",
      "synonym": "",
      "unit": "tbsp"
    },
    {
      "comment": "optional",
      "fdc_id": "2343044",
      "formatted_quantity": "200",
      "group": -1,
      "name": "coconut milk",
      "prep": "",
      "quantity": "200",
      "synonym": "",
      "unit": "ml"
    },
    {
      "comment": "",
      "fdc_id": "2646170",
      "formatted_quantity": "750",
      "group": -1,
      "name": "chicken breast",
      "prep": "diced",
      "quantity": "750",
      "substitute": [
        "white fish",
        "prawns"
      ],
      "synonym": "chicken",
      "unit": "g"
    },
    {
      "comment": "",
      "fdc_id": "1999634",
      "formatted_quantity": "2",
      "group": -1,
      "name": "tomatoes",
      "prep": "",
      "quantity": "2",
      "synonym": "",
      "unit": ""
    },
    {
      "comment": "",
      "fdc_id": "2343061",
      "formatted_quantity": "1",
      "group": -1,
      "name": "sesame seeds",
      "prep": "",
      "quantity": "1",
      "synonym": "",
      "unit": "tsp"
    },
    {
      "comment": "to serve",
      "fdc_id": "",
      "formatted_quantity": "",
      "group": -1,
      "name": "Roti or naan",
      "prep": "",
      "quantity": "",
      "synonym": "",
      "unit": ""
    },
    {
      "comment": "",
      "fdc_id": "",
      "formatted_quantity": "",
      "group": 1,
      "name": "Ginger & garlic paste",
      "prep": "",
      "quantity": "",
      "synonym": "",
      "unit": ""
    },
    {
      "comment": "",
      "fdc_id": "",
      "formatted_quantity": "",
      "group": 1,
      "name": "Tyga Masala No. 8",
      "prep": "",
      "quantity": "",
      "synonym": "",
      "unit": ""
    },
    {
      "comment": "",
      "fdc_id": "",
      "formatted_quantity": "",
      "group": 1,
      "name": "Tyga Masala No. 27",
      "prep": "",
      "quantity": "",
      "synonym": "",
      "unit": ""
    },
    {
      "comment": "",
      "fdc_id": "",
      "formatted_quantity": "",
      "group": 1,
      "name": "Tyga Masala No. 11",
      "prep": "",
      "quantity": "",
      "synonym": "",
      "unit": ""
    },
    {
      "comment": "",
      "fdc_id": "",
      "formatted_quantity": "",
      "group": 1,
      "name": "Curry leaf sachet",
      "prep": "",
      "quantity": "",
      "synonym": "",
      "unit": ""
    }
  ],
  "instruction_headings": {
    "1": "Prep",
    "2": "Cook"
  },
  "instructions": [
    {
      "group": 1,
      "text": "Finely dice the onions. "
    },
    {
      "group": 1,
      "text": "Dice the tomatoes. "
    },
    {
      "group": 1,
      "text": "Remove the core and chop the romano pepper then blend with the sesame seeds. "
    },
    {
      "group": 2,
      "text": "Heat oil in a frying pan over a high heat and add the onions, ginger & garlic paste, curry leaf sachet, the blended romano pepper and sesame seeds and salt. Stir continuously for {5 minutes}. "
    },
    {
      "group": 2,
      "text": "Turn down to a medium heat and add Tyga Masala No. 8 and Tyga Masala No. 27 (<1> tsp for mild, <2> tsp for medium, <3> tsp for hot) and fry for a further {3 minutes}  stirring continuously. "
    },
    {
      "group": 2,
      "text": "Add the chicken and cook for {1 minute}, stirring continuously. "
    },
    {
      "group": 2,
      "text": "Add <50> ml water and tomatoes, stir and cover for {4 minutes} stirring occasionally. "
    },
    {
      "group": 2,
      "text": "Stir in Tyga Masala No. 11 and cook for {4 minutes} or until the chicken is cooked through. "
    },
    {
      "group": 2,
      "text": "For a less intense heat, add all the coconut milk and honey and reduce down. If you like the dish hotter, add only half the milk or you can leave it out all together for a more intense kick. It's "
    },
    {
      "group": 2,
      "text": "Serve with naan bread. "
    }
  ],
  "lowEffort": false,
  "miseEnPlace": false,
  "name": "Persian red curry",
  "notes": null,
  "nutFree": false,
  "nutrition": null,
  "prepTime": "PT10M",
  "rating": "Neutral",
  "slug": "persian-red-curry",
  "source": "Tyga",
  "tags": null,
  "totalTime": "PT30M",
  "units": "metric",
  "url": null,
  "vegan": false,
  "yield_": "4"
}