{
  "archiveTimestamp": "2023-11-22 10:07:36",
  "archiveUrl": "https://web.archive.org/web/20231122100736/https://littlegrazers.com/pork-sweet-potato-meatballs/",
  "category": "Pork",
  "cookTime": "PT40M",
  "cuisine": null,
  "dairyFree": false,
  "dateCooked": "2018-07-31",
  "deadUrl": false,
  "description": null,
  "future": false,
  "glutenFree": false,
  "image": "pork-and-sweet-potato-meatballs.webp",
  "inactiveTime": null,
  "ingredient_headings": null,
  "ingredients": [
    {
      "comment": "",
      "fdc_id": "",
      "formatted_quantity": "455",
      "group": -1,
      "name": "lean ground pork",
      "prep": "",
      "quantity": "455",
      "synonym": "ground pork",
      "unit": "g"
    },
    {
      "comment": "",
      "fdc_id": 2346404,
      "formatted_quantity": "1",
      "group": -1,
      "name": "sweet potato",
      "prep": "",
      "quantity": "1",
      "synonym": "",
      "unit": "small"
    },
    {
      "comment": "",
      "fdc_id": "",
      "formatted_quantity": "½",
      "group": -1,
      "name": "red onion finely diced",
      "prep": "",
      "quantity": "0.5",
      "synonym": "",
      "unit": "small"
    },
    {
      "comment": "",
      "fdc_id": 2345302,
      "formatted_quantity": "",
      "group": -1,
      "name": "fresh coriander",
      "prep": "finely chopped",
      "quantity": "",
      "synonym": "",
      "unit": "handful"
    },
    {
      "comment": "optional",
      "fdc_id": 746775,
      "formatted_quantity": "",
      "group": -1,
      "name": "salt",
      "prep": "",
      "quantity": "",
      "synonym": "",
      "unit": "pinch"
    },
    {
      "comment": "",
      "fdc_id": 170926,
      "formatted_quantity": "¼",
      "group": -1,
      "name": "ground ginger",
      "prep": "",
      "quantity": "0.25",
      "synonym": "ginger",
      "unit": "tsp"
    },
    {
      "comment": "",
      "fdc_id": 171327,
      "formatted_quantity": "¼",
      "group": -1,
      "name": "onion powder",
      "prep": "",
      "quantity": "0.25",
      "synonym": "",
      "unit": "tsp"
    },
    {
      "comment": "",
      "fdc_id": 171325,
      "formatted_quantity": "¼",
      "group": -1,
      "name": "garlic powder",
      "prep": "",
      "quantity": "0.25",
      "synonym": "",
      "unit": "tsp"
    },
    {
      "comment": "",
      "fdc_id": 1750351,
      "formatted_quantity": "",
      "group": -1,
      "name": "olive oil",
      "prep": "",
      "quantity": "",
      "synonym": "",
      "unit": ""
    },
    {
      "comment": "",
      "fdc_id": 2342916,
      "formatted_quantity": "4",
      "group": -1,
      "name": "hoisin sauce",
      "prep": "",
      "quantity": "4",
      "synonym": "",
      "unit": "tbsp"
    },
    {
      "comment": "",
      "fdc_id": "",
      "formatted_quantity": "4",
      "group": -1,
      "name": "passata",
      "prep": "",
      "quantity": "4",
      "synonym": "",
      "unit": "tbsp"
    },
    {
      "comment": "",
      "fdc_id": 173647,
      "formatted_quantity": "2",
      "group": -1,
      "name": "water",
      "prep": "",
      "quantity": "2",
      "synonym": "",
      "unit": "tbsp"
    }
  ],
  "instruction_headings": null,
  "instructions": [
    {
      "group": -1,
      "text": "Pierce the sweet potato with a fork and add to the microwave and cook for {5 mins} (test for softness, if still a little hard, add for another minute or so, allow to cool."
    },
    {
      "group": -1,
      "text": "Preheat oven to [200°C]/gas <6>."
    },
    {
      "group": -1,
      "text": "Add the olive oil to a frying pan over a medium high heat."
    },
    {
      "group": -1,
      "text": "Add the red onion and fry till softened and caramelized."
    },
    {
      "group": -1,
      "text": "Remove and allow to cool slightly."
    },
    {
      "group": -1,
      "text": "When the sweet potato is cooled down, cut in half and scoop out all the flesh and add to the ground pork."
    },
    {
      "group": -1,
      "text": "Add the onion and all other ingredient and mix well to all combined. You want the sweet potato mashed into the pork with little small pieces."
    },
    {
      "group": -1,
      "text": "Form into equal sized meatballs and place on a baking tray lined with parchment paper."
    },
    {
      "group": -1,
      "text": "Place in the oven and bake for approx {15-20 mins} (pork should be cooked through)."
    },
    {
      "group": -1,
      "text": "Serve with your choice of sides, great with as they are or with sauce suggestions."
    },
    {
      "group": -1,
      "text": "For the sauce add the hoisin sauce, passata and water to a small saucepan and heat gently until thickened. Serve alongside the meatballs or drizzled over the top ."
    }
  ],
  "lowEffort": false,
  "miseEnPlace": false,
  "name": "Pork and sweet potato meatballs",
  "notes": null,
  "nutFree": false,
  "nutrition": null,
  "prepTime": "PT10M",
  "rating": "Neutral",
  "slug": "pork-and-sweet-potato-meatballs",
  "source": "www.littlegrazers.com",
  "tags": null,
  "totalTime": "PT50M",
  "units": "metric",
  "url": "https://littlegrazers.com/pork-sweet-potato-meatballs/",
  "vegan": false,
  "yield_": "4"
}