{
  "archiveTimestamp": null,
  "archiveUrl": null,
  "category": "Dessert",
  "cookTime": "PT50M",
  "cuisine": null,
  "dairyFree": false,
  "dateCooked": "2025-01-03",
  "deadUrl": false,
  "description": "Ras el hanout is a highly prized blend of spices that packs an earthy punch, so you wouldn’t be terribly out of line for questioning my state of mind when I first made this cake. I am pleased to report that it was a winner – and by the way, it is the rose icing that makes the cake by complementing the spiciness beautifully.",
  "future": false,
  "glutenFree": false,
  "image": "ras-el-hanout-buttermilk-sweet-loaf-cake-with-rose-icing.webp",
  "inactiveTime": null,
  "ingredient_headings": {
    "1": "Icing"
  },
  "ingredients": [
    {
      "comment": "",
      "fdc_id": "748967",
      "formatted_quantity": "3",
      "group": -1,
      "name": "eggs",
      "prep": "",
      "quantity": "3",
      "synonym": "",
      "unit": ""
    },
    {
      "comment": "",
      "fdc_id": "746784",
      "formatted_quantity": "175",
      "group": -1,
      "name": "caster sugar",
      "prep": "",
      "quantity": "175",
      "synonym": "sugar",
      "unit": "g"
    },
    {
      "comment": "",
      "fdc_id": "173471",
      "formatted_quantity": "1",
      "group": -1,
      "name": "vanilla extract",
      "prep": "",
      "quantity": "1",
      "synonym": "",
      "unit": "tsp"
    },
    {
      "comment": "",
      "fdc_id": "790018",
      "formatted_quantity": "175",
      "group": -1,
      "name": "plain flour",
      "prep": "",
      "quantity": "175",
      "synonym": "",
      "unit": "g"
    },
    {
      "comment": "",
      "fdc_id": "789828",
      "formatted_quantity": "150",
      "group": -1,
      "name": "unsalted butter",
      "prep": "melted",
      "quantity": "150",
      "synonym": "butter",
      "unit": "g"
    },
    {
      "comment": "",
      "fdc_id": "172805",
      "formatted_quantity": "1",
      "group": -1,
      "name": "baking powder",
      "prep": "",
      "quantity": "1",
      "synonym": "",
      "unit": "tsp"
    },
    {
      "comment": "",
      "fdc_id": "",
      "formatted_quantity": "1",
      "group": -1,
      "name": "ras el hanout",
      "prep": "",
      "quantity": "1",
      "synonym": "",
      "unit": "heaped tablespoon"
    },
    {
      "comment": "",
      "fdc_id": "2259792",
      "formatted_quantity": "150",
      "group": -1,
      "name": "buttermilk",
      "prep": "",
      "quantity": "150",
      "synonym": "",
      "unit": "ml"
    },
    {
      "comment": "",
      "fdc_id": "2345819",
      "formatted_quantity": "75",
      "group": 1,
      "name": "icing sugar",
      "prep": "sifted",
      "quantity": "75",
      "synonym": "",
      "unit": "g"
    },
    {
      "comment": "",
      "fdc_id": "",
      "formatted_quantity": "3",
      "group": 1,
      "name": "rosewater",
      "prep": "",
      "quantity": "3",
      "synonym": "",
      "unit": "tsp"
    },
    {
      "comment": "(optional), to decorate",
      "fdc_id": "",
      "formatted_quantity": "few",
      "group": 1,
      "name": "dried edible rose petals",
      "prep": "",
      "quantity": "few",
      "synonym": "",
      "unit": ""
    }
  ],
  "instruction_headings": null,
  "instructions": [
    {
      "group": -1,
      "text": "Preheat the oven to [180°C] ([160°C] fan). Line a <900> g loaf tin with baking paper."
    },
    {
      "group": -1,
      "text": "Put the eggs and sugar into a large mixing bowl and beat together until smooth. Then beat in the vanilla extract, plain flour, melted butter, baking powder and ras el hanout and mix until smooth. Lastly, add the buttermilk and incorporate well."
    },
    {
      "group": -1,
      "text": "Pour the mixture into the prepared loaf tin and bake for {50-55 minutes} ({20-25 minutes} for mini loaves), or until cooked through and a skewer or knife inserted into the centre of the cake comes out clean. Leave to cool in the tin."
    },
    {
      "group": -1,
      "text": "To make the icing, mix the icing sugar and rosewater together in a small bowl until smooth. Once the cake has cooled, smooth the icing over the top. Sprinkle over the dried rose petals, if desired."
    }
  ],
  "lowEffort": false,
  "miseEnPlace": false,
  "name": "Ras el hanout & buttermilk sweet loaf cake with rose icing",
  "notes": "Go easy on the rose water. Use 1 tsp of rose water and the rest lemon juice makes a nice combination. Needs more than 3 tsp of liquid for that amount of icing sugar.",
  "nutFree": false,
  "nutrition": null,
  "prepTime": "PT10M",
  "rating": "Neutral",
  "slug": "ras-el-hanout-buttermilk-sweet-loaf-cake-with-rose-icing",
  "source": "Bazaar",
  "tags": [
    "cake"
  ],
  "totalTime": "PT1H",
  "units": "metric",
  "url": null,
  "vegan": false,
  "yield_": "8"
}