{
  "archiveTimestamp": "2023-11-22 10:22:16",
  "archiveUrl": "https://web.archive.org/web/20231122102216/https://cooking.nytimes.com/recipes/1020926-roasted-tomato-and-white-bean-stew",
  "category": "Veggie",
  "cookTime": "PT35M",
  "cuisine": "American",
  "dairyFree": false,
  "dateCooked": "2020-04-27",
  "deadUrl": false,
  "description": "This hearty, flexible stew comes together with pantry ingredients and delivers layers of flavors. Cherry tomatoes, roasted in a generous glug of olive oil to amplify their sweetness, lend a welcome brightness to this otherwise rich dish. Onion, garlic and red-pepper flakes form the backbone of this dish, to which white beans and broth are added, then simmered until thick. While this stew is lovely on its own, you could also add wilt-able greens such as kale, escarole or Swiss chard at the end, and toasted bread crumbs on top. The dish is vegan as written, but should you choose to top your bowl with a showering of grated pecorino or Parmesan, it would most likely work well in your favor.",
  "future": false,
  "glutenFree": false,
  "image": "roasted-tomato-and-white-bean-stew.webp",
  "inactiveTime": null,
  "ingredient_headings": null,
  "ingredients": [
    {
      "comment": "",
      "fdc_id": "",
      "formatted_quantity": "½",
      "group": -1,
      "name": "Italian parsley leaves and tender stems",
      "prep": "roughly chopped",
      "quantity": "0.5",
      "synonym": "parsley",
      "unit": "cup"
    },
    {
      "comment": "from 1 large lemon",
      "fdc_id": "",
      "formatted_quantity": "2",
      "group": -1,
      "name": "lemon zest",
      "prep": "",
      "quantity": "2",
      "synonym": "",
      "unit": "tsp"
    },
    {
      "comment": "",
      "fdc_id": "",
      "formatted_quantity": "500",
      "group": -1,
      "name": "cherry or grape tomatoes",
      "prep": "",
      "quantity": "500",
      "synonym": "tomatoes",
      "unit": "g"
    },
    {
      "comment": "plus 2 tablespoons and more for drizzling (optional)",
      "fdc_id": "1750351",
      "formatted_quantity": "¼",
      "group": -1,
      "name": "olive oil",
      "prep": "",
      "quantity": "0.25",
      "synonym": "oil",
      "unit": "cup"
    },
    {
      "comment": "",
      "fdc_id": "173470",
      "formatted_quantity": "1",
      "group": -1,
      "name": "fresh thyme leaves",
      "prep": "",
      "quantity": "1",
      "synonym": "thyme",
      "unit": "tbsp"
    },
    {
      "comment": "",
      "fdc_id": "",
      "formatted_quantity": "",
      "group": -1,
      "name": "Kosher salt and black pepper",
      "prep": "",
      "quantity": "",
      "synonym": "",
      "unit": ""
    },
    {
      "comment": "",
      "fdc_id": "790646",
      "formatted_quantity": "1",
      "group": -1,
      "name": "yellow onion",
      "prep": "thinly sliced",
      "quantity": "1",
      "synonym": "onion",
      "unit": "medium"
    },
    {
      "comment": "",
      "fdc_id": "1104647",
      "formatted_quantity": "3",
      "group": -1,
      "name": "garlic",
      "prep": "thinly sliced",
      "quantity": "3",
      "synonym": "",
      "unit": "large cloves"
    },
    {
      "comment": "",
      "fdc_id": "",
      "formatted_quantity": "½",
      "group": -1,
      "name": "red-pepper flakes",
      "prep": "",
      "quantity": "0.5",
      "synonym": "",
      "unit": "tsp"
    },
    {
      "comment": "",
      "fdc_id": "",
      "formatted_quantity": "2x",
      "group": -1,
      "name": "white beans (such as butter or cannellini)",
      "prep": "rinsed",
      "quantity": "2x",
      "synonym": "beans",
      "unit": "400 g cans"
    },
    {
      "comment": "or water",
      "fdc_id": "",
      "formatted_quantity": "350",
      "group": -1,
      "name": "vegetable or chicken broth",
      "prep": "",
      "quantity": "350",
      "synonym": "broth",
      "unit": "ml"
    },
    {
      "comment": "for serving (optional)",
      "fdc_id": "",
      "formatted_quantity": "",
      "group": -1,
      "name": "Flaky salt",
      "prep": "",
      "quantity": "",
      "synonym": "salt",
      "unit": ""
    },
    {
      "comment": "for serving",
      "fdc_id": "",
      "formatted_quantity": "",
      "group": -1,
      "name": "Toasted bread",
      "prep": "",
      "quantity": "",
      "synonym": "",
      "unit": ""
    }
  ],
  "instruction_headings": null,
  "instructions": [
    {
      "group": -1,
      "text": "Heat the oven to [220°C]. In a small bowl, gently toss together the parsley and lemon zest with your hands until well combined; set aside."
    },
    {
      "group": -1,
      "text": "In a large baking dish or on a sheet pan, toss the tomatoes with <¼> cup oil and thyme; season well with salt and pepper. Roast tomatoes until they have collapsed and begin to turn golden around the edges, <20> to {25 minutes}."
    },
    {
      "group": -1,
      "text": "When the tomatoes are almost done roasting, heat <2> tablespoons oil in a large (<12>-inch), deep skillet or Dutch oven over medium. Add the onion, garlic and red-pepper flakes and cook until the onion is softened and the garlic is fragrant, <4> to {5 minutes}. Stir in the rinsed beans and broth and bring to a simmer. With the back of a spoon or spatula, gently smash about  <½>  cup of the beans so they slightly thicken the broth. If you want a thicker stew, crush some more of the beans. Season with salt and pepper."
    },
    {
      "group": -1,
      "text": "When the tomatoes are finished roasting, add them directly to the stew along with any juices that have been released. Simmer for <5> to {10 minutes} more so the flavors become friendly; season to taste with salt."
    },
    {
      "group": -1,
      "text": "Ladle into shallow bowls. Top each serving with some of the lemon-parsley mixture and drizzle with some more olive oil, and season with flaky salt, if you like. Serve with toasted bread."
    }
  ],
  "lowEffort": false,
  "miseEnPlace": false,
  "name": "Roasted tomato and white bean stew",
  "notes": null,
  "nutFree": false,
  "nutrition": null,
  "prepTime": "PT10M",
  "rating": "Neutral",
  "slug": "roasted-tomato-and-white-bean-stew",
  "source": "cooking.nytimes.com",
  "tags": null,
  "totalTime": "PT45M",
  "units": "metric",
  "url": "https://cooking.nytimes.com/recipes/1020926-roasted-tomato-and-white-bean-stew",
  "vegan": true,
  "yield_": "4"
}