{
  "archiveTimestamp": "2023-11-22 13:34:44",
  "archiveUrl": "https://web.archive.org/web/20231122133444/https://cooking.nytimes.com/recipes/1022437-saffron-salmon-kababs",
  "category": "Seafood",
  "cookTime": "PT10M",
  "cuisine": null,
  "dairyFree": false,
  "dateCooked": "2022-09-04",
  "deadUrl": false,
  "description": "Buttery, saffron-stained and gently spiced, these Iranian kababs come together in no time and make for a beautiful, flavorful meal. The warming spice mix of oregano, coriander, black pepper and turmeric balances and lifts the sweet notes from the saffron and salmon. To keep the fish in place when turning the kababs on the grill, use ½-inch-wide flat skewers or two thin, round skewers. You can entertain with these skewers or enjoy them on a quiet weeknight, along with dill rice and a side of fresh herbs, or cucumber, tomato and onion salad.",
  "future": false,
  "glutenFree": false,
  "image": "saffron-salmon-kababs.webp",
  "inactiveTime": "PT30M",
  "ingredient_headings": null,
  "ingredients": [
    {
      "comment": "about 0.35 grams",
      "fdc_id": "170934",
      "formatted_quantity": "1½",
      "group": -1,
      "name": "saffron threads",
      "prep": "",
      "quantity": "1.5",
      "synonym": "saffron",
      "unit": "teaspoons"
    },
    {
      "comment": "",
      "fdc_id": "746784",
      "formatted_quantity": "",
      "group": -1,
      "name": "of granulated sugar",
      "prep": "",
      "quantity": "",
      "synonym": "sugar",
      "unit": "pinch"
    },
    {
      "comment": "plus lime wedges for serving",
      "fdc_id": "2344678",
      "formatted_quantity": "3",
      "group": -1,
      "name": "fresh lime juice",
      "prep": "",
      "quantity": "3",
      "synonym": "lime juice",
      "unit": "tablespoons"
    },
    {
      "comment": "",
      "fdc_id": "748608",
      "formatted_quantity": "2",
      "group": -1,
      "name": "extra-virgin olive oil",
      "prep": "",
      "quantity": "2",
      "synonym": "olive oil",
      "unit": "tablespoons"
    },
    {
      "comment": "",
      "fdc_id": "1104647",
      "formatted_quantity": "2",
      "group": -1,
      "name": "garlic",
      "prep": "finely grated",
      "quantity": "2",
      "synonym": "",
      "unit": "large cloves"
    },
    {
      "comment": "",
      "fdc_id": "2571981",
      "formatted_quantity": "1¼",
      "group": -1,
      "name": "kosher salt (Diamond Crystal)",
      "prep": "",
      "quantity": "1.25",
      "synonym": "salt",
      "unit": "teaspoons"
    },
    {
      "comment": "",
      "fdc_id": "171328",
      "formatted_quantity": "½",
      "group": -1,
      "name": "dried oregano",
      "prep": "crushed between your fingers",
      "quantity": "0.5",
      "synonym": "oregano",
      "unit": "teaspoon"
    },
    {
      "comment": "",
      "fdc_id": "170921",
      "formatted_quantity": "½",
      "group": -1,
      "name": "ground coriander",
      "prep": "",
      "quantity": "0.5",
      "synonym": "coriander",
      "unit": "teaspoon"
    },
    {
      "comment": "",
      "fdc_id": "170931",
      "formatted_quantity": "½",
      "group": -1,
      "name": "black pepper",
      "prep": "",
      "quantity": "0.5",
      "synonym": "pepper",
      "unit": "teaspoon"
    },
    {
      "comment": "",
      "fdc_id": "172231",
      "formatted_quantity": "¼",
      "group": -1,
      "name": "ground turmeric",
      "prep": "",
      "quantity": "0.25",
      "synonym": "turmeric",
      "unit": "teaspoon"
    },
    {
      "comment": "",
      "fdc_id": "",
      "formatted_quantity": "1½",
      "group": -1,
      "name": "skinless salmon (preferably center-cut)",
      "prep": "cut into 1 inch pieces",
      "quantity": "1.5",
      "synonym": "salmon",
      "unit": "pounds"
    },
    {
      "comment": "",
      "fdc_id": "",
      "formatted_quantity": "",
      "group": -1,
      "name": "Fresh herbs, such as mint, cilantro and basil, for serving",
      "prep": "",
      "quantity": "",
      "synonym": "",
      "unit": ""
    }
  ],
  "instruction_headings": null,
  "instructions": [
    {
      "group": -1,
      "text": "Using a mortar and pestle or small bowl and the handle end of a wooden spoon, grind the saffron with a pinch of sugar to a fine powder (about <¼> teaspoon). Transfer to a large bowl. Bring <2> tablespoons water to a boil in a saucepan, kettle or using the microwave, then let stand for {2 minutes} to allow the water temperature to drop slightly. Add to the ground saffron powder, gently stir, cover and steep for {5 minutes}."
    },
    {
      "group": -1,
      "text": "To the saffron water, add the lime juice, olive oil, garlic, salt, oregano, coriander, pepper and turmeric. Stir to mix, add the salmon pieces and combine until the salmon is well coated. Cover and marinate in the refrigerator for {30 minutes}."
    },
    {
      "group": -1,
      "text": "As the salmon marinates, prepare a charcoal grill until the coals are ashed over and slightly cooled to medium-hot and or heat a gas grill to medium-high. Skewer the salmon and save any remaining marinade. Grill the skewers, brushing with the remaining marinade and turning every couple of minutes, until tender and buttery, about {10 minutes} total. Serve with lime wedges for squeezing over the fish. Enjoy, with bites of fresh herbs between bites of salmon."
    }
  ],
  "lowEffort": false,
  "miseEnPlace": false,
  "name": "Saffron salmon kababs",
  "notes": null,
  "nutFree": false,
  "nutrition": null,
  "prepTime": "PT10M",
  "rating": "Neutral",
  "slug": "saffron-salmon-kababs",
  "source": "cooking.nytimes.com",
  "tags": null,
  "totalTime": "PT20M",
  "units": "imperial",
  "url": "https://cooking.nytimes.com/recipes/1022437-saffron-salmon-kababs",
  "vegan": false,
  "yield_": "4"
}