{
  "archiveTimestamp": "2023-11-22 10:59:50",
  "archiveUrl": "https://web.archive.org/web/20231122105950/https://glutenfreecuppatea.co.uk/2019/01/12/gluten-free-school-dinner-sponge-cake-recipe-dairy-free/",
  "category": "Dessert",
  "cookTime": "PT60M",
  "cuisine": null,
  "dairyFree": true,
  "dateCooked": "2019-07-28",
  "deadUrl": false,
  "description": "My gluten free school dinner sponge cake recipe is perfect with a little custard and guaranteed to take you back to your school days! It's dairy free too.",
  "future": false,
  "glutenFree": true,
  "image": "school-dinner-sponge-cake.webp",
  "inactiveTime": "PT30M",
  "ingredient_headings": {
    "1": "For the sponge cake",
    "2": "For the icing"
  },
  "ingredients": [
    {
      "comment": "",
      "fdc_id": "",
      "formatted_quantity": "400",
      "group": 1,
      "name": "gluten free self raising flour",
      "prep": "",
      "quantity": "400",
      "synonym": "self raising flour",
      "unit": "g"
    },
    {
      "comment": "",
      "fdc_id": "",
      "formatted_quantity": "¼",
      "group": 1,
      "name": "xanthan gum",
      "prep": "",
      "quantity": "0.25",
      "synonym": "",
      "unit": "tsp"
    },
    {
      "comment": "",
      "fdc_id": "",
      "formatted_quantity": "400",
      "group": 1,
      "name": "dairy free spread (butter at room temperature works if you don't need to be dairy free)",
      "prep": "",
      "quantity": "400",
      "synonym": "spread",
      "unit": "g"
    },
    {
      "comment": "",
      "fdc_id": "2675517",
      "formatted_quantity": "350",
      "group": 1,
      "name": "caster sugar",
      "prep": "",
      "quantity": "350",
      "synonym": "",
      "unit": "g"
    },
    {
      "comment": "",
      "fdc_id": "173471",
      "formatted_quantity": "2",
      "group": 1,
      "name": "vanilla extract",
      "prep": "",
      "quantity": "2",
      "synonym": "",
      "unit": "tsp"
    },
    {
      "comment": "",
      "fdc_id": "748967",
      "formatted_quantity": "6",
      "group": 1,
      "name": "eggs",
      "prep": "",
      "quantity": "6",
      "synonym": "",
      "unit": ""
    },
    {
      "comment": "",
      "fdc_id": "2345819",
      "formatted_quantity": "400",
      "group": 2,
      "name": "icing sugar",
      "prep": "",
      "quantity": "400",
      "synonym": "",
      "unit": "g"
    },
    {
      "comment": "",
      "fdc_id": "173471",
      "formatted_quantity": "1",
      "group": 2,
      "name": "vanilla extract",
      "prep": "",
      "quantity": "1",
      "synonym": "",
      "unit": "tsp"
    },
    {
      "comment": "",
      "fdc_id": "",
      "formatted_quantity": "",
      "group": 2,
      "name": "a few tbsp water",
      "prep": "",
      "quantity": "",
      "synonym": "",
      "unit": ""
    },
    {
      "comment": "",
      "fdc_id": "",
      "formatted_quantity": "",
      "group": 2,
      "name": "colour strands decorations",
      "prep": "",
      "quantity": "",
      "synonym": "",
      "unit": ""
    }
  ],
  "instruction_headings": null,
  "instructions": [
    {
      "group": -1,
      "text": "Preheat your oven to [160°C] fan. Prepare a rectangular baking tin - mine is approx <32> cm x <21.5> cm. I grease the tin and then use baking paper - the baking paper should go over the edges so you can lift out the cake once it's cooled."
    },
    {
      "group": -1,
      "text": "In a large mixing bowl, cream together your caster sugar and your dairy free spread (or butter). Cream until lighter and fluffy. I use an electric hand whisk."
    },
    {
      "group": -1,
      "text": "Gradually add your eggs and vanilla extract and whisk until combined."
    },
    {
      "group": -1,
      "text": "Fold in the gluten free self raising flour and xanthan gum to the mixture (this is a big mixture so make sure you carefully fold all the flour in properly)"
    },
    {
      "group": -1,
      "text": "Spoon/pour your mixture evenly into the baking tin. Place in the oven for about {60 minutes} until fully cooked and golden."
    },
    {
      "group": -1,
      "text": "Leave to cool in the tin and then lift out, using the baking paper and place on a cooling rack."
    },
    {
      "group": -1,
      "text": "Whilst the cake is cooling you can make your icing. Sieve your icing sugar into a large mixing bowl. Add your vanilla extract and very gradually add a tbsp of water at a time and mix in until it becomes the right consistency. It should be quite thick and glossy, don't let it go too runny. If you do sieve in a little more icing sugar."
    },
    {
      "group": -1,
      "text": "Once you are happy with the consistency of your icing spoon it over your sponge. Allow it to evenly cover the top and go all the way to the edges."
    },
    {
      "group": -1,
      "text": "Sprinkle your coloured strands all over the top of the icing - as many as you like. I use a lot!! Now allow your icing to completely set before you cut into slices. I leave mine about <30> - {60 minutes}."
    },
    {
      "group": -1,
      "text": "Cut a thin strip off each side, then cut the sponge into squares."
    }
  ],
  "lowEffort": false,
  "miseEnPlace": false,
  "name": "School dinner sponge cake",
  "notes": null,
  "nutFree": false,
  "nutrition": {
    "calories": 295,
    "carbohydrates": 52,
    "fat": 8.6,
    "fibre": 1,
    "protein": 3.5,
    "salt": 0.16,
    "saturates": 2.5,
    "sugars": 37
  },
  "prepTime": "PT15M",
  "rating": "Neutral",
  "slug": "school-dinner-sponge-cake",
  "source": "glutenfreecuppatea.co.uk",
  "tags": [
    "cake"
  ],
  "totalTime": "PT75M",
  "units": "metric",
  "url": "https://glutenfreecuppatea.co.uk/2019/01/12/gluten-free-school-dinner-sponge-cake-recipe-dairy-free/",
  "vegan": false,
  "yield_": "20"
}