{
  "archiveTimestamp": "2023-11-22 14:07:42",
  "archiveUrl": "https://web.archive.org/web/20231122140742/https://www.themediterraneandish.com/sausage-peppers-recipe/",
  "category": "Poultry",
  "cookTime": "PT8M",
  "cuisine": "Italian",
  "dairyFree": false,
  "dateCooked": "2023-02-12",
  "deadUrl": false,
  "description": "It takes less than 20 minutes to make this simple, lightened up sausage and peppers recipe! Chicken sausage, colourful peppers, onions, and juicy grape tomatoes with extra virgin olive oil, fresh thyme and oregano, all on one sheet pan. A family favourite that's perfect for busy weeknights. It's also gluten-free and Mediterranean diet- and keto-friendly!",
  "future": false,
  "glutenFree": false,
  "image": "sheet-pan-sausage-peppers-and-onions.webp",
  "inactiveTime": null,
  "ingredient_headings": null,
  "ingredients": [
    {
      "comment": "mild or spicy",
      "fdc_id": "",
      "formatted_quantity": "1",
      "group": -1,
      "name": "fully cooked chicken sausage links",
      "prep": "",
      "quantity": "1",
      "synonym": "sausage links",
      "unit": "lb"
    },
    {
      "comment": "",
      "fdc_id": "2258590",
      "formatted_quantity": "1",
      "group": -1,
      "name": "red bell pepper",
      "prep": "cored and cut into thin strip",
      "quantity": "1",
      "synonym": "",
      "unit": "large"
    },
    {
      "comment": "",
      "fdc_id": "2258588",
      "formatted_quantity": "1",
      "group": -1,
      "name": "green pepper",
      "prep": "cored and cut into thin strip",
      "quantity": "1",
      "synonym": "",
      "unit": "large"
    },
    {
      "comment": "",
      "fdc_id": "790577",
      "formatted_quantity": "1",
      "group": -1,
      "name": "red onion",
      "prep": "halved then sliced",
      "quantity": "1",
      "synonym": "onions",
      "unit": ""
    },
    {
      "comment": "",
      "fdc_id": "2378728",
      "formatted_quantity": "1",
      "group": -1,
      "name": "grape or cherry tomatoes",
      "prep": "",
      "quantity": "1",
      "synonym": "tomatoes",
      "unit": "lb"
    },
    {
      "comment": "",
      "fdc_id": "1104647",
      "formatted_quantity": "3",
      "group": -1,
      "name": "garlic",
      "prep": "peeled and minced",
      "quantity": "3",
      "synonym": "",
      "unit": "cloves"
    },
    {
      "comment": "",
      "fdc_id": "173470",
      "formatted_quantity": "",
      "group": -1,
      "name": "fresh thyme",
      "prep": "",
      "quantity": "",
      "synonym": "",
      "unit": "few sprigs"
    },
    {
      "comment": "",
      "fdc_id": "171328",
      "formatted_quantity": "1",
      "group": -1,
      "name": "dried oregano",
      "prep": "",
      "quantity": "1",
      "synonym": "oregano",
      "unit": "tbsp"
    },
    {
      "comment": "",
      "fdc_id": "171329",
      "formatted_quantity": "½",
      "group": -1,
      "name": "sweet paprika",
      "prep": "",
      "quantity": "0.5",
      "synonym": "paprika",
      "unit": "tsp"
    },
    {
      "comment": "",
      "fdc_id": "2571981",
      "formatted_quantity": "",
      "group": -1,
      "name": "Kosher salt",
      "prep": "",
      "quantity": "",
      "synonym": "",
      "unit": ""
    },
    {
      "comment": "",
      "fdc_id": "170931",
      "formatted_quantity": "",
      "group": -1,
      "name": "Black Pepper",
      "prep": "",
      "quantity": "",
      "synonym": "",
      "unit": ""
    },
    {
      "comment": "",
      "fdc_id": "748608",
      "formatted_quantity": "",
      "group": -1,
      "name": "Extra virgin olive oil",
      "prep": "",
      "quantity": "",
      "synonym": "",
      "unit": ""
    }
  ],
  "instruction_headings": null,
  "instructions": [
    {
      "group": -1,
      "text": "Set your oven to the broil function and arrange a rack about <6> inches or so from the heat source."
    },
    {
      "group": -1,
      "text": "Score the sausage links in several places but do not cut all the way through."
    },
    {
      "group": -1,
      "text": "Place the bell peppers, onions, and tomatoes in a mixing bowl. Add garlic, fresh thyme, oregano, paprika, a large pinch of kosher salt and black pepper. Drizzle some extra virgin olive oil (a generous drizzle of <3-4> tbsp or enough to coat the veggies well), and toss to make sure the vegetables are well-coated."
    },
    {
      "group": -1,
      "text": "Arrange the vegetables in one layer on a large baking sheet. Add the sausage, nestling the sausage links between the spread veggies."
    },
    {
      "group": -1,
      "text": "Slide the baking sheet under the broiler for {8-10 minutes} (watching carefully) until the veggies have softened and the sausage is looking nicely charred."
    }
  ],
  "lowEffort": false,
  "miseEnPlace": false,
  "name": "Sheet pan sausage, peppers and onions",
  "notes": null,
  "nutFree": false,
  "nutrition": {
    "calories": 248.2,
    "carbohydrates": 11.5,
    "fat": 18,
    "fibre": 2.4,
    "protein": 13,
    "salt": 0.78,
    "saturates": 3.3,
    "sugars": 5
  },
  "prepTime": "PT10M",
  "rating": "Neutral",
  "slug": "sheet-pan-sausage-peppers-and-onions",
  "source": "www.themediterraneandish.com",
  "tags": null,
  "totalTime": "PT18M",
  "units": "imperial",
  "url": "https://www.themediterraneandish.com/sausage-peppers-recipe/",
  "vegan": false,
  "yield_": "6"
}