{
  "archiveTimestamp": "2023-11-22 11:10:19",
  "archiveUrl": "https://web.archive.org/web/20231122111019/https://www.sainsburysmagazine.co.uk/recipes/mains/slow-cooked-beef-ragout",
  "category": "RedMeat",
  "cookTime": "PT3H30M",
  "cuisine": "French",
  "dairyFree": false,
  "dateCooked": "2020-08-23",
  "deadUrl": false,
  "description": "Not to be confused with the Italian ragu, which is a meat-based pasta sauce, this hearty, slow-cooked French-style stew is great for freezer-friendly batch cooking",
  "future": false,
  "glutenFree": false,
  "image": "slow-cooked-beef-ragout.webp",
  "inactiveTime": null,
  "ingredient_headings": null,
  "ingredients": [
    {
      "comment": "or 4x 450 g packs diced beef",
      "fdc_id": "",
      "formatted_quantity": "1⅘",
      "group": -1,
      "name": "(trimmed weight) beef braising steak",
      "prep": "chopped into 3-4 cm chunks",
      "quantity": "1.8",
      "synonym": "beef",
      "unit": "kg"
    },
    {
      "comment": "",
      "fdc_id": "1750351",
      "formatted_quantity": "3",
      "group": -1,
      "name": "olive oil",
      "prep": "",
      "quantity": "3",
      "synonym": "oil",
      "unit": "tbsp"
    },
    {
      "comment": "or 180g smoked cubetti di pancetta",
      "fdc_id": "",
      "formatted_quantity": "1x",
      "group": -1,
      "name": "cubetti di pancetta",
      "prep": "",
      "quantity": "1x",
      "synonym": "pancetta",
      "unit": "206 g pack"
    },
    {
      "comment": "",
      "fdc_id": "790646",
      "formatted_quantity": "2",
      "group": -1,
      "name": "onions",
      "prep": "diced",
      "quantity": "2",
      "synonym": "",
      "unit": "large"
    },
    {
      "comment": "",
      "fdc_id": "2258586",
      "formatted_quantity": "2",
      "group": -1,
      "name": "carrots",
      "prep": "peeled and finely diced",
      "quantity": "2",
      "synonym": "",
      "unit": "large"
    },
    {
      "comment": "",
      "fdc_id": "2346405",
      "formatted_quantity": "2",
      "group": -1,
      "name": "celery",
      "prep": "finely diced",
      "quantity": "2",
      "synonym": "",
      "unit": "large sticks"
    },
    {
      "comment": "",
      "fdc_id": "1104647",
      "formatted_quantity": "5",
      "group": -1,
      "name": "garlic",
      "prep": "crushed",
      "quantity": "5",
      "synonym": "",
      "unit": "cloves"
    },
    {
      "comment": "",
      "fdc_id": "170460",
      "formatted_quantity": "3",
      "group": -1,
      "name": "tomato puree",
      "prep": "",
      "quantity": "3",
      "synonym": "",
      "unit": "tbsp"
    },
    {
      "comment": "",
      "fdc_id": "170917",
      "formatted_quantity": "2",
      "group": -1,
      "name": "bay leaves",
      "prep": "",
      "quantity": "2",
      "synonym": "",
      "unit": ""
    },
    {
      "comment": "",
      "fdc_id": "173190",
      "formatted_quantity": "200",
      "group": -1,
      "name": "red wine",
      "prep": "",
      "quantity": "200",
      "synonym": "",
      "unit": "ml"
    },
    {
      "comment": "",
      "fdc_id": "333281",
      "formatted_quantity": "2x",
      "group": -1,
      "name": "chopped tomatoes",
      "prep": "",
      "quantity": "2x",
      "synonym": "tomatoes",
      "unit": "400 g tins"
    },
    {
      "comment": "",
      "fdc_id": "",
      "formatted_quantity": "600",
      "group": -1,
      "name": "fresh beef stock",
      "prep": "",
      "quantity": "600",
      "synonym": "stock",
      "unit": "ml"
    }
  ],
  "instruction_headings": null,
  "instructions": [
    {
      "group": -1,
      "text": "Preheat the oven to [140°C]/gas <3>. Season the beef. Add <1> tablespoon of the oil to a large frying pan; brown the beef in batches over a medium-high heat. Using a draining spoon, transfer to a large casserole with a lid, leaving any oil in the pan. Continue to brown the remaining beef, adding a splash of oil to the pan between each batch, and transferring the beef to the casserole when done."
    },
    {
      "group": -1,
      "text": "Add the pancetta to the frying pan and fry until the fat has rendered out, then add to the beef using a draining spoon. Add the onions, carrots and celery to the oil in the frying pan, stir, and cook over a low heat for {10-15 minutes} until softened."
    },
    {
      "group": -1,
      "text": "Increase the heat, add the garlic; cook for {2 minutes}, then add the tomato puree and bay leaves and cook for {1 minute} more. Add the wine; bubble to reduce by half."
    },
    {
      "group": -1,
      "text": "Tip the vegetables into the casserole and add the tomatoes, stock and <150> ml water. Season, stir, and bring to a simmer then cover with a lid; transfer to the middle of the oven. Cook for <3> to {3½ hours}, or until the meat is tender and the sauce slightly reduced."
    },
    {
      "group": -1,
      "text": "Break up the meat with a couple of forks and stir into the sauce. Portion up as required."
    }
  ],
  "lowEffort": false,
  "miseEnPlace": false,
  "name": "Slow-cooked beef ragout ",
  "notes": null,
  "nutFree": false,
  "nutrition": {
    "calories": 352,
    "carbohydrates": 7,
    "fat": 17,
    "fibre": 2,
    "protein": 38,
    "salt": 1.2,
    "saturates": 6,
    "sugars": 7
  },
  "prepTime": "PT0H30M",
  "rating": "Neutral",
  "slug": "slow-cooked-beef-ragout",
  "source": "www.sainsburysmagazine.co.uk",
  "tags": [
    "beef"
  ],
  "totalTime": "PT4H",
  "units": "metric",
  "url": "https://www.sainsburysmagazine.co.uk/recipes/mains/slow-cooked-beef-ragout",
  "vegan": false,
  "yield_": "12"
}