{
  "archiveTimestamp": "2023-11-22 11:11:08",
  "archiveUrl": "https://web.archive.org/web/20231122111108/https://www.sainsburysmagazine.co.uk/recipes/mains/slow-cooked-pork-and-fennel-ragu",
  "category": "Pork",
  "cookTime": "PT3H30M",
  "cuisine": null,
  "dairyFree": true,
  "dateCooked": "2021-05-30",
  "deadUrl": false,
  "description": "This slow-cooked stew is delicious with pan-fried gnocchi, layered up in a lasagne or ladled over pappardelle with lots of Parmesan",
  "future": false,
  "glutenFree": true,
  "image": "slow-cooked-pork-and-fennel-ragu.webp",
  "inactiveTime": null,
  "ingredient_headings": null,
  "ingredients": [
    {
      "comment": "about 1.25 kg",
      "fdc_id": "",
      "formatted_quantity": "1",
      "group": -1,
      "name": "boneless pork shoulder joint",
      "prep": "",
      "quantity": "1",
      "synonym": "pork",
      "unit": ""
    },
    {
      "comment": "",
      "fdc_id": 1750351,
      "formatted_quantity": "2",
      "group": -1,
      "name": "olive oil",
      "prep": "",
      "quantity": "2",
      "synonym": "",
      "unit": "tbsp"
    },
    {
      "comment": "",
      "fdc_id": 790646,
      "formatted_quantity": "1",
      "group": -1,
      "name": "onion",
      "prep": "diced",
      "quantity": "1",
      "synonym": "",
      "unit": "large"
    },
    {
      "comment": "",
      "fdc_id": 2346405,
      "formatted_quantity": "2",
      "group": -1,
      "name": "celery",
      "prep": "diced",
      "quantity": "2",
      "synonym": "",
      "unit": "sticks"
    },
    {
      "comment": "",
      "fdc_id": 2258586,
      "formatted_quantity": "2",
      "group": -1,
      "name": "carrots",
      "prep": "diced",
      "quantity": "2",
      "synonym": "",
      "unit": ""
    },
    {
      "comment": "",
      "fdc_id": 2345430,
      "formatted_quantity": "1",
      "group": -1,
      "name": "fennel",
      "prep": "diced",
      "quantity": "1",
      "synonym": "fennel",
      "unit": "bulb"
    },
    {
      "comment": "",
      "fdc_id": 1104647,
      "formatted_quantity": "3",
      "group": -1,
      "name": "garlic",
      "prep": "crushed",
      "quantity": "3",
      "synonym": "",
      "unit": "cloves"
    },
    {
      "comment": "",
      "fdc_id": 171323,
      "formatted_quantity": "1½",
      "group": -1,
      "name": "fennel seeds",
      "prep": "",
      "quantity": "1.5",
      "synonym": "",
      "unit": "tbsp"
    },
    {
      "comment": "",
      "fdc_id": 170917,
      "formatted_quantity": "3",
      "group": -1,
      "name": "bay leaves",
      "prep": "",
      "quantity": "3",
      "synonym": "",
      "unit": ""
    },
    {
      "comment": "",
      "fdc_id": 173470,
      "formatted_quantity": "4",
      "group": -1,
      "name": "thyme",
      "prep": "",
      "quantity": "4",
      "synonym": "",
      "unit": "sprigs"
    },
    {
      "comment": "",
      "fdc_id": 2346264,
      "formatted_quantity": "350",
      "group": -1,
      "name": "white wine",
      "prep": "",
      "quantity": "350",
      "synonym": "wine",
      "unit": "ml"
    },
    {
      "comment": "",
      "fdc_id": "",
      "formatted_quantity": "400",
      "group": -1,
      "name": "chicken stock (use &frac12; stock pot or cube) - use gluten free if required",
      "prep": "",
      "quantity": "400",
      "synonym": "stock",
      "unit": "ml"
    },
    {
      "comment": "",
      "fdc_id": 333281,
      "formatted_quantity": "1x",
      "group": -1,
      "name": "chopped tomatoes",
      "prep": "",
      "quantity": "1x",
      "synonym": "",
      "unit": "400 g tin"
    },
    {
      "comment": "",
      "fdc_id": 2345300,
      "formatted_quantity": "½x",
      "group": -1,
      "name": "basil",
      "prep": "torn",
      "quantity": "0.5x",
      "synonym": "",
      "unit": "30 g pack"
    }
  ],
  "instruction_headings": null,
  "instructions": [
    {
      "group": -1,
      "text": "Season the pork well. Heat the oil in a large flameproof casserole and brown the pork for {15 minutes}, turning to colour all over. Remove to a plate."
    },
    {
      "group": -1,
      "text": "Add the onion, celery, carrots and fennel to the casserole and cook for {8-10 minutes} over a medium heat until beginning to brown. Add the garlic and fennel seeds and fry for {2 minutes} until fragrant. Preheat the oven to [140°C]/gas <3>."
    },
    {
      "group": -1,
      "text": "Add the bay, thyme, wine, stock and tomatoes to the casserole. Bringto the boil then return the pork, cover with a lid and place in the oven for <3> to {3½ hours}, turning the pork every hour or so, until almost falling apart."
    },
    {
      "group": -1,
      "text": "Remove the pork to a chopping board and pull the tender meat apart with two forks. Discard the bay leaves and thyme sprigs, then return the shredded pork to the pot with the basil. Simmer for {5 minutes} and season to taste."
    }
  ],
  "lowEffort": false,
  "miseEnPlace": false,
  "name": "Slow-cooked pork and fennel ragu",
  "notes": null,
  "nutFree": false,
  "nutrition": {
    "calories": 370,
    "carbohydrates": 9.0,
    "fat": 15.0,
    "fibre": 3.0,
    "protein": 40.0,
    "salt": 0.6,
    "saturates": 4.0,
    "sugars": 8.0
  },
  "prepTime": "PT0H30M",
  "rating": "Neutral",
  "slug": "slow-cooked-pork-and-fennel-ragu",
  "source": "www.sainsburysmagazine.co.uk",
  "tags": null,
  "totalTime": "PT4H10M",
  "units": "metric",
  "url": "https://www.sainsburysmagazine.co.uk/recipes/mains/slow-cooked-pork-and-fennel-ragu",
  "vegan": false,
  "yield_": "8"
}