{
  "archiveTimestamp": null,
  "archiveUrl": null,
  "category": "Seafood",
  "cookTime": "PT45M",
  "cuisine": "Caribbean",
  "dairyFree": false,
  "dateCooked": "2016-05-30",
  "deadUrl": false,
  "description": null,
  "future": false,
  "glutenFree": false,
  "image": "smoked-fish-and-lime-patties.webp",
  "inactiveTime": "PT30M",
  "ingredient_headings": {
    "1": "For the filling",
    "2": "For the patty pastry"
  },
  "ingredients": [
    {
      "comment": "",
      "fdc_id": 746778,
      "formatted_quantity": "300",
      "group": 1,
      "name": "milk",
      "prep": "",
      "quantity": "300",
      "synonym": "",
      "unit": "ml"
    },
    {
      "comment": "",
      "fdc_id": "",
      "formatted_quantity": "250",
      "group": 1,
      "name": "smoked haddock",
      "prep": "",
      "quantity": "250",
      "synonym": "haddock",
      "unit": "g"
    },
    {
      "comment": "",
      "fdc_id": 789828,
      "formatted_quantity": "50",
      "group": 1,
      "name": "butter",
      "prep": "",
      "quantity": "50",
      "synonym": "",
      "unit": "g"
    },
    {
      "comment": "",
      "fdc_id": 790646,
      "formatted_quantity": "1",
      "group": 1,
      "name": "onion",
      "prep": "finely chopped",
      "quantity": "1",
      "synonym": "",
      "unit": "large"
    },
    {
      "comment": "",
      "fdc_id": 1104647,
      "formatted_quantity": "1",
      "group": 1,
      "name": "garlic",
      "prep": "finely chopped",
      "quantity": "1",
      "synonym": "",
      "unit": "clove"
    },
    {
      "comment": "",
      "fdc_id": 790018,
      "formatted_quantity": "1",
      "group": 1,
      "name": "plain white flour",
      "prep": "",
      "quantity": "1",
      "synonym": "flour",
      "unit": "tbsp"
    },
    {
      "comment": "",
      "fdc_id": 170106,
      "formatted_quantity": "½",
      "group": 1,
      "name": "red chilli",
      "prep": "deseeded",
      "quantity": "0.5",
      "synonym": "chilli",
      "unit": ""
    },
    {
      "comment": "",
      "fdc_id": 170012,
      "formatted_quantity": "70",
      "group": 1,
      "name": "frozen peas",
      "prep": "",
      "quantity": "70",
      "synonym": "peas",
      "unit": "g"
    },
    {
      "comment": "",
      "fdc_id": "",
      "formatted_quantity": "",
      "group": 1,
      "name": "zest of 2 limes",
      "prep": "",
      "quantity": "",
      "synonym": "",
      "unit": ""
    },
    {
      "comment": "",
      "fdc_id": 790018,
      "formatted_quantity": "225",
      "group": 2,
      "name": "plain flour",
      "prep": "",
      "quantity": "225",
      "synonym": "",
      "unit": "g"
    },
    {
      "comment": "",
      "fdc_id": 172231,
      "formatted_quantity": "1½",
      "group": 2,
      "name": "ground turmeric",
      "prep": "",
      "quantity": "1.5",
      "synonym": "turmeric",
      "unit": "tsp"
    },
    {
      "comment": "",
      "fdc_id": 746775,
      "formatted_quantity": "",
      "group": 2,
      "name": "of salt",
      "prep": "",
      "quantity": "",
      "synonym": "salt",
      "unit": "pinch"
    },
    {
      "comment": "",
      "fdc_id": 789828,
      "formatted_quantity": "115",
      "group": 2,
      "name": "cold butter",
      "prep": "cut into small cubes",
      "quantity": "115",
      "synonym": "",
      "unit": "g"
    },
    {
      "comment": "",
      "fdc_id": 748967,
      "formatted_quantity": "½",
      "group": 2,
      "name": "egg",
      "prep": "lighly beaten",
      "quantity": "0.5",
      "synonym": "",
      "unit": ""
    }
  ],
  "instruction_headings": null,
  "instructions": [
    {
      "group": -1,
      "text": "Put the milk and haddock in a large pan and bring to a simmer. Poach for {5 minutes}.  "
    },
    {
      "group": -1,
      "text": "Remove the fish from the pan (keep the milk) and flake, discarding any skin and bones.  "
    },
    {
      "group": -1,
      "text": "Melt the butter in a frying pan and gently cook for onion and garlic until soft. Sprinkle on the flour and stir for {1-2 minutes}. Add the warm fish-poaching milk gradually, stirring after each addition to get a smooth sauce. Stir in the chilli and peas. Add the lime zest, then gently fold in the cooked fish and leave to cool completely.  "
    },
    {
      "group": -1,
      "text": "Put the flour, turmeric and salt in a bowl and rub in the cold butter. Add <4-5> tbsp water and mix. Roll into a ball and chill for {30 minutes}. Preheat the oven to [200°C]/gas <6>.  "
    },
    {
      "group": -1,
      "text": "Cut the pastry into <3> or <4> pieces. Roll the first piece out into a large oval about &frac cm thick.  "
    },
    {
      "group": -1,
      "text": "Put a quarter of the filling in the middle, leaving about <4> cm around the edge. Brush the edge with water and fold the pastry lengthways. Use a fork to crimp the edges.  "
    },
    {
      "group": -1,
      "text": "Prick the patties with a fork, brush with the beaten egg and cook in the oven for {25 minutes} or until golden brown.  "
    }
  ],
  "lowEffort": false,
  "miseEnPlace": false,
  "name": "Smoked fish and lime patties",
  "notes": null,
  "nutFree": false,
  "nutrition": null,
  "prepTime": "PT30M",
  "rating": "Neutral",
  "slug": "smoked-fish-and-lime-patties",
  "source": "Caribbean Food Made Easy",
  "tags": null,
  "totalTime": "PT75M",
  "units": "metric",
  "url": null,
  "vegan": false,
  "yield_": "2"
}