{
  "archiveTimestamp": null,
  "archiveUrl": null,
  "category": "Dessert",
  "cookTime": "PT15M",
  "cuisine": null,
  "dairyFree": false,
  "dateCooked": "2024-01-06",
  "deadUrl": false,
  "description": null,
  "future": false,
  "glutenFree": false,
  "image": "snowman-cinnamon-rolls.webp",
  "inactiveTime": "PT1H50M",
  "ingredient_headings": {
    "1": "Dough",
    "2": "Filling",
    "3": "Decoration"
  },
  "ingredients": [
    {
      "comment": "",
      "fdc_id": "",
      "formatted_quantity": "150",
      "group": 1,
      "name": "lukewarm milk",
      "prep": "",
      "quantity": "150",
      "synonym": "",
      "unit": "ml"
    },
    {
      "comment": "",
      "fdc_id": "2675517",
      "formatted_quantity": "30",
      "group": 1,
      "name": "caster sugar",
      "prep": "",
      "quantity": "30",
      "synonym": "sugar",
      "unit": "g"
    },
    {
      "comment": "",
      "fdc_id": "",
      "formatted_quantity": "1",
      "group": 1,
      "name": "dried yeast",
      "prep": "",
      "quantity": "1",
      "synonym": "yeast",
      "unit": "tsp"
    },
    {
      "comment": "",
      "fdc_id": "",
      "formatted_quantity": "250",
      "group": 1,
      "name": "organic bread flour",
      "prep": "",
      "quantity": "250",
      "synonym": "flour",
      "unit": "g"
    },
    {
      "comment": "",
      "fdc_id": "789828",
      "formatted_quantity": "40",
      "group": 1,
      "name": "butter",
      "prep": "melted",
      "quantity": "40",
      "synonym": "",
      "unit": "g"
    },
    {
      "comment": "",
      "fdc_id": "789828",
      "formatted_quantity": "20",
      "group": 2,
      "name": "butter",
      "prep": "melted",
      "quantity": "20",
      "synonym": "",
      "unit": "g"
    },
    {
      "comment": "",
      "fdc_id": "2345820",
      "formatted_quantity": "50",
      "group": 2,
      "name": "soft light brown sugar",
      "prep": "",
      "quantity": "50",
      "synonym": "brown sugar",
      "unit": "g"
    },
    {
      "comment": "",
      "fdc_id": "171320",
      "formatted_quantity": "1",
      "group": 2,
      "name": "cinnamon",
      "prep": "",
      "quantity": "1",
      "synonym": "",
      "unit": "tsp"
    },
    {
      "comment": "",
      "fdc_id": "2345819",
      "formatted_quantity": "200",
      "group": 3,
      "name": "icing sugar",
      "prep": "",
      "quantity": "200",
      "synonym": "",
      "unit": "g"
    },
    {
      "comment": "",
      "fdc_id": "746778",
      "formatted_quantity": "1-2",
      "group": 3,
      "name": "milk",
      "prep": "",
      "quantity": "1-2",
      "synonym": "",
      "unit": "tbsp"
    },
    {
      "comment": "",
      "fdc_id": "",
      "formatted_quantity": "",
      "group": 3,
      "name": "Chocolate chips",
      "prep": "",
      "quantity": "",
      "synonym": "",
      "unit": ""
    },
    {
      "comment": "",
      "fdc_id": "",
      "formatted_quantity": "",
      "group": 3,
      "name": "Orange smarties",
      "prep": "",
      "quantity": "",
      "synonym": "",
      "unit": ""
    },
    {
      "comment": "",
      "fdc_id": "",
      "formatted_quantity": "",
      "group": 3,
      "name": "Red icing tube",
      "prep": "",
      "quantity": "",
      "synonym": "",
      "unit": ""
    }
  ],
  "instruction_headings": null,
  "instructions": [
    {
      "group": -1,
      "text": "In a large bowl, whisk together the warm milk and sugar. Add the yeast and set aside to activate and bubble for {5 minutes}."
    },
    {
      "group": -1,
      "text": "Add the flour to the milk mixture and stir with a wooden spoon until just combined. Turn the dough out onto a floured surface and knead until the dough is smooth and elastic."
    },
    {
      "group": -1,
      "text": "Place the dough back in the bowl and cover with cling-film. Leave in a warm place to rise for {1 hour}, or until doubled in size."
    },
    {
      "group": -1,
      "text": "Line <2> baking trays with greaseproof paper. Remove approximately <⅓> of the dough and set aside for later - this will be used to make the smaller cinnamon roll heads. Roll the larger portion of dough out into a large rectangle, about <5> mm thick."
    },
    {
      "group": -1,
      "text": "In a small bowl, combine the brown sugar and cinnamon. Brush the surface of the dough with melted butter and then sprinkle over about <⅔> of the cinnamon sugar. Gently rub the sugar mixture into the butter."
    },
    {
      "group": -1,
      "text": "Roll up the dough, starting from a long edge to form a log. Place seam-side down and trim the ends. Cut the log into <8> equal slices. Place <4> rolls onto each prepared tray, these will be the snowmen's bodies."
    },
    {
      "group": -1,
      "text": "To make the heads, roll the remaining <⅓> of dough out to the same thickness and length as before - the rectangle will be narrower as there is less dough. Spread with butter and cinnamon sugar. Roll up along the long edge and slice into 8 equal slices - the cinnamon rolls will be smaller."
    },
    {
      "group": -1,
      "text": "Place the small rolls next to the bigger ones, so that the seams meet up and are touching. Make sure there is a 3 cm gap between each snowman. Cover the buns with cling-film and place in a warm place to rise for {45 minutes} or until doubled in size."
    },
    {
      "group": -1,
      "text": "Preheat the oven to [200°C]. Remove the cling-film and bake the rolls {10-15 minutes}, until golden brown. Remove from the oven and leave to cool."
    },
    {
      "group": -1,
      "text": "Once cool, prepare the topping. Mix icing sugar and milk until smooth and thick. Using a teaspoon, spread the icing over the surface of each snowman. Add chocolate chip eyes to the face and buttons to the body. Use orange smarties to make the carrot noses and leave for a few minutes to set. Use the red icing tube to add scarves to the snowmen. Enjoy!"
    }
  ],
  "lowEffort": false,
  "miseEnPlace": false,
  "name": "Snowman cinnamon rolls",
  "notes": null,
  "nutFree": false,
  "nutrition": null,
  "prepTime": "PT30M",
  "rating": "Neutral",
  "slug": "snowman-cinnamon-rolls",
  "source": "honeywellbakes.com",
  "tags": null,
  "totalTime": "PT45M",
  "units": "metric",
  "url": "https://honeywellbakes.com/product/snowman-cinnamon-roll-baking-kit/",
  "vegan": false,
  "yield_": "8"
}