{
  "archiveTimestamp": null,
  "archiveUrl": null,
  "category": "RedMeat",
  "cookTime": "PT5M",
  "cuisine": "Middle Eastern",
  "dairyFree": false,
  "dateCooked": "2023-07-01",
  "deadUrl": false,
  "description": "I do love a kebab. Admittedly, this is not the world’s best-kept secret, as over the years I have written many kebab recipes using every kind of meat. This is my go-to when I want good value and quick, easy results. Lamb neck is completely underrated, especially for quick cooking, although it is equally good for slow-cooked dishes. Once you try this recipe, I know it will become as firm a favourite of yours as it is mine. Serve in wraps or warmed pitta bread with yogurt, sliced onion, tomato, pickled cucumber and coriander leaves, or on a bed of mixed leaves with pomegranate seeds and a good drizzle of pomegranate molasses.",
  "future": false,
  "glutenFree": false,
  "image": "speedy-lamb-shawarma.webp",
  "inactiveTime": null,
  "ingredient_headings": {
    "1": "To serve"
  },
  "ingredients": [
    {
      "comment": "",
      "fdc_id": "1750351",
      "formatted_quantity": "",
      "group": -1,
      "name": "vegetable or olive oil",
      "prep": "",
      "quantity": "",
      "synonym": "",
      "unit": ""
    },
    {
      "comment": "",
      "fdc_id": "172637",
      "formatted_quantity": "500",
      "group": -1,
      "name": "lamb neck fillets",
      "prep": "trimmed of any thick top layer of fat",
      "quantity": "500",
      "synonym": "lamb fillet",
      "unit": "g"
    },
    {
      "comment": "",
      "fdc_id": "789828",
      "formatted_quantity": "50",
      "group": -1,
      "name": "butter",
      "prep": "",
      "quantity": "50",
      "synonym": "",
      "unit": "g"
    },
    {
      "comment": "",
      "fdc_id": "171325",
      "formatted_quantity": "1",
      "group": -1,
      "name": "garlic granules",
      "prep": "",
      "quantity": "1",
      "synonym": "",
      "unit": "teaspoon"
    },
    {
      "comment": "",
      "fdc_id": "384420",
      "formatted_quantity": "1",
      "group": -1,
      "name": "ground cumin",
      "prep": "",
      "quantity": "1",
      "synonym": "",
      "unit": "teaspoon"
    },
    {
      "comment": "",
      "fdc_id": "170921",
      "formatted_quantity": "1",
      "group": -1,
      "name": "ground coriander",
      "prep": "",
      "quantity": "1",
      "synonym": "",
      "unit": "teaspoon"
    },
    {
      "comment": "",
      "fdc_id": "",
      "formatted_quantity": "½",
      "group": -1,
      "name": "cayenne pepper (or chilli flakes if you prefer)",
      "prep": "",
      "quantity": "0.5",
      "synonym": "",
      "unit": "teaspoons"
    },
    {
      "comment": "",
      "fdc_id": "",
      "formatted_quantity": "",
      "group": -1,
      "name": "Maldon sea salt flakes and freshly ground black pepper",
      "prep": "",
      "quantity": "",
      "synonym": "",
      "unit": ""
    },
    {
      "comment": "",
      "fdc_id": "2343304",
      "formatted_quantity": "",
      "group": 1,
      "name": "tortillas",
      "prep": "",
      "quantity": "",
      "synonym": "",
      "unit": ""
    },
    {
      "comment": "",
      "fdc_id": "",
      "formatted_quantity": "",
      "group": 1,
      "name": "Greek or natural yogurt",
      "prep": "",
      "quantity": "",
      "synonym": "",
      "unit": ""
    },
    {
      "comment": "",
      "fdc_id": "790577",
      "formatted_quantity": "",
      "group": 1,
      "name": "thinly sliced red onion",
      "prep": "",
      "quantity": "",
      "synonym": "",
      "unit": ""
    },
    {
      "comment": "",
      "fdc_id": "",
      "formatted_quantity": "",
      "group": 1,
      "name": "sliced tomatoes",
      "prep": "",
      "quantity": "",
      "synonym": "",
      "unit": ""
    },
    {
      "comment": "",
      "fdc_id": "",
      "formatted_quantity": "",
      "group": 1,
      "name": "sliced pickled cucumbers",
      "prep": "",
      "quantity": "",
      "synonym": "",
      "unit": ""
    },
    {
      "comment": "",
      "fdc_id": "2345302",
      "formatted_quantity": "",
      "group": 1,
      "name": "coriander leaves",
      "prep": "",
      "quantity": "",
      "synonym": "",
      "unit": ""
    }
  ],
  "instruction_headings": null,
  "instructions": [
    {
      "group": -1,
      "text": "Heat a frying pan over a high heat and, once hot, rub some oil on to both sides of each lamb fillet. Place in the hot pan and sear on each side for a minute, just to seal (there is no need to cook the meat through)."
    },
    {
      "group": -1,
      "text": "Transfer the fillets to a chopping board and, using a sharp knife, cut them into wafer-thin slices as best you can. Don’t worry about getting whole slices – just do what you can to make them nice and thin."
    },
    {
      "group": -1,
      "text": "Return the lamb slices to the pan with the butter, garlic granules, spices and a generous amount of salt and pepper. Stir-fry over a high heat for a couple of minutes until the meat is cooked but still lovely and tender, then remove."
    },
    {
      "group": -1,
      "text": "Serve the lamb piled into tortillas with the fillings of your choice. This needs no accompaniment."
    }
  ],
  "lowEffort": false,
  "miseEnPlace": false,
  "name": "Speedy lamb shawarma",
  "notes": null,
  "nutFree": false,
  "nutrition": null,
  "prepTime": "PT20M",
  "rating": "Potential",
  "slug": "speedy-lamb-shawarma",
  "source": "Persiana Everyday",
  "tags": [
    "lamb"
  ],
  "totalTime": "PT25M",
  "units": "metric",
  "url": null,
  "vegan": false,
  "yield_": "2-4"
}