{
  "archiveTimestamp": null,
  "archiveUrl": null,
  "category": "Pork",
  "cookTime": "PT20M",
  "cuisine": null,
  "dairyFree": false,
  "dateCooked": "2015-10-17",
  "deadUrl": false,
  "description": "The prep for this is so quick - just pop everything in and let the food processor do all the work. If you don't have a food processor, just chop everything finely. Gluten-free: use gluten-free pasta and stock cube.",
  "future": false,
  "glutenFree": true,
  "image": "speedy-pork-bolognese.webp",
  "inactiveTime": null,
  "ingredient_headings": null,
  "ingredients": [
    {
      "comment": "",
      "fdc_id": 790646,
      "formatted_quantity": "1",
      "group": -1,
      "name": "onion",
      "prep": "",
      "quantity": "1",
      "synonym": "",
      "unit": ""
    },
    {
      "comment": "",
      "fdc_id": 2346405,
      "formatted_quantity": "2",
      "group": -1,
      "name": "celery",
      "prep": "",
      "quantity": "2",
      "synonym": "",
      "unit": "sticks"
    },
    {
      "comment": "",
      "fdc_id": 2258586,
      "formatted_quantity": "1",
      "group": -1,
      "name": "carrot",
      "prep": "",
      "quantity": "1",
      "synonym": "",
      "unit": ""
    },
    {
      "comment": "",
      "fdc_id": "",
      "formatted_quantity": "1",
      "group": -1,
      "name": "red apple",
      "prep": "cored",
      "quantity": "1",
      "synonym": "apple",
      "unit": ""
    },
    {
      "comment": "",
      "fdc_id": 1104647,
      "formatted_quantity": "1",
      "group": -1,
      "name": "garlic",
      "prep": "",
      "quantity": "1",
      "synonym": "",
      "unit": "clove"
    },
    {
      "comment": "",
      "fdc_id": 1750351,
      "formatted_quantity": "2",
      "group": -1,
      "name": "olive oil",
      "prep": "",
      "quantity": "2",
      "synonym": "oil",
      "unit": "tbsp"
    },
    {
      "comment": "",
      "fdc_id": 2341268,
      "formatted_quantity": "500",
      "group": -1,
      "name": "minced pork",
      "prep": "",
      "quantity": "500",
      "synonym": "mince",
      "unit": "g"
    },
    {
      "comment": "",
      "fdc_id": "",
      "formatted_quantity": "500",
      "group": -1,
      "name": "passata",
      "prep": "",
      "quantity": "500",
      "synonym": "",
      "unit": "g"
    },
    {
      "comment": "",
      "fdc_id": 2345664,
      "formatted_quantity": "1",
      "group": -1,
      "name": "veg stock cube",
      "prep": "",
      "quantity": "1",
      "synonym": "",
      "unit": ""
    },
    {
      "comment": "",
      "fdc_id": 170460,
      "formatted_quantity": "1",
      "group": -1,
      "name": "sun-dried tomato puree",
      "prep": "",
      "quantity": "1",
      "synonym": "tomato puree",
      "unit": "tbsp"
    },
    {
      "comment": "",
      "fdc_id": "",
      "formatted_quantity": "",
      "group": -1,
      "name": "spaghetti or pasta",
      "prep": "",
      "quantity": "",
      "synonym": "",
      "unit": ""
    },
    {
      "comment": "",
      "fdc_id": 2345316,
      "formatted_quantity": "2",
      "group": -1,
      "name": "freshly chopped parsley",
      "prep": "",
      "quantity": "2",
      "synonym": "parsley",
      "unit": "tbsp"
    },
    {
      "comment": "",
      "fdc_id": "",
      "formatted_quantity": "",
      "group": -1,
      "name": "Parmesan to serve",
      "prep": "",
      "quantity": "",
      "synonym": "",
      "unit": ""
    }
  ],
  "instruction_headings": null,
  "instructions": [
    {
      "group": -1,
      "text": "Put the onion, celery, carrot, apple and garlic in a food processor and blitz until it is evenly chopped.  "
    },
    {
      "group": -1,
      "text": "Heat the oil in a wok or large saucepan. Add the veggies and cook on a fairly high heat for {5 minutes}. Keep stirring.  "
    },
    {
      "group": -1,
      "text": "Add the mince and cook until it is no longer pink,  "
    },
    {
      "group": -1,
      "text": "Add the passata, veg stock cube and tomato puree. Season well and simmer for {10 minutes}.  "
    },
    {
      "group": -1,
      "text": "Meanwhile, cook the spaghetti or pasta. Drain and leave to one side until needed.  "
    },
    {
      "group": -1,
      "text": "Add the parsley to the bolognese and heat through for {30 seconds}.  "
    },
    {
      "group": -1,
      "text": "Mix the pasta and sauce together. Grate the Parmesan on top to serve."
    }
  ],
  "lowEffort": false,
  "miseEnPlace": false,
  "name": "Speedy pork bolognese",
  "notes": null,
  "nutFree": false,
  "nutrition": null,
  "prepTime": "PT10M",
  "rating": "Neutral",
  "slug": "speedy-pork-bolognese",
  "source": "Nosh: Quick & Easy",
  "tags": null,
  "totalTime": "PT30M",
  "units": "metric",
  "url": null,
  "vegan": false,
  "yield_": "4"
}