{
  "archiveTimestamp": "2023-11-22 11:35:18",
  "archiveUrl": "https://web.archive.org/web/20231122113518/https://www.bbcgoodfood.com/recipes/spiced-mushroom-lentil-hotpot",
  "category": "Veggie",
  "cookTime": "PT35M",
  "cuisine": null,
  "dairyFree": false,
  "dateCooked": "2019-02-25",
  "deadUrl": false,
  "description": "A vegan winter warmer the whole family will love - this healthy potato-topped bake is low in calories and fat, high in fibre and 3 of your 5-a-day.",
  "future": false,
  "glutenFree": false,
  "image": "spiced-mushroom-lentil-hotpot.webp",
  "inactiveTime": null,
  "ingredient_headings": null,
  "ingredients": [
    {
      "comment": "",
      "fdc_id": "1750351",
      "formatted_quantity": "2",
      "group": -1,
      "name": "olive oil",
      "prep": "",
      "quantity": "2",
      "synonym": "oil",
      "unit": "tbsp"
    },
    {
      "comment": "",
      "fdc_id": "790646",
      "formatted_quantity": "1",
      "group": -1,
      "name": "onion",
      "prep": "sliced",
      "quantity": "1",
      "synonym": "",
      "unit": "medium"
    },
    {
      "comment": "",
      "fdc_id": "169243",
      "formatted_quantity": "300",
      "group": -1,
      "name": "mini Portobello mushrooms or chestnut mushrooms",
      "prep": "sliced",
      "quantity": "300",
      "synonym": "mushrooms",
      "unit": "g"
    },
    {
      "comment": "",
      "fdc_id": "1104647",
      "formatted_quantity": "2",
      "group": -1,
      "name": "garlic",
      "prep": "crushed",
      "quantity": "2",
      "synonym": "",
      "unit": "cloves"
    },
    {
      "comment": "",
      "fdc_id": "384420",
      "formatted_quantity": "1½",
      "group": -1,
      "name": "ground cumin",
      "prep": "",
      "quantity": "1.5",
      "synonym": "",
      "unit": "tsp"
    },
    {
      "comment": "",
      "fdc_id": "171329",
      "formatted_quantity": "1",
      "group": -1,
      "name": "smoked paprika",
      "prep": "",
      "quantity": "1",
      "synonym": "paprika",
      "unit": "tsp"
    },
    {
      "comment": "drained weight",
      "fdc_id": "2644283",
      "formatted_quantity": "2x",
      "group": -1,
      "name": "green lentils",
      "prep": "drained and rinsed",
      "quantity": "2x",
      "synonym": "lentils",
      "unit": "400 g cans"
    },
    {
      "comment": "",
      "fdc_id": "2342917",
      "formatted_quantity": "1",
      "group": -1,
      "name": "soy sauce",
      "prep": "",
      "quantity": "1",
      "synonym": "",
      "unit": "tbsp"
    },
    {
      "comment": "",
      "fdc_id": "172241",
      "formatted_quantity": "1",
      "group": -1,
      "name": "balsamic vinegar",
      "prep": "",
      "quantity": "1",
      "synonym": "",
      "unit": "tbsp"
    },
    {
      "comment": "",
      "fdc_id": "2346404",
      "formatted_quantity": "1",
      "group": -1,
      "name": "sweet potato",
      "prep": "peeled and very thinly sliced",
      "quantity": "1",
      "synonym": "",
      "unit": "medium"
    },
    {
      "comment": "",
      "fdc_id": "2346403",
      "formatted_quantity": "1",
      "group": -1,
      "name": "potato",
      "prep": "very thinly sliced",
      "quantity": "1",
      "synonym": "",
      "unit": "large"
    },
    {
      "comment": "",
      "fdc_id": "173470",
      "formatted_quantity": "1",
      "group": -1,
      "name": "thyme",
      "prep": "leaves picked",
      "quantity": "1",
      "synonym": "",
      "unit": "sprig"
    }
  ],
  "instruction_headings": null,
  "instructions": [
    {
      "group": -1,
      "text": "Heat oven to [180°C]/Gas <6>. Heat half the oil in a medium saucepan. Fry the onion for {3 minutes}, then add the mushrooms. Cook for another {3 minutes}, then increase the heat and add the garlic, ground cumin and paprika, and cook for {1 minute}. Remove from the heat and add the lentils, soy sauce, balsamic vinegar and <100> ml water. Season, then tip the mixture into a casserole dish."
    },
    {
      "group": -1,
      "text": "Rinse the saucepan and return to the hob. Add a kettle full of boiled water and bring back to the boil over a high heat. Add the potato slices, cook for {3 minutes}, then drain. Arrange on top of the lentils, then brush with the remaining oil. Roast in the oven for {25 minutes} until the potatoes are golden, then scatter over the thyme before serving."
    }
  ],
  "lowEffort": false,
  "miseEnPlace": false,
  "name": "Spiced mushroom & lentil hotpot",
  "notes": null,
  "nutFree": false,
  "nutrition": {
    "calories": 312,
    "carbohydrates": 44,
    "fat": 7,
    "fibre": 12,
    "protein": 12,
    "salt": 0.7,
    "saturates": 1,
    "sugars": 13
  },
  "prepTime": "PT10M",
  "rating": "Neutral",
  "slug": "spiced-mushroom-lentil-hotpot",
  "source": "www.bbcgoodfood.com",
  "tags": null,
  "totalTime": "PT45M",
  "units": "metric",
  "url": "https://www.bbcgoodfood.com/recipes/spiced-mushroom-lentil-hotpot",
  "vegan": true,
  "yield_": "4"
}