{
  "archiveTimestamp": "2023-11-22 11:41:36",
  "archiveUrl": "https://web.archive.org/web/20231122114136/https://cooking.nytimes.com/recipes/1021535-spicy-butternut-squash-pasta-with-spinach",
  "category": "Veggie",
  "cookTime": "PT15M",
  "cuisine": null,
  "dairyFree": false,
  "dateCooked": "2020-12-16",
  "deadUrl": false,
  "description": "Here’s a vegetable-filled pasta bake that comes together in under an hour. The most time-consuming part of this recipe is prepping the squash. ",
  "future": false,
  "glutenFree": false,
  "image": "spicy-butternut-squash-pasta-with-spinach.webp",
  "inactiveTime": null,
  "ingredient_headings": null,
  "ingredients": [
    {
      "comment": "",
      "fdc_id": "2571981",
      "formatted_quantity": "",
      "group": -1,
      "name": "Kosher salt",
      "prep": "",
      "quantity": "",
      "synonym": "",
      "unit": ""
    },
    {
      "comment": "plus more for serving",
      "fdc_id": "1750351",
      "formatted_quantity": "3",
      "group": -1,
      "name": "olive oil",
      "prep": "",
      "quantity": "3",
      "synonym": "oil",
      "unit": "tbsp"
    },
    {
      "comment": "",
      "fdc_id": "2345206",
      "formatted_quantity": "1",
      "group": -1,
      "name": "butternut squash",
      "prep": "peeled, seeds removed and cut into 0.5 inch cubes",
      "quantity": "1",
      "synonym": "squash",
      "unit": "medium"
    },
    {
      "comment": "",
      "fdc_id": "384420",
      "formatted_quantity": "1",
      "group": -1,
      "name": "ground cumin",
      "prep": "",
      "quantity": "1",
      "synonym": "",
      "unit": "tbsp"
    },
    {
      "comment": "plus more as needed",
      "fdc_id": "",
      "formatted_quantity": "½",
      "group": -1,
      "name": "red-pepper flakes",
      "prep": "",
      "quantity": "0.5",
      "synonym": "",
      "unit": "tsp"
    },
    {
      "comment": "or other tubular pasta",
      "fdc_id": "2343841",
      "formatted_quantity": "1",
      "group": -1,
      "name": "penne",
      "prep": "",
      "quantity": "1",
      "synonym": "pasta",
      "unit": "lb"
    },
    {
      "comment": "or water",
      "fdc_id": "2345664",
      "formatted_quantity": "1",
      "group": -1,
      "name": "low-sodium vegetable broth",
      "prep": "",
      "quantity": "1",
      "synonym": "",
      "unit": "cup"
    },
    {
      "comment": "",
      "fdc_id": "325036",
      "formatted_quantity": "¾",
      "group": -1,
      "name": "grated Parmesan",
      "prep": "",
      "quantity": "0.75",
      "synonym": "Parmesan",
      "unit": "cup"
    },
    {
      "comment": "",
      "fdc_id": "1999632",
      "formatted_quantity": "3",
      "group": -1,
      "name": "baby spinach",
      "prep": "",
      "quantity": "3",
      "synonym": "spinach",
      "unit": "packed cups"
    },
    {
      "comment": "",
      "fdc_id": "329370",
      "formatted_quantity": "1",
      "group": -1,
      "name": "fresh mozzarella",
      "prep": "torn into bite-sized chunks",
      "quantity": "1",
      "synonym": "mozzarella",
      "unit": "ball"
    },
    {
      "comment": "",
      "fdc_id": "",
      "formatted_quantity": "1",
      "group": -1,
      "name": "jalapeño",
      "prep": "sliced into rounds",
      "quantity": "1",
      "synonym": "",
      "unit": ""
    },
    {
      "comment": "",
      "fdc_id": "",
      "formatted_quantity": "⅓",
      "group": -1,
      "name": "flat leaf parsley",
      "prep": "",
      "quantity": "0.333",
      "synonym": "parsley",
      "unit": "cup"
    }
  ],
  "instruction_headings": null,
  "instructions": [
    {
      "group": -1,
      "text": "Bring a large covered pot of heavily salted water to a boil."
    },
    {
      "group": -1,
      "text": "Meanwhile, in a <12>-inch ovenproof skillet with high sides and a tight-fitting lid (or a Dutch oven), heat the oil over medium-high until shimmering. Add the squash and season with salt, cumin and red-pepper flakes. Cook, stirring every minute, until squash becomes browned in spots and feels just tender, <6> to {8 minutes}."
    },
    {
      "group": -1,
      "text": "Meanwhile, heat the oven to [200°C]. Add the pasta to the boiling water and cook, uncovered, until not quite al dente, <3> to {4 minutes} less than the package instructions. (It should be a little too firm to the bite.) Reserve <1> cup of the pasta water and drain. If the pasta is done before the squash, then stir in a drizzle of olive oil so that it doesn’t stick together."
    },
    {
      "group": -1,
      "text": "When the squash is just tender, add the broth. Bring to an active simmer, cover and cook, stirring occasionally, until the squash is soft and easily mashable, <10> to {12 minutes}. Turn off the heat, then use a potato masher or the back of a wooden spoon to crush about half of the butternut squash and leave the rest chunky. Season the squash to taste, keeping in mind that salty Parmesan will be added soon."
    },
    {
      "group": -1,
      "text": "Add the cooked pasta to the skillet along with <1> cup reserved pasta water and <½> cup grated Parmesan, stirring vigorously to combine. Stir in the spinach one handful at a time until it shrinks down a little."
    },
    {
      "group": -1,
      "text": "Sprinkle the top with the remaining <¼> cup Parmesan, the mozzarella and jalapeño, then place in the oven, on a sheet pan if you are worried about dripping. Cook until the top is melted and browned in spots, <12> to {15 minutes}. Drizzle with olive oil, top with parsley and serve."
    }
  ],
  "lowEffort": false,
  "miseEnPlace": false,
  "name": "Spicy butternut squash pasta with spinach",
  "notes": null,
  "nutFree": false,
  "nutrition": null,
  "prepTime": "PT15M",
  "rating": "Negative",
  "slug": "spicy-butternut-squash-pasta-with-spinach",
  "source": "cooking.nytimes.com",
  "tags": null,
  "totalTime": "PT40M",
  "units": "imperial",
  "url": "https://cooking.nytimes.com/recipes/1021535-spicy-butternut-squash-pasta-with-spinach",
  "vegan": false,
  "yield_": "4"
}