{
  "archiveTimestamp": "2023-06-08 17:52:27",
  "archiveUrl": "https://web.archive.org/web/20230608175227/https://www.bonappetit.com/recipe/spicy-coconut-grilled-chicken-thighs",
  "category": "RedMeat",
  "cookTime": "PT15M",
  "cuisine": null,
  "dairyFree": false,
  "dateCooked": "2019-10-06",
  "deadUrl": false,
  "description": "Welcome to your newest go-to summer marinade, featuring some spicy sambal, brown sugar and coconut milk to balance out the heat, and lots of fresh ginger and lime juice. This one' just as awesome with shrimp or flank or skirt steak as it is with chicken thighs.",
  "future": false,
  "glutenFree": false,
  "image": "spicy-coconut-grilled-steak.webp",
  "inactiveTime": "PT15M",
  "ingredient_headings": null,
  "ingredients": [
    {
      "comment": "",
      "fdc_id": "169231",
      "formatted_quantity": "1",
      "group": -1,
      "name": "fresh ginger",
      "prep": "",
      "quantity": "1",
      "synonym": "ginger",
      "unit": "3"
    },
    {
      "comment": "",
      "fdc_id": "1104647",
      "formatted_quantity": "5",
      "group": -1,
      "name": "garlic",
      "prep": "",
      "quantity": "5",
      "synonym": "",
      "unit": "cloves"
    },
    {
      "comment": "",
      "fdc_id": "2343044",
      "formatted_quantity": "¾",
      "group": -1,
      "name": "coconut milk",
      "prep": "",
      "quantity": "0.75",
      "synonym": "",
      "unit": "cup"
    },
    {
      "comment": "",
      "fdc_id": "2016176",
      "formatted_quantity": "¼",
      "group": -1,
      "name": "hot chilli paste (such as sambal oelek)",
      "prep": "",
      "quantity": "0.25",
      "synonym": "chilli paste",
      "unit": "cup"
    },
    {
      "comment": "",
      "fdc_id": "2344678",
      "formatted_quantity": "¼",
      "group": -1,
      "name": "fresh lime juice",
      "prep": "",
      "quantity": "0.25",
      "synonym": "lime juice",
      "unit": "cup"
    },
    {
      "comment": "",
      "fdc_id": "2345820",
      "formatted_quantity": "2",
      "group": -1,
      "name": "light brown sugar",
      "prep": "",
      "quantity": "2",
      "synonym": "brown sugar",
      "unit": "tbsp"
    },
    {
      "comment": "",
      "fdc_id": "2571981",
      "formatted_quantity": "1",
      "group": -1,
      "name": "Diamond Crystal or 1.75 tsp. Morton kosher salt",
      "prep": "",
      "quantity": "1",
      "synonym": "salt",
      "unit": "tbsp"
    },
    {
      "comment": "plus more for grill",
      "fdc_id": "2345737",
      "formatted_quantity": "2",
      "group": -1,
      "name": "vegetable oil",
      "prep": "",
      "quantity": "2",
      "synonym": "oil",
      "unit": "tbsp"
    },
    {
      "comment": "",
      "fdc_id": "2341434",
      "formatted_quantity": "2",
      "group": -1,
      "name": "skinless boneless chicken thighs",
      "prep": "",
      "quantity": "2",
      "synonym": "chicken",
      "unit": "lb"
    },
    {
      "comment": "",
      "fdc_id": "2345302",
      "formatted_quantity": "½",
      "group": -1,
      "name": "cilantro leaves with tender stems",
      "prep": "",
      "quantity": "0.5",
      "synonym": "cilantro",
      "unit": "cup"
    },
    {
      "comment": "for serving",
      "fdc_id": "2344664",
      "formatted_quantity": "",
      "group": -1,
      "name": "lime wedges",
      "prep": "",
      "quantity": "",
      "synonym": "",
      "unit": ""
    }
  ],
  "instruction_headings": null,
  "instructions": [
    {
      "group": -1,
      "text": "Prepare a grill for medium heat. Finely grate ginger and garlic into a medium bowl. Add coconut milk, chilli paste, lime juice, brown sugar, salt, and <2> tbsp oil and whisk to combine. Add chicken and toss to coat. Let sit at least {15 minutes} or up to {4 hours}."
    },
    {
      "group": -1,
      "text": "Remove chicken from marinade, letting excess drip back into bowl, and transfer to a rimmed baking sheet. Pour marinade into a small saucepan. Bring to a boil, then reduce heat to medium-low and simmer, stirring occasionally, until slightly reduced and thick enough to coat the back of a spoon, {2-3 minutes}."
    },
    {
      "group": -1,
      "text": "Clean and generously oil grate of grill (if there are a few flare-ups while you do so, not to worry, they will burn off). Grill chicken, turning once and basting occasionally with marinade, until you see some good grill marks and chicken is cooked through, {8-10 minutes}."
    },
    {
      "group": -1,
      "text": "Transfer chicken to a platter. Brush with remaining marinade. Top with cilantro and serve with lime wedges alongside."
    }
  ],
  "lowEffort": false,
  "miseEnPlace": false,
  "name": "Spicy coconut grilled steak",
  "notes": null,
  "nutFree": false,
  "nutrition": null,
  "prepTime": "PT15M",
  "rating": "Neutral",
  "slug": "spicy-coconut-grilled-steak",
  "source": "www.bonappetit.com",
  "tags": [
    "beef"
  ],
  "totalTime": "PT4H15M",
  "units": "imperial",
  "url": "https://www.bonappetit.com/recipe/spicy-coconut-grilled-chicken-thighs",
  "vegan": false,
  "yield_": "4"
}