{
  "archiveTimestamp": null,
  "archiveUrl": null,
  "category": "Poultry",
  "cookTime": "PT30M",
  "cuisine": null,
  "dairyFree": false,
  "dateCooked": "2024-02-24",
  "deadUrl": false,
  "description": "Arayes is the plural of the word for ‘bride’, in Arabic, which is ‘aroos’. There are various tales as to why this particular name is given to this snack: one is that the white bread represents the white dress of the bride wrapped around a dark tuxedo (typically a lamb filling) of the groom in a deep embrace (!). Thinking slightly more practically, for those with an appetite arayes are essentially pan-fried pita bread sandwiches. They’re great either for snacking on before a meal or as a meal in themselves, served with a fresh chopped salad and some sumac yoghurt. ",
  "future": false,
  "glutenFree": false,
  "image": "spiced-chicken-arayes.webp",
  "inactiveTime": "PT30M",
  "ingredient_headings": {
    "1": "To serve"
  },
  "ingredients": [
    {
      "comment": "",
      "fdc_id": "1750351",
      "formatted_quantity": "60",
      "group": -1,
      "name": "olive oil",
      "prep": "",
      "quantity": "60",
      "synonym": "oil",
      "unit": "ml"
    },
    {
      "comment": "",
      "fdc_id": "790646",
      "formatted_quantity": "2",
      "group": -1,
      "name": "onions",
      "prep": "finely chopped",
      "quantity": "2",
      "synonym": "",
      "unit": ""
    },
    {
      "comment": "",
      "fdc_id": "1104647",
      "formatted_quantity": "6",
      "group": -1,
      "name": "garlic",
      "prep": "crushed",
      "quantity": "6",
      "synonym": "",
      "unit": "cloves"
    },
    {
      "comment": "",
      "fdc_id": "170918",
      "formatted_quantity": "1½",
      "group": -1,
      "name": "caraway seeds",
      "prep": "roughly crushed in a pestle and mortar",
      "quantity": "1.5",
      "synonym": "",
      "unit": "tsps"
    },
    {
      "comment": "",
      "fdc_id": "170923",
      "formatted_quantity": "1½",
      "group": -1,
      "name": "cumin seeds",
      "prep": "roughly crushed in a pestle and mortar",
      "quantity": "1.5",
      "synonym": "",
      "unit": "tsps"
    },
    {
      "comment": "",
      "fdc_id": "171320",
      "formatted_quantity": "¾",
      "group": -1,
      "name": "ground cinnamon",
      "prep": "",
      "quantity": "0.75",
      "synonym": "",
      "unit": "tsps"
    },
    {
      "comment": "",
      "fdc_id": "",
      "formatted_quantity": "½",
      "group": -1,
      "name": "chilli flakes",
      "prep": "",
      "quantity": "0.5",
      "synonym": "",
      "unit": "tsps"
    },
    {
      "comment": "",
      "fdc_id": "170460",
      "formatted_quantity": "2",
      "group": -1,
      "name": "tomato purée",
      "prep": "",
      "quantity": "2",
      "synonym": "",
      "unit": "tsps"
    },
    {
      "comment": "",
      "fdc_id": "1999634",
      "formatted_quantity": "2-3",
      "group": -1,
      "name": "plum tomatoes",
      "prep": "coarsely grated and skins discarded",
      "quantity": "2-3",
      "synonym": "tomatoes",
      "unit": ""
    },
    {
      "comment": "either ask your butcher to mince these for you, or put skinless and boneless thighs in a food processor and blitz a few times minced",
      "fdc_id": "2341434",
      "formatted_quantity": "350",
      "group": -1,
      "name": "chicken thighs",
      "prep": "",
      "quantity": "350",
      "synonym": "chicken",
      "unit": "g"
    },
    {
      "comment": "",
      "fdc_id": "2345302",
      "formatted_quantity": "25",
      "group": -1,
      "name": "coriander leaves",
      "prep": "roughly chopped",
      "quantity": "25",
      "synonym": "coriander",
      "unit": "g"
    },
    {
      "comment": "(about 16x 10 cm)",
      "fdc_id": "2343211",
      "formatted_quantity": "4",
      "group": -1,
      "name": "shop-bought pitas",
      "prep": "",
      "quantity": "4",
      "synonym": "pitas",
      "unit": ""
    },
    {
      "comment": "",
      "fdc_id": "789828",
      "formatted_quantity": "20",
      "group": -1,
      "name": "unsalted butter",
      "prep": "",
      "quantity": "20",
      "synonym": "butter",
      "unit": "g"
    },
    {
      "comment": "",
      "fdc_id": "",
      "formatted_quantity": "",
      "group": -1,
      "name": "Salt and black pepper",
      "prep": "",
      "quantity": "",
      "synonym": "",
      "unit": ""
    },
    {
      "comment": "",
      "fdc_id": "2344662",
      "formatted_quantity": "1",
      "group": 1,
      "name": "lemon",
      "prep": "cut into wedges",
      "quantity": "1",
      "synonym": "",
      "unit": ""
    },
    {
      "comment": "(optional)",
      "fdc_id": "2343062",
      "formatted_quantity": "",
      "group": 1,
      "name": "Tahini sauce",
      "prep": "",
      "quantity": "",
      "synonym": "",
      "unit": ""
    }
  ],
  "instruction_headings": null,
  "instructions": [
    {
      "group": -1,
      "text": "Put <2> tablespoons of oil into a large sauté pan and place on a medium-high heat. Add the onions and <½> teaspoon of salt and cook for about {8 minutes}, stirring often, until soft and golden. Add the garlic, spices and tomato purée and cook for another minute, until fragrant. Stir in the tomatoes and cook for about {8 minutes}, stirring often, until they have completely broken down and the mixture is quite thick. Remove from the heat and set aside to cool. Once cool, transfer the mix to a medium bowl along with the chicken, coriander, <1> teaspoon of salt and a good grind of black pepper. Mix well to combine and set aside."
    },
    {
      "group": -1,
      "text": "Preheat the oven to [180°C] fan."
    },
    {
      "group": -1,
      "text": "Using a serrated knife, slice the pitas open to create two separate rounds. Place them on a clean work surface, cut side up. Spread one of the rounds with about <140-150> g of the chicken mix – it should be about <¾> cm thick – then place an unfilled pita on top, pressing down gently to make a sandwich. Continue with the remaining chicken mixture and pita slices to make <4> sandwiches in total."
    },
    {
      "group": -1,
      "text": "Put <10> g of butter and <1> tablespoon of oil into a large frying pan and place on a medium-high heat. Add <2> of the sandwiches to the pan and cook for {2-3 minutes}, turning after a minute or so until both sides have taken on some colour. Transfer to a large parchment-lined baking tray and blot gently with some kitchen paper to soak up any excess oil. Continue with the remaining sandwiches, adding another <10> g of butter and tablespoon of oil to the pan with each batch. Once they are all pan-fried, transfer the tray to the oven and bake for {7 minutes}, or until cooked through. Remove from the oven and set aside to cool for about {5 minutes} before slicing each pita into <4>. Serve warm, with a wedge of lemon and some tahini sauce alongside to dip into, if using."
    }
  ],
  "lowEffort": false,
  "miseEnPlace": false,
  "name": "Spiced chicken arayes",
  "notes": null,
  "nutFree": false,
  "nutrition": null,
  "prepTime": "PT20M",
  "rating": "Neutral",
  "slug": "spiced-chicken-arayes",
  "source": "Falastin",
  "tags": null,
  "totalTime": "PT50M",
  "units": "metric",
  "url": null,
  "vegan": false,
  "yield_": "2"
}