{
  "archiveTimestamp": null,
  "archiveUrl": null,
  "category": "Seafood",
  "cookTime": "PT15M",
  "cuisine": null,
  "dairyFree": false,
  "dateCooked": "2016-09-13",
  "deadUrl": false,
  "description": null,
  "future": false,
  "glutenFree": false,
  "image": "spiced-cod.webp",
  "inactiveTime": "PT30M",
  "ingredient_headings": {
    "1": "Sauce"
  },
  "ingredients": [
    {
      "comment": "",
      "fdc_id": "1104647",
      "formatted_quantity": "1",
      "group": 1,
      "name": "garlic",
      "prep": "",
      "quantity": "1",
      "synonym": "",
      "unit": "clove"
    },
    {
      "comment": "",
      "fdc_id": "790577",
      "formatted_quantity": "½",
      "group": 1,
      "name": "red onion",
      "prep": "",
      "quantity": "0.5",
      "synonym": "",
      "unit": ""
    },
    {
      "comment": "",
      "fdc_id": "172231",
      "formatted_quantity": "½",
      "group": 1,
      "name": "turmeric",
      "prep": "",
      "quantity": "0.5",
      "synonym": "",
      "unit": "tsp"
    },
    {
      "comment": "",
      "fdc_id": "",
      "formatted_quantity": "1",
      "group": 1,
      "name": "greshly grated ginger",
      "prep": "",
      "quantity": "1",
      "synonym": "",
      "unit": "tbsp"
    },
    {
      "comment": "",
      "fdc_id": "170106",
      "formatted_quantity": "½",
      "group": 1,
      "name": "fat red chilli",
      "prep": "deseeded and chopped",
      "quantity": "0.5",
      "synonym": "",
      "unit": ""
    },
    {
      "comment": "",
      "fdc_id": "2341881",
      "formatted_quantity": "2",
      "group": 1,
      "name": "fish sauce",
      "prep": "",
      "quantity": "2",
      "synonym": "",
      "unit": "tsp"
    },
    {
      "comment": "",
      "fdc_id": "1750351",
      "formatted_quantity": "1",
      "group": 1,
      "name": "olive oil",
      "prep": "",
      "quantity": "1",
      "synonym": "",
      "unit": "tbsp"
    },
    {
      "comment": "",
      "fdc_id": "2341655",
      "formatted_quantity": "600",
      "group": -1,
      "name": "cod fillets",
      "prep": "cut into bitesized pieces",
      "quantity": "600",
      "synonym": "fish",
      "unit": "g"
    },
    {
      "comment": "",
      "fdc_id": "2345302",
      "formatted_quantity": "1",
      "group": -1,
      "name": "freshly chopped coriander",
      "prep": "",
      "quantity": "1",
      "synonym": "coriander",
      "unit": "tbsp"
    },
    {
      "comment": "",
      "fdc_id": "2343892",
      "formatted_quantity": "1½",
      "group": -1,
      "name": "basmati rice",
      "prep": "",
      "quantity": "1.5",
      "synonym": "",
      "unit": "mugs"
    },
    {
      "comment": "",
      "fdc_id": "2345507",
      "formatted_quantity": "200",
      "group": -1,
      "name": "mangetout",
      "prep": "",
      "quantity": "200",
      "synonym": "",
      "unit": "g"
    },
    {
      "comment": "(optional)",
      "fdc_id": "",
      "formatted_quantity": "2",
      "group": -1,
      "name": "toasted flaked almonds",
      "prep": "",
      "quantity": "2",
      "synonym": "almonds",
      "unit": "tbsp"
    }
  ],
  "instruction_headings": null,
  "instructions": [
    {
      "group": -1,
      "text": "Put the sauce ingredients in a blender and blitz.  "
    },
    {
      "group": -1,
      "text": "Put the fish in an oven proof dish and pour over the sauce. Season with salt and pepper and leave to marinade for about {30 minutes}. Meanwhile, cook the rice. "
    },
    {
      "group": -1,
      "text": "Preheat the grill and place the fish under the grill for about {5 minutes} on a high heat.  "
    },
    {
      "group": -1,
      "text": "Slice the mangetout lengthways into thin strips, add to the rice pan and leave to simmer for a further {2 minutes}. Add the almonds and mix together. Serve with the fish.  "
    }
  ],
  "lowEffort": false,
  "miseEnPlace": false,
  "name": "Spiced cod",
  "notes": null,
  "nutFree": false,
  "nutrition": null,
  "prepTime": "PT10M",
  "rating": "Neutral",
  "slug": "spiced-cod",
  "source": "Nosh for graduates",
  "tags": null,
  "totalTime": "PT25M",
  "units": "metric",
  "url": null,
  "vegan": false,
  "yield_": "4"
}