{
  "archiveTimestamp": "2023-11-22 11:40:48",
  "archiveUrl": "https://web.archive.org/web/20231122114048/https://www.chinghehuang.com/2021/04/15/spicy-bacon-broccoli/",
  "category": "Pork",
  "cookTime": "PT5M",
  "cuisine": "Asian",
  "dairyFree": false,
  "dateCooked": "2021-04-20",
  "deadUrl": false,
  "description": "A little bacon goes a long way.",
  "future": false,
  "glutenFree": false,
  "image": "spicy-bacon-broccoli.webp",
  "inactiveTime": null,
  "ingredient_headings": null,
  "ingredients": [
    {
      "comment": "",
      "fdc_id": "",
      "formatted_quantity": "2",
      "group": -1,
      "name": "groundnut oil",
      "prep": "",
      "quantity": "2",
      "synonym": "",
      "unit": "tbsp"
    },
    {
      "comment": "",
      "fdc_id": "",
      "formatted_quantity": "2",
      "group": -1,
      "name": "whole red dried chillis",
      "prep": "torn",
      "quantity": "2",
      "synonym": "dried chillis",
      "unit": ""
    },
    {
      "comment": "",
      "fdc_id": "1104647",
      "formatted_quantity": "2",
      "group": -1,
      "name": "garlic",
      "prep": "crushed, peeled and finely chopped",
      "quantity": "2",
      "synonym": "",
      "unit": "cloves"
    },
    {
      "comment": "",
      "fdc_id": "169231",
      "formatted_quantity": "1",
      "group": -1,
      "name": "fresh root ginger",
      "prep": "peeled and finely grated",
      "quantity": "1",
      "synonym": "ginger",
      "unit": "inch"
    },
    {
      "comment": "",
      "fdc_id": "",
      "formatted_quantity": "180",
      "group": -1,
      "name": "smoky bacon lardons",
      "prep": "diced",
      "quantity": "180",
      "synonym": "bacon lardons",
      "unit": "g"
    },
    {
      "comment": "",
      "fdc_id": "169331",
      "formatted_quantity": "200",
      "group": -1,
      "name": "Tenderstem broccoli",
      "prep": "washed, sliced to 1 inch pieces on the angle",
      "quantity": "200",
      "synonym": "",
      "unit": "g"
    },
    {
      "comment": "",
      "fdc_id": "",
      "formatted_quantity": "1",
      "group": -1,
      "name": "organic carrot",
      "prep": "sliced in half lengthwise in the middle, half again, then 2 inch pieces on the angle",
      "quantity": "1",
      "synonym": "carrot",
      "unit": "large"
    },
    {
      "comment": "",
      "fdc_id": "",
      "formatted_quantity": "2",
      "group": -1,
      "name": "Shaosing rice wine",
      "prep": "",
      "quantity": "2",
      "synonym": "",
      "unit": "tbsp"
    },
    {
      "comment": "",
      "fdc_id": "",
      "formatted_quantity": "2",
      "group": -1,
      "name": "Chinkiang black rice vinegar",
      "prep": "",
      "quantity": "2",
      "synonym": "",
      "unit": "tbsp"
    },
    {
      "comment": "",
      "fdc_id": "",
      "formatted_quantity": "1",
      "group": -1,
      "name": "low sodium light soy sauce",
      "prep": "",
      "quantity": "1",
      "synonym": "light soy sauce",
      "unit": "tbsp"
    }
  ],
  "instruction_headings": null,
  "instructions": [
    {
      "group": -1,
      "text": "Heat a wok over high heat and add the groundnut oil. Add to the wok, the garlic and ginger, then tear the dried chilli pieces, and toss for a few seconds. Then quickly add the bacon lardons and stir-fry for {1 minute} until browned."
    },
    {
      "group": -1,
      "text": "Add the Shaosing rice wine or dry sherry. Then add the carrot and Tenderstem broccoli pieces and cook tossing for {1 minute}. Season with Chinkiang black rice vinegar. Cook for <1> more minute until the veggies are crisp then add the light soy sauce. Toss together well and then serve immediately with Jasmine rice. "
    }
  ],
  "lowEffort": false,
  "miseEnPlace": false,
  "name": "Spicy bacon broccoli",
  "notes": null,
  "nutFree": false,
  "nutrition": {
    "calories": 403,
    "carbohydrates": 10.5,
    "fat": 31,
    "fibre": 6.2,
    "protein": 20.7,
    "salt": 1.176,
    "saturates": 9.6,
    "sugars": 6.7
  },
  "prepTime": "PT5M",
  "rating": "Neutral",
  "slug": "spicy-bacon-broccoli",
  "source": "www.chinghehuang.com",
  "tags": null,
  "totalTime": "PT10M",
  "units": "metric",
  "url": "https://www.chinghehuang.com/recipes/spicy-bacon-broccoli",
  "vegan": false,
  "yield_": "2"
}