{
  "archiveTimestamp": null,
  "archiveUrl": null,
  "category": "Veggie",
  "cookTime": "PT15M",
  "cuisine": null,
  "dairyFree": false,
  "dateCooked": "2024-07-05",
  "deadUrl": false,
  "description": "This is a good quick storecupboard pasta bake. I often buy jars of ready roasted red peppers, then don’t know what to do with them – this is a perfect way to use them up. You can use any cheese you have lying about – I like the contrast of blue cheese with this, but feta or goat’s cheese would be just as good.",
  "future": false,
  "glutenFree": false,
  "image": "storecupboard-pasta-bake-crispy-red-pepper-cannellini-beans-with-blue-cheese.webp",
  "inactiveTime": null,
  "ingredient_headings": null,
  "ingredients": [
    {
      "comment": "",
      "fdc_id": "1999634",
      "formatted_quantity": "300",
      "group": -1,
      "name": "vine tomatoes",
      "prep": "quartered",
      "quantity": "300",
      "synonym": "tomatoes",
      "unit": "g"
    },
    {
      "comment": "",
      "fdc_id": "168927",
      "formatted_quantity": "200",
      "group": -1,
      "name": "macaroni",
      "prep": "",
      "quantity": "200",
      "synonym": "",
      "unit": "g"
    },
    {
      "comment": "",
      "fdc_id": "1750351",
      "formatted_quantity": "2",
      "group": -1,
      "name": "olive oil",
      "prep": "",
      "quantity": "2",
      "synonym": "",
      "unit": "tbsp"
    },
    {
      "comment": "",
      "fdc_id": "172233",
      "formatted_quantity": "25",
      "group": -1,
      "name": "fresh dill",
      "prep": "roughly chopped",
      "quantity": "25",
      "synonym": "",
      "unit": "g"
    },
    {
      "comment": "",
      "fdc_id": "2345316",
      "formatted_quantity": "25",
      "group": -1,
      "name": "fresh flat-leaf parsley",
      "prep": "roughly chopped",
      "quantity": "25",
      "synonym": "",
      "unit": "g"
    },
    {
      "comment": "",
      "fdc_id": "2258590",
      "formatted_quantity": "1x",
      "group": -1,
      "name": "roasted red peppers",
      "prep": "drained and roughly chopped",
      "quantity": "1x",
      "synonym": "red peppers",
      "unit": "450 g jar"
    },
    {
      "comment": "",
      "fdc_id": "2345617",
      "formatted_quantity": "160",
      "group": -1,
      "name": "pitted black olives",
      "prep": "halved",
      "quantity": "160",
      "synonym": "black olives",
      "unit": "g"
    },
    {
      "comment": "",
      "fdc_id": "2644287",
      "formatted_quantity": "1x",
      "group": -1,
      "name": "cannellini beans",
      "prep": "drained and rinsed",
      "quantity": "1x",
      "synonym": "",
      "unit": "400 g"
    },
    {
      "comment": "",
      "fdc_id": "170005",
      "formatted_quantity": "3",
      "group": -1,
      "name": "spring onions",
      "prep": "finely chopped",
      "quantity": "3",
      "synonym": "",
      "unit": ""
    },
    {
      "comment": "",
      "fdc_id": "171329",
      "formatted_quantity": "2",
      "group": -1,
      "name": "smoked paprika",
      "prep": "",
      "quantity": "2",
      "synonym": "",
      "unit": "tsp"
    },
    {
      "comment": "juice only",
      "fdc_id": "2344662",
      "formatted_quantity": "½",
      "group": -1,
      "name": "lemon",
      "prep": "",
      "quantity": "0.5",
      "synonym": "",
      "unit": ""
    },
    {
      "comment": "",
      "fdc_id": "",
      "formatted_quantity": "100",
      "group": -1,
      "name": "blue cheese",
      "prep": "roughly crumbled",
      "quantity": "100",
      "synonym": "",
      "unit": "g"
    },
    {
      "comment": "",
      "fdc_id": "",
      "formatted_quantity": "1",
      "group": -1,
      "name": "sea salt",
      "prep": "",
      "quantity": "1",
      "synonym": "",
      "unit": "tsp"
    },
    {
      "comment": "",
      "fdc_id": "170931",
      "formatted_quantity": "",
      "group": -1,
      "name": "black pepper",
      "prep": "freshly ground",
      "quantity": "",
      "synonym": "",
      "unit": ""
    },
    {
      "comment": "",
      "fdc_id": "",
      "formatted_quantity": "50",
      "group": -1,
      "name": "panko breadcrumbs",
      "prep": "",
      "quantity": "50",
      "synonym": "breadcrumbs",
      "unit": "g"
    }
  ],
  "instruction_headings": null,
  "instructions": [
    {
      "group": -1,
      "text": "Preheat the grill to max. Tip the tomatoes into a small lasagne dish, transfer to the oven and grill for {5-10 minutes}, until softened."
    },
    {
      "group": -1,
      "text": "Meanwhile, bring a large pan of salted water to the boil and cook the macaroni for {9-11 minutes}, or according to the packet instructions, until just al dente."
    },
    {
      "group": -1,
      "text": "Drain the pasta, then stir in the grilled tomatoes, olive oil, herbs, red peppers, black olives, cannellini beans, spring onions, smoked paprika, lemon juice, half the cheese, the sea salt and a good grind of black pepper. Taste and adjust the lemon juice, salt and olive oil as needed."
    },
    {
      "group": -1,
      "text": "Return the mixture to the lasagne dish, and scatter over the remaining cheese and the breadcrumbs. Drizzle with a little olive oil, then return to the grill for {3-5 minutes}, until crisp and golden brown. Serve hot. Leftovers are excellent in a lunchbox."
    }
  ],
  "lowEffort": false,
  "miseEnPlace": false,
  "name": "Storecupboard pasta bake: crispy red pepper & cannellini beans with blue cheese",
  "notes": null,
  "nutFree": false,
  "nutrition": null,
  "prepTime": "PT10M",
  "rating": "Neutral",
  "slug": "storecupboard-pasta-bake-crispy-red-pepper-cannellini-beans-with-blue-cheese",
  "source": "The Quick Roasting Tin",
  "tags": null,
  "totalTime": "PT25M",
  "units": "metric",
  "url": null,
  "vegan": false,
  "yield_": "4"
}