{
  "archiveTimestamp": null,
  "archiveUrl": null,
  "category": "Veggie",
  "cookTime": "PT12M",
  "cuisine": null,
  "dairyFree": false,
  "dateCooked": "2021-07-12",
  "deadUrl": false,
  "description": "Homemade pizza is easier to make than you think and needn't be loaded with fat. The portions are quite generous, so any lefovers can be enjoyed cold for lunch the next day.",
  "future": false,
  "glutenFree": false,
  "image": "superhealthy-pizza.webp",
  "inactiveTime": "PT20M",
  "ingredient_headings": {
    "1": "For the topping"
  },
  "ingredients": [
    {
      "comment": "half strong white flour, half wholewheat flour",
      "fdc_id": "790018",
      "formatted_quantity": "200",
      "group": -1,
      "name": "flour",
      "prep": "",
      "quantity": "200",
      "synonym": "flours",
      "unit": "g"
    },
    {
      "comment": "",
      "fdc_id": "",
      "formatted_quantity": "7",
      "group": -1,
      "name": "sachet fast-action dried yeast",
      "prep": "",
      "quantity": "7",
      "synonym": "yeast",
      "unit": "g"
    },
    {
      "comment": "",
      "fdc_id": "173647",
      "formatted_quantity": "125",
      "group": -1,
      "name": "warm water",
      "prep": "",
      "quantity": "125",
      "synonym": "water",
      "unit": "ml"
    },
    {
      "comment": "",
      "fdc_id": "333281",
      "formatted_quantity": "200",
      "group": 1,
      "name": "chopped tomatoes",
      "prep": "juice drained",
      "quantity": "200",
      "synonym": "canned tomatoes",
      "unit": "g can"
    },
    {
      "comment": "",
      "fdc_id": "2378728",
      "formatted_quantity": "",
      "group": 1,
      "name": "cherry tomatoes",
      "prep": "halved",
      "quantity": "",
      "synonym": "",
      "unit": "handful"
    },
    {
      "comment": "",
      "fdc_id": "2345328",
      "formatted_quantity": "1",
      "group": 1,
      "name": "courgette",
      "prep": "thinly sliced using a peeler",
      "quantity": "1",
      "synonym": "",
      "unit": "large"
    },
    {
      "comment": "",
      "fdc_id": "329370",
      "formatted_quantity": "25",
      "group": 1,
      "name": "mozzarella",
      "prep": "torn into pieces",
      "quantity": "25",
      "synonym": "",
      "unit": "g"
    },
    {
      "comment": "",
      "fdc_id": "172238",
      "formatted_quantity": "1",
      "group": 1,
      "name": "capers",
      "prep": "",
      "quantity": "1",
      "synonym": "",
      "unit": "tsp"
    },
    {
      "comment": "",
      "fdc_id": "",
      "formatted_quantity": "8",
      "group": 1,
      "name": "pitted olives",
      "prep": "roughly chopped",
      "quantity": "8",
      "synonym": "olives",
      "unit": ""
    },
    {
      "comment": "",
      "fdc_id": "1104647",
      "formatted_quantity": "1",
      "group": 1,
      "name": "garlic",
      "prep": "finely chopped",
      "quantity": "1",
      "synonym": "",
      "unit": "clove"
    },
    {
      "comment": "",
      "fdc_id": "1750351",
      "formatted_quantity": "1",
      "group": 1,
      "name": "olive oil",
      "prep": "",
      "quantity": "1",
      "synonym": "oil",
      "unit": "tbsp"
    },
    {
      "comment": "(optional)",
      "fdc_id": "2345316",
      "formatted_quantity": "2",
      "group": 1,
      "name": "chopped parsley",
      "prep": "",
      "quantity": "2",
      "synonym": "",
      "unit": "tbsp"
    }
  ],
  "instruction_headings": null,
  "instructions": [
    {
      "group": -1,
      "text": "Mix the flours and yeast in a bowl, Pour in the water and mix to a soft dough. Tip out onto a very lightly floured surface and knead for {5 mins} until smooth and elastic. Press or roll out to around about <30> cm across then lift onto an oiled baking sheet."
    },
    {
      "group": -1,
      "text": "Spread the canned tomatoes over the dough to within <2> cm of the edges. Arrange the cherry tomatoes and courgette over the top, then scatter with the mozzarella. Scatter the capers, olives and garlic over the top and drizzle evenly with the oil. Cover lightly with cling film and leave to rise for {20 mins} in a warm place."
    },
    {
      "group": -1,
      "text": "Heat oven to [220°C]/gas <9> or the highest setting then bake the pizza for {10-12 mins} until crisp and golden around edges. Scatter with the parsley, if using: and serve in wedges with salad."
    }
  ],
  "lowEffort": false,
  "miseEnPlace": false,
  "name": "Superhealthy pizza",
  "notes": null,
  "nutFree": false,
  "nutrition": {
    "calories": 479,
    "carbohydrates": 78,
    "fat": 13,
    "fibre": 10,
    "protein": 19,
    "salt": 1.4,
    "saturates": 3,
    "sugars": 9
  },
  "prepTime": "PT13M",
  "rating": "Neutral",
  "slug": "superhealthy-pizza",
  "source": "BBC Good Food: Cheap & Healthy",
  "tags": null,
  "totalTime": "PT25M",
  "units": "metric",
  "url": null,
  "vegan": false,
  "yield_": "2"
}