{
  "archiveTimestamp": "2023-11-22 12:22:18",
  "archiveUrl": "https://web.archive.org/web/20231122122218/https://www.joyfulhealthyeats.com/teriyaki-salmon-with-asian-noodle-salad/",
  "category": "Seafood",
  "cookTime": "PT15M",
  "cuisine": null,
  "dairyFree": false,
  "dateCooked": "2021-03-20",
  "deadUrl": false,
  "description": "Easy Teriyaki Salmon served on a bed of Asian Noodles made with brown rice noodles, fresh veggies and a homemade Asian Sesame Dressing! A light, simple refreshing recipe for the summer!",
  "future": false,
  "glutenFree": true,
  "image": "teriyaki-salmon-with-asian-noodle-salad.webp",
  "inactiveTime": "PT20M",
  "ingredient_headings": {
    "1": "Teriyaki Salmon",
    "2": "Asian Noodle Salad",
    "3": "Sesame Dressing"
  },
  "ingredients": [
    {
      "comment": "",
      "fdc_id": "",
      "formatted_quantity": "2",
      "group": 1,
      "name": "rape seed oil",
      "prep": "",
      "quantity": "2",
      "synonym": "",
      "unit": "tbsp"
    },
    {
      "comment": "",
      "fdc_id": 2341700,
      "formatted_quantity": "4x",
      "group": 1,
      "name": "salmon",
      "prep": "",
      "quantity": "4x",
      "synonym": "",
      "unit": "4 oz filets"
    },
    {
      "comment": "",
      "fdc_id": 2345841,
      "formatted_quantity": "2",
      "group": 1,
      "name": "honey",
      "prep": "",
      "quantity": "2",
      "synonym": "",
      "unit": "tbsp"
    },
    {
      "comment": "",
      "fdc_id": "",
      "formatted_quantity": "2",
      "group": 1,
      "name": "tamari sauce or soy sauce",
      "prep": "",
      "quantity": "2",
      "synonym": "tamari sauce",
      "unit": "tbsp"
    },
    {
      "comment": "",
      "fdc_id": 2344678,
      "formatted_quantity": "1",
      "group": 1,
      "name": "lime juice",
      "prep": "",
      "quantity": "1",
      "synonym": "",
      "unit": "tbsp"
    },
    {
      "comment": "",
      "fdc_id": "",
      "formatted_quantity": "1",
      "group": 1,
      "name": "rice vinegar",
      "prep": "",
      "quantity": "1",
      "synonym": "",
      "unit": "tbsp"
    },
    {
      "comment": "",
      "fdc_id": 1104647,
      "formatted_quantity": "1",
      "group": 1,
      "name": "garlic",
      "prep": "minced",
      "quantity": "1",
      "synonym": "",
      "unit": "clove"
    },
    {
      "comment": "",
      "fdc_id": 169231,
      "formatted_quantity": "1",
      "group": 1,
      "name": "fresh ginger",
      "prep": "minced",
      "quantity": "1",
      "synonym": "ginger",
      "unit": "tsp"
    },
    {
      "comment": "",
      "fdc_id": "",
      "formatted_quantity": "1",
      "group": 1,
      "name": "garlic-chilli paste",
      "prep": "",
      "quantity": "1",
      "synonym": "",
      "unit": "tsp"
    },
    {
      "comment": "",
      "fdc_id": "",
      "formatted_quantity": "8",
      "group": 2,
      "name": "whole what rice noodles",
      "prep": "",
      "quantity": "8",
      "synonym": "",
      "unit": "oz"
    },
    {
      "comment": "",
      "fdc_id": 169383,
      "formatted_quantity": "1",
      "group": 2,
      "name": "yellow pepper",
      "prep": "julienned",
      "quantity": "1",
      "synonym": "",
      "unit": ""
    },
    {
      "comment": "",
      "fdc_id": 2258590,
      "formatted_quantity": "1",
      "group": 2,
      "name": "red pepper",
      "prep": "julienned",
      "quantity": "1",
      "synonym": "",
      "unit": ""
    },
    {
      "comment": "",
      "fdc_id": "",
      "formatted_quantity": "1",
      "group": 2,
      "name": "snap peas",
      "prep": "sliced",
      "quantity": "1",
      "synonym": "",
      "unit": "cup"
    },
    {
      "comment": "",
      "fdc_id": 2346406,
      "formatted_quantity": "1",
      "group": 2,
      "name": "cucumber",
      "prep": "julienned",
      "quantity": "1",
      "synonym": "cucumber",
      "unit": "cup"
    },
    {
      "comment": "",
      "fdc_id": 170005,
      "formatted_quantity": "½",
      "group": 2,
      "name": "green onions",
      "prep": "sliced",
      "quantity": "0.5",
      "synonym": "",
      "unit": "cup"
    },
    {
      "comment": "",
      "fdc_id": "",
      "formatted_quantity": "4½",
      "group": 3,
      "name": "rice vinegar",
      "prep": "",
      "quantity": "4.5",
      "synonym": "",
      "unit": "tbsp"
    },
    {
      "comment": "",
      "fdc_id": 2345747,
      "formatted_quantity": "3",
      "group": 3,
      "name": "sesame oil",
      "prep": "",
      "quantity": "3",
      "synonym": "",
      "unit": "tbsp"
    },
    {
      "comment": "",
      "fdc_id": 2345302,
      "formatted_quantity": "1",
      "group": 3,
      "name": "chopped fresh cilantro",
      "prep": "",
      "quantity": "1",
      "synonym": "",
      "unit": "tbsp"
    },
    {
      "comment": "",
      "fdc_id": 2345841,
      "formatted_quantity": "2½",
      "group": 3,
      "name": "honey",
      "prep": "",
      "quantity": "2.5",
      "synonym": "",
      "unit": "tsp"
    },
    {
      "comment": "",
      "fdc_id": 2344678,
      "formatted_quantity": "1",
      "group": 3,
      "name": "fresh lime juice",
      "prep": "",
      "quantity": "1",
      "synonym": "",
      "unit": "tsp"
    },
    {
      "comment": "",
      "fdc_id": 171186,
      "formatted_quantity": "1",
      "group": 3,
      "name": "sriracha",
      "prep": "",
      "quantity": "1",
      "synonym": "",
      "unit": "tsp"
    },
    {
      "comment": "",
      "fdc_id": 1104647,
      "formatted_quantity": "1",
      "group": 3,
      "name": "garlic",
      "prep": "minced",
      "quantity": "1",
      "synonym": "",
      "unit": "clove"
    },
    {
      "comment": "",
      "fdc_id": 169231,
      "formatted_quantity": "½",
      "group": 3,
      "name": "fresh ginger",
      "prep": "minced",
      "quantity": "0.5",
      "synonym": "",
      "unit": "tsp"
    }
  ],
  "instruction_headings": null,
  "instructions": [
    {
      "group": -1,
      "text": "To a small bowl add, <2> tablespoons honey, tamari sauce, <1> tablespoon lime juice, <1> tablespoon rice vinegar, <1> garlic clove, <1> teaspoon ginger, and garlic-chili paste. Whisk together."
    },
    {
      "group": -1,
      "text": "Add salmon filets to large ziplock bag. Pour the marinade mixture into the ziplock bag with the salmon. Close and place in the refrigerator for {15-20 minutes}."
    },
    {
      "group": -1,
      "text": "In a small bowl, add <4½> tablespoons rice vinegar, <3> tablespoons sesame oil, <2> <½> teaspoons honey, <1> teaspoon lime juice, <1> teaspoon sriracha, <1> garlic clove, and <½> teaspoon fresh ginger. Whisk together until combined. Set aside."
    },
    {
      "group": -1,
      "text": "Bring a large pot of water to a bowl. Add rice noodles in a cook for {1-2 minutes}. Immediately remove. Drain with cold water."
    },
    {
      "group": -1,
      "text": "Add noodles to a large bowl with yellow pepper, red pepper, snap peas, cucumber, and green onions. Pour sesame dressing over the noodles. Gently toss until all the noodles are coated with the dressing. Set aside."
    },
    {
      "group": -1,
      "text": "Remove salmon from the refrigerator."
    },
    {
      "group": -1,
      "text": "Heat a large nonstick skillet to medium high heat. Add rape seed oil to pan. Add salmon to the pan flesh side down first. Sear for {4-5 minutes}. Flip and cook with skin side down about {4-5 minutes}."
    },
    {
      "group": -1,
      "text": "Serve salmon on a bed of asian noodle salad."
    },
    {
      "group": -1,
      "text": "Optional: garnish with sesame seeds."
    }
  ],
  "lowEffort": false,
  "miseEnPlace": false,
  "name": "Teriyaki salmon with asian noodle salad",
  "notes": null,
  "nutFree": false,
  "nutrition": null,
  "prepTime": "PT30M",
  "rating": "Neutral",
  "slug": "teriyaki-salmon-with-asian-noodle-salad",
  "source": "www.joyfulhealthyeats.com",
  "tags": null,
  "totalTime": "PT45M",
  "units": "imperial",
  "url": "https://www.joyfulhealthyeats.com/teriyaki-salmon-with-asian-noodle-salad/",
  "vegan": false,
  "yield_": "4-6"
}