{
  "archiveTimestamp": null,
  "archiveUrl": null,
  "category": "Pork",
  "cookTime": "PT15M",
  "cuisine": "Thai",
  "dairyFree": false,
  "dateCooked": "2015-10-31",
  "deadUrl": false,
  "description": "Gluten-free: make sure the curry sauce and fish sauce are gluten-free.",
  "future": false,
  "glutenFree": true,
  "image": "thai-pork-curry.webp",
  "inactiveTime": null,
  "ingredient_headings": null,
  "ingredients": [
    {
      "comment": "",
      "fdc_id": 2345747,
      "formatted_quantity": "1",
      "group": -1,
      "name": "toasted sesame oil",
      "prep": "",
      "quantity": "1",
      "synonym": "oil",
      "unit": "tbsp"
    },
    {
      "comment": "",
      "fdc_id": 2646168,
      "formatted_quantity": "3",
      "group": -1,
      "name": "pork steaks",
      "prep": "cut into strips",
      "quantity": "3",
      "synonym": "",
      "unit": ""
    },
    {
      "comment": "",
      "fdc_id": 170005,
      "formatted_quantity": "6",
      "group": -1,
      "name": "spring onions",
      "prep": "",
      "quantity": "6",
      "synonym": "",
      "unit": ""
    },
    {
      "comment": "",
      "fdc_id": 2258590,
      "formatted_quantity": "1",
      "group": -1,
      "name": "red pepper",
      "prep": "cut into 2 cm chunks",
      "quantity": "1",
      "synonym": "",
      "unit": ""
    },
    {
      "comment": "",
      "fdc_id": 1999629,
      "formatted_quantity": "125",
      "group": -1,
      "name": "mushrooms",
      "prep": "sliced",
      "quantity": "125",
      "synonym": "",
      "unit": "g"
    },
    {
      "comment": "",
      "fdc_id": "",
      "formatted_quantity": "400",
      "group": -1,
      "name": "thick and creamy coconut milk",
      "prep": "",
      "quantity": "400",
      "synonym": "coconut milk",
      "unit": "ml"
    },
    {
      "comment": "",
      "fdc_id": "",
      "formatted_quantity": "2",
      "group": -1,
      "name": "Thai red curry paste",
      "prep": "",
      "quantity": "2",
      "synonym": "curry paste",
      "unit": "tbsp"
    },
    {
      "comment": "",
      "fdc_id": 2341881,
      "formatted_quantity": "1",
      "group": -1,
      "name": "fish sauce",
      "prep": "",
      "quantity": "1",
      "synonym": "",
      "unit": "tbsp"
    },
    {
      "comment": "",
      "fdc_id": "",
      "formatted_quantity": "1",
      "group": -1,
      "name": "bamboo shoots",
      "prep": "drained",
      "quantity": "1",
      "synonym": "",
      "unit": "can"
    },
    {
      "comment": "",
      "fdc_id": 2345820,
      "formatted_quantity": "1",
      "group": -1,
      "name": "brown sugar",
      "prep": "",
      "quantity": "1",
      "synonym": "sugar",
      "unit": "tsp"
    },
    {
      "comment": "",
      "fdc_id": 2345302,
      "formatted_quantity": "2",
      "group": -1,
      "name": "freshly chopped coriander",
      "prep": "",
      "quantity": "2",
      "synonym": "coriander",
      "unit": "tbsp"
    },
    {
      "comment": "",
      "fdc_id": "",
      "formatted_quantity": "2x",
      "group": -1,
      "name": "fresh rice noodles",
      "prep": "",
      "quantity": "2x",
      "synonym": "",
      "unit": "300 g packs"
    }
  ],
  "instruction_headings": null,
  "instructions": [
    {
      "group": -1,
      "text": "Heat the oil in a wok or large frying pan. Add the pork and fry on a high heat for {2-3 minutes}, or until it beings to brown. Remove from the pan. Set to one side until needed.  "
    },
    {
      "group": -1,
      "text": "Add the onions, peppers and mushrooms to the pan and fry for {2-3 minutes}, or until the peppers begin to brown.  "
    },
    {
      "group": -1,
      "text": "Add the coconut milk, curry paste and fish sauce to the pan and bring to the boil.  "
    },
    {
      "group": -1,
      "text": "Add the bamboo shoots, sugar and coriander to the pan, along with the pork and simmer for {1 minute}.  "
    },
    {
      "group": -1,
      "text": "Put the rice noodles in a bowl and poor boiling water over them. Leave to stand for {1 minute}, then drain. Serve with the curry."
    }
  ],
  "lowEffort": false,
  "miseEnPlace": false,
  "name": "Thai pork curry",
  "notes": null,
  "nutFree": false,
  "nutrition": null,
  "prepTime": "PT10M",
  "rating": "Neutral",
  "slug": "thai-pork-curry",
  "source": "Nosh: Quick & Easy",
  "tags": null,
  "totalTime": "PT25M",
  "units": "metric",
  "url": null,
  "vegan": false,
  "yield_": "4"
}