{
  "archiveTimestamp": "2024-01-17 12:36:45",
  "archiveUrl": "https://web.archive.org/web/20240117123645/https://www.halfbakedharvest.com/chicken-zucchini-meatball-curry/",
  "category": "Poultry",
  "cookTime": "PT20M",
  "cuisine": "Thai",
  "dairyFree": false,
  "dateCooked": "2024-01-20",
  "deadUrl": false,
  "description": "The perfect any night of the week dinner, served over rice, and made in under 30 minutes - YUM!",
  "future": false,
  "glutenFree": false,
  "image": "thai-chicken-zucchini-meatballs-in-coconut-curry.webp",
  "inactiveTime": null,
  "ingredient_headings": null,
  "ingredients": [
    {
      "comment": "",
      "fdc_id": 2341497,
      "formatted_quantity": "1",
      "group": -1,
      "name": "ground chicken",
      "prep": "",
      "quantity": "1",
      "synonym": "chicken",
      "unit": "pound"
    },
    {
      "comment": "",
      "fdc_id": 2345328,
      "formatted_quantity": "½",
      "group": -1,
      "name": "zucchini",
      "prep": "shredded",
      "quantity": "0.5",
      "synonym": "",
      "unit": "cups"
    },
    {
      "comment": "",
      "fdc_id": 170005,
      "formatted_quantity": "2",
      "group": -1,
      "name": "green onions",
      "prep": "chopped",
      "quantity": "2",
      "synonym": "",
      "unit": ""
    },
    {
      "comment": "",
      "fdc_id": 170499,
      "formatted_quantity": "2",
      "group": -1,
      "name": "shallots",
      "prep": "chopped",
      "quantity": "2",
      "synonym": "",
      "unit": ""
    },
    {
      "comment": "plus 1 tablespoon grated",
      "fdc_id": 169231,
      "formatted_quantity": "2",
      "group": -1,
      "name": "ginger",
      "prep": "",
      "quantity": "2",
      "synonym": "",
      "unit": "teaspoons"
    },
    {
      "comment": "",
      "fdc_id": 1104647,
      "formatted_quantity": "2",
      "group": -1,
      "name": "garlic",
      "prep": "grated",
      "quantity": "2",
      "synonym": "",
      "unit": "cloves"
    },
    {
      "comment": "",
      "fdc_id": 170932,
      "formatted_quantity": "¼",
      "group": -1,
      "name": "cayenne pepper",
      "prep": "",
      "quantity": "0.25",
      "synonym": "cayenne",
      "unit": "teaspoons"
    },
    {
      "comment": "",
      "fdc_id": 170931,
      "formatted_quantity": "",
      "group": -1,
      "name": "black pepper",
      "prep": "",
      "quantity": "",
      "synonym": "",
      "unit": ""
    },
    {
      "comment": "",
      "fdc_id": 2342917,
      "formatted_quantity": "2",
      "group": -1,
      "name": "tamari/soy sauce",
      "prep": "",
      "quantity": "2",
      "synonym": "",
      "unit": "teaspoons"
    },
    {
      "comment": "",
      "fdc_id": 748608,
      "formatted_quantity": "3",
      "group": -1,
      "name": "extra virgin olive oil",
      "prep": "",
      "quantity": "3",
      "synonym": "",
      "unit": "tablespoons"
    },
    {
      "comment": "",
      "fdc_id": 2258590,
      "formatted_quantity": "1",
      "group": -1,
      "name": "red bell pepper",
      "prep": "sliced",
      "quantity": "1",
      "synonym": "bell peppers",
      "unit": ""
    },
    {
      "comment": "",
      "fdc_id": 790508,
      "formatted_quantity": "2",
      "group": -1,
      "name": "salted butter",
      "prep": "",
      "quantity": "2",
      "synonym": "butter",
      "unit": "tablespoons"
    },
    {
      "comment": "",
      "fdc_id": "",
      "formatted_quantity": "1-3",
      "group": -1,
      "name": "Thai red curry paste",
      "prep": "",
      "quantity": "1-3",
      "synonym": "curry paste",
      "unit": "tablespoons"
    },
    {
      "comment": "14 ounces",
      "fdc_id": 2343044,
      "formatted_quantity": "1",
      "group": -1,
      "name": "coconut milk",
      "prep": "",
      "quantity": "1",
      "synonym": "",
      "unit": "can"
    },
    {
      "comment": "",
      "fdc_id": 2342917,
      "formatted_quantity": "3",
      "group": -1,
      "name": "tamari/soy sauce",
      "prep": "",
      "quantity": "3",
      "synonym": "tamari or soy sauce",
      "unit": "tablespoons"
    },
    {
      "comment": "",
      "fdc_id": 2345302,
      "formatted_quantity": "¼",
      "group": -1,
      "name": "fresh cilantro",
      "prep": "chopped",
      "quantity": "0.25",
      "synonym": "cilantro",
      "unit": "cups"
    },
    {
      "comment": "for serving",
      "fdc_id": "",
      "formatted_quantity": "",
      "group": -1,
      "name": "basil and limes",
      "prep": "",
      "quantity": "",
      "synonym": "",
      "unit": ""
    }
  ],
  "instruction_headings": null,
  "instructions": [
    {
      "group": -1,
      "text": "Add the chicken, zucchini, green onions, <1> shallot, <2> teaspoons ginger, <1> clove garlic, cayenne, a pinch of pepper, and <2> teaspoons tamari/soy sauce to a bowl. Mix to combine. Coat your hands with oil, and roll the meat into tablespoon-size balls (will make <15-16> meatballs). "
    },
    {
      "group": -1,
      "text": "Heat a large skillet with sides over medium-high heat. Add <2> tablespoons of olive oil and the meatballs. Sear until crisp, {4-5 minutes}, turning them <2-3> times. Move to a plate."
    },
    {
      "group": -1,
      "text": "To the same skillet, add the remaining <1> tablespoon of oil, <1> shallot, <1> garlic clove, <1> tablespoon of ginger, the bell peppers, butter, and curry paste. Cook until fragrant, {2 minutes}. Stir in the coconut milk and <3> tablespoons of tamari or soy sauce. Slide the meatballs into the curry sauce. Simmer over medium heat until the meatballs are cooked through, {5 minutes}. Stir in the cilantro."
    },
    {
      "group": -1,
      "text": "Serve the meatballs and sauce over rice with a squeeze of fresh lime, some fresh basil, and/or green onions."
    }
  ],
  "lowEffort": false,
  "miseEnPlace": false,
  "name": "Thai chicken zucchini meatballs in coconut curry",
  "notes": null,
  "nutFree": false,
  "nutrition": {
    "calories": 357,
    "carbohydrates": 0,
    "fat": 0,
    "fibre": 0,
    "protein": 0,
    "salt": 0,
    "saturates": 0,
    "sugars": 0
  },
  "prepTime": "PT10M",
  "rating": "Neutral",
  "slug": "thai-chicken-zucchini-meatballs-in-coconut-curry",
  "source": "www.halfbakedharvest.com",
  "tags": null,
  "totalTime": "PT30M",
  "units": "imperial",
  "url": "https://www.halfbakedharvest.com/chicken-zucchini-meatball-curry/",
  "vegan": false,
  "yield_": "4"
}