{
  "archiveTimestamp": null,
  "archiveUrl": null,
  "category": "Pork",
  "cookTime": "PT20M",
  "cuisine": null,
  "dairyFree": false,
  "dateCooked": "2016-02-16",
  "deadUrl": false,
  "description": null,
  "future": false,
  "glutenFree": false,
  "image": "traditional-pork-steaks-with-honey-and-mustard-sauce.webp",
  "inactiveTime": null,
  "ingredient_headings": {
    "1": "Sauce"
  },
  "ingredients": [
    {
      "comment": "",
      "fdc_id": "",
      "formatted_quantity": "12-14",
      "group": -1,
      "name": "new potatoes",
      "prep": "",
      "quantity": "12-14",
      "synonym": "potatoes",
      "unit": ""
    },
    {
      "comment": "",
      "fdc_id": "2258586",
      "formatted_quantity": "4",
      "group": -1,
      "name": "carrots",
      "prep": "cut into sticks",
      "quantity": "4",
      "synonym": "",
      "unit": ""
    },
    {
      "comment": "",
      "fdc_id": "2646168",
      "formatted_quantity": "2",
      "group": -1,
      "name": "pork steaks",
      "prep": "",
      "quantity": "2",
      "synonym": "pork",
      "unit": ""
    },
    {
      "comment": "",
      "fdc_id": "",
      "formatted_quantity": "200",
      "group": -1,
      "name": "pack green beans",
      "prep": "",
      "quantity": "200",
      "synonym": "beans",
      "unit": "g"
    },
    {
      "comment": "",
      "fdc_id": "790646",
      "formatted_quantity": "1",
      "group": 1,
      "name": "onion",
      "prep": "finely chopped",
      "quantity": "1",
      "synonym": "",
      "unit": ""
    },
    {
      "comment": "",
      "fdc_id": "169231",
      "formatted_quantity": "1½",
      "group": 1,
      "name": "grated ginger",
      "prep": "",
      "quantity": "1.5",
      "synonym": "ginger",
      "unit": "tbsp"
    },
    {
      "comment": "",
      "fdc_id": "384420",
      "formatted_quantity": "½",
      "group": 1,
      "name": "cumin",
      "prep": "",
      "quantity": "0.5",
      "synonym": "",
      "unit": "tsp"
    },
    {
      "comment": "",
      "fdc_id": "171320",
      "formatted_quantity": "¼",
      "group": 1,
      "name": "cinnamon",
      "prep": "",
      "quantity": "0.25",
      "synonym": "",
      "unit": "tsp"
    },
    {
      "comment": "",
      "fdc_id": "790018",
      "formatted_quantity": "1",
      "group": 1,
      "name": "flour",
      "prep": "",
      "quantity": "1",
      "synonym": "",
      "unit": "tsp"
    },
    {
      "comment": "",
      "fdc_id": "2345841",
      "formatted_quantity": "1",
      "group": 1,
      "name": "honey",
      "prep": "",
      "quantity": "1",
      "synonym": "",
      "unit": "tbsp"
    },
    {
      "comment": "",
      "fdc_id": "326698",
      "formatted_quantity": "1",
      "group": 1,
      "name": "wholegrain mustard",
      "prep": "",
      "quantity": "1",
      "synonym": "",
      "unit": "dessertspoon"
    },
    {
      "comment": "",
      "fdc_id": "173647",
      "formatted_quantity": "⅓",
      "group": 1,
      "name": "water",
      "prep": "",
      "quantity": "0.333",
      "synonym": "",
      "unit": "mug"
    },
    {
      "comment": "",
      "fdc_id": "",
      "formatted_quantity": "",
      "group": 1,
      "name": "salt and pepper",
      "prep": "",
      "quantity": "",
      "synonym": "",
      "unit": ""
    },
    {
      "comment": "",
      "fdc_id": "",
      "formatted_quantity": "",
      "group": 1,
      "name": "oil to fry",
      "prep": "",
      "quantity": "",
      "synonym": "",
      "unit": ""
    }
  ],
  "instruction_headings": null,
  "instructions": [
    {
      "group": -1,
      "text": "Put the water on to boil ready for the vegetables. Simmer the potatoes and carrots for {10-15 minutes} or until tender. After {10 minutes}, put the beans into the same pan.  "
    },
    {
      "group": -1,
      "text": "Heat a little oil in a small saucepan and fry the onion until they begin to brown.  "
    },
    {
      "group": -1,
      "text": "Add the ginger, cumin and cinnamon and fry for {30 seconds}.  "
    },
    {
      "group": -1,
      "text": "Add the flour and stir well. Cook for {30 seconds}.  "
    },
    {
      "group": -1,
      "text": "Add the rest of the sauce ingredients and bring to the boil. Simmer for {2 minutes}. Taste and season appropriately.  "
    },
    {
      "group": -1,
      "text": "While the vegetables are cooking, heat a little oil in a frying pan. Add the pork steaks. Cook on a high heat for {2 minutes} each side. Turn down the heat, put a lid on the pan and cook for a further {3-4 minutes} each side. Pork steaks should not be 'bloody' but can still look quite pink inside.  "
    },
    {
      "group": -1,
      "text": "Drain the vegetables and serve with the steaks and the sauce."
    }
  ],
  "lowEffort": false,
  "miseEnPlace": false,
  "name": "Traditional pork steaks with honey and mustard sauce",
  "notes": null,
  "nutFree": false,
  "nutrition": null,
  "prepTime": "PT10M",
  "rating": "Neutral",
  "slug": "traditional-pork-steaks-with-honey-and-mustard-sauce",
  "source": "Nosh for graduates",
  "tags": null,
  "totalTime": "PT30M",
  "units": "metric",
  "url": null,
  "vegan": false,
  "yield_": "2"
}