{
  "archiveTimestamp": null,
  "archiveUrl": null,
  "category": "Seafood",
  "cookTime": "PT1M",
  "cuisine": null,
  "dairyFree": false,
  "dateCooked": "2015-12-08",
  "deadUrl": false,
  "description": null,
  "future": false,
  "glutenFree": false,
  "image": "tuna-noodles-with-honey-and-ginger-dressing.webp",
  "inactiveTime": null,
  "ingredient_headings": {
    "1": "Dressing"
  },
  "ingredients": [
    {
      "comment": "",
      "fdc_id": 170005,
      "formatted_quantity": "3",
      "group": -1,
      "name": "spring onions",
      "prep": "sliced lengthways",
      "quantity": "3",
      "synonym": "",
      "unit": ""
    },
    {
      "comment": "",
      "fdc_id": 2346406,
      "formatted_quantity": "¼",
      "group": -1,
      "name": "cucumber",
      "prep": "cut in half seeds removed and sliced thinly",
      "quantity": "0.25",
      "synonym": "",
      "unit": ""
    },
    {
      "comment": "",
      "fdc_id": 2258590,
      "formatted_quantity": "½",
      "group": -1,
      "name": "red pepper",
      "prep": "sliced thinly",
      "quantity": "0.5",
      "synonym": "",
      "unit": ""
    },
    {
      "comment": "",
      "fdc_id": "",
      "formatted_quantity": "1x",
      "group": -1,
      "name": "of tuna",
      "prep": "drained",
      "quantity": "1x",
      "synonym": "tuna",
      "unit": "185 g tin"
    },
    {
      "comment": "",
      "fdc_id": 2343835,
      "formatted_quantity": "0.5x",
      "group": -1,
      "name": "fresh egg noodles",
      "prep": "",
      "quantity": "0.5x",
      "synonym": "noodles",
      "unit": "400 g pack"
    },
    {
      "comment": "",
      "fdc_id": 2345841,
      "formatted_quantity": "2",
      "group": 1,
      "name": "honey",
      "prep": "",
      "quantity": "2",
      "synonym": "",
      "unit": "tsp"
    },
    {
      "comment": "",
      "fdc_id": 2341881,
      "formatted_quantity": "1",
      "group": 1,
      "name": "fish sauce",
      "prep": "",
      "quantity": "1",
      "synonym": "",
      "unit": "tbsp"
    },
    {
      "comment": "",
      "fdc_id": "",
      "formatted_quantity": "1",
      "group": 1,
      "name": "white wine vinegar",
      "prep": "",
      "quantity": "1",
      "synonym": "",
      "unit": "tbsp"
    },
    {
      "comment": "",
      "fdc_id": 748323,
      "formatted_quantity": "2",
      "group": 1,
      "name": "oil",
      "prep": "",
      "quantity": "2",
      "synonym": "",
      "unit": "tbsp"
    },
    {
      "comment": "",
      "fdc_id": 169231,
      "formatted_quantity": "1",
      "group": 1,
      "name": "grated fresh ginger",
      "prep": "",
      "quantity": "1",
      "synonym": "",
      "unit": "tsp"
    },
    {
      "comment": "",
      "fdc_id": 170106,
      "formatted_quantity": "1",
      "group": 1,
      "name": "fat red chilli",
      "prep": "deseeded and finely chopped",
      "quantity": "1",
      "synonym": "",
      "unit": ""
    },
    {
      "comment": "",
      "fdc_id": "",
      "formatted_quantity": "",
      "group": 1,
      "name": "salt and pepper",
      "prep": "",
      "quantity": "",
      "synonym": "",
      "unit": ""
    }
  ],
  "instruction_headings": null,
  "instructions": [
    {
      "group": -1,
      "text": "Mix the dressing ingredients together in a mug or bowl.  "
    },
    {
      "group": -1,
      "text": "In another bowl, mix togther the spring onions, cucumber, red pepper and tuna.  "
    },
    {
      "group": -1,
      "text": "Boil some water in the kettle, pour the water over the fresh egg noodles and leave to stand for {1 minute}. Drain  "
    },
    {
      "group": -1,
      "text": "Divide the noodles between the plates, placing the tune mix over the top. Drizzle over the dressing."
    }
  ],
  "lowEffort": false,
  "miseEnPlace": false,
  "name": "Tuna noodles with honey and ginger dressing",
  "notes": null,
  "nutFree": false,
  "nutrition": null,
  "prepTime": "PT20M",
  "rating": "Neutral",
  "slug": "tuna-noodles-with-honey-and-ginger-dressing",
  "source": "Nosh for graduates",
  "tags": null,
  "totalTime": "PT21M",
  "units": "metric",
  "url": null,
  "vegan": false,
  "yield_": "3"
}