{
  "archiveTimestamp": "2023-11-22 12:40:27",
  "archiveUrl": "https://web.archive.org/web/20231122124027/https://thehappyfoodie.co.uk/recipes/yotam-ottolenghis-ultimate-traybake-ragu/",
  "category": "Veggie",
  "cookTime": "PT85M",
  "cuisine": null,
  "dairyFree": false,
  "dateCooked": "2022-02-12",
  "deadUrl": false,
  "description": "The plant-based ragu to end all others: this recipe delivers an incredible punch of umami flavour that will satisfy vegans and meat-eaters alike. It also happens to be extremely easy to throw together, and can be served with pasta or used as the base for a lasagne or shepherd's pie.",
  "future": false,
  "glutenFree": false,
  "image": "ultimate-traybake-ragu.webp",
  "inactiveTime": null,
  "ingredient_headings": null,
  "ingredients": [
    {
      "comment": "",
      "fdc_id": 2258586,
      "formatted_quantity": "3",
      "group": -1,
      "name": "carrots",
      "prep": "peeled and chopped into large chunks",
      "quantity": "3",
      "synonym": "",
      "unit": ""
    },
    {
      "comment": "",
      "fdc_id": 790646,
      "formatted_quantity": "2",
      "group": -1,
      "name": "onions",
      "prep": "peeled and chopped into large chunks",
      "quantity": "2",
      "synonym": "",
      "unit": ""
    },
    {
      "comment": "",
      "fdc_id": "",
      "formatted_quantity": "300",
      "group": -1,
      "name": "oyster mushrooms",
      "prep": "roughly chopped",
      "quantity": "300",
      "synonym": "",
      "unit": "g"
    },
    {
      "comment": "",
      "fdc_id": "",
      "formatted_quantity": "60",
      "group": -1,
      "name": "dried porcini",
      "prep": "roughly blitzed",
      "quantity": "60",
      "synonym": "",
      "unit": "g"
    },
    {
      "comment": "",
      "fdc_id": 1104647,
      "formatted_quantity": "4",
      "group": -1,
      "name": "garlic",
      "prep": "crushed",
      "quantity": "4",
      "synonym": "",
      "unit": "cloves"
    },
    {
      "comment": "",
      "fdc_id": 1999634,
      "formatted_quantity": "3-4",
      "group": -1,
      "name": "plum tomatoes",
      "prep": "chopped into large chunks",
      "quantity": "3-4",
      "synonym": "",
      "unit": ""
    },
    {
      "comment": "",
      "fdc_id": 1750351,
      "formatted_quantity": "120",
      "group": -1,
      "name": "olive oil",
      "prep": "",
      "quantity": "120",
      "synonym": "oil",
      "unit": "ml"
    },
    {
      "comment": "",
      "fdc_id": "",
      "formatted_quantity": "70",
      "group": -1,
      "name": "white miso paste",
      "prep": "",
      "quantity": "70",
      "synonym": "miso",
      "unit": "g"
    },
    {
      "comment": "",
      "fdc_id": "",
      "formatted_quantity": "40",
      "group": -1,
      "name": "rose harissa (adjust according to the brand you are using)",
      "prep": "",
      "quantity": "40",
      "synonym": "harissa",
      "unit": "g"
    },
    {
      "comment": "",
      "fdc_id": 170459,
      "formatted_quantity": "4",
      "group": -1,
      "name": "tomato paste",
      "prep": "",
      "quantity": "4",
      "synonym": "",
      "unit": "tbsp"
    },
    {
      "comment": "",
      "fdc_id": 2342917,
      "formatted_quantity": "90",
      "group": -1,
      "name": "soy sauce",
      "prep": "",
      "quantity": "90",
      "synonym": "",
      "unit": "ml"
    },
    {
      "comment": "",
      "fdc_id": 170923,
      "formatted_quantity": "2",
      "group": -1,
      "name": "cumin seeds",
      "prep": "crushed",
      "quantity": "2",
      "synonym": "",
      "unit": "tsp"
    },
    {
      "comment": "",
      "fdc_id": "",
      "formatted_quantity": "180",
      "group": -1,
      "name": "dried brown or green lentils",
      "prep": "",
      "quantity": "180",
      "synonym": "",
      "unit": "g"
    },
    {
      "comment": "",
      "fdc_id": 170285,
      "formatted_quantity": "100",
      "group": -1,
      "name": "pearl barley",
      "prep": "",
      "quantity": "100",
      "synonym": "",
      "unit": "g"
    },
    {
      "comment": "",
      "fdc_id": "",
      "formatted_quantity": "1",
      "group": -1,
      "name": "vegetable or chicken stock",
      "prep": "",
      "quantity": "1",
      "synonym": "",
      "unit": "litre"
    },
    {
      "comment": "",
      "fdc_id": 2343046,
      "formatted_quantity": "160",
      "group": -1,
      "name": "coconut cream",
      "prep": "",
      "quantity": "160",
      "synonym": "",
      "unit": "g"
    },
    {
      "comment": "",
      "fdc_id": 173190,
      "formatted_quantity": "100",
      "group": -1,
      "name": "red wine",
      "prep": "",
      "quantity": "100",
      "synonym": "",
      "unit": "ml"
    },
    {
      "comment": "",
      "fdc_id": "",
      "formatted_quantity": "",
      "group": -1,
      "name": "salt and black pepper",
      "prep": "",
      "quantity": "",
      "synonym": "",
      "unit": ""
    }
  ],
  "instruction_headings": null,
  "instructions": [
    {
      "group": -1,
      "text": "Preheat the oven to [190°C] fan."
    },
    {
      "group": -1,
      "text": "Working in batches, put the first six ingredients into a food processor and pulse until everything is very finely chopped (or very finely chop everything by hand if you don't have a food processor)."
    },
    {
      "group": -1,
      "text": "Put the chopped vegetables into a large, 36 cm x 28 cm non-stick high-sided baking tray with the oil, miso, harissa, tomato paste, soy sauce and cumin seeds and mix very well. Bake for {40 minutes}, stirring halfway through, until browned around the edges and bubbling."
    },
    {
      "group": -1,
      "text": "Reduce the heat to [180°C] fan."
    },
    {
      "group": -1,
      "text": "Add all the remaining ingredients to the tray, along with <150> ml of water, ⅓ teaspoon of salt and a very generous grind of black pepper. Stir very well, scraping the crispy sides and bottom with a spatula. Cover tightly with foil and bake for another {40 minutes}. Remove the foil and bake for a final {5 minutes}. Set aside to rest for {15 minutes} for the sauce to be absorbed a little before serving."
    }
  ],
  "lowEffort": false,
  "miseEnPlace": false,
  "name": "Ultimate traybake ragu",
  "notes": null,
  "nutFree": false,
  "nutrition": null,
  "prepTime": "PT10M",
  "rating": "Neutral",
  "slug": "ultimate-traybake-ragu",
  "source": "thehappyfoodie.co.uk",
  "tags": null,
  "totalTime": "PT1H35M",
  "units": "metric",
  "url": "https://thehappyfoodie.co.uk/recipes/yotam-ottolenghis-ultimate-traybake-ragu/",
  "vegan": true,
  "yield_": "6-8"
}