{
  "archiveTimestamp": "2023-11-22 12:41:17",
  "archiveUrl": "https://web.archive.org/web/20231122124117/https://thewanderlustkitchen.com/vegan-chickpea-tikka-masala/",
  "category": "Veggie",
  "cookTime": "PT35M",
  "cuisine": "Indian",
  "dairyFree": false,
  "dateCooked": "2019-05-14",
  "deadUrl": false,
  "description": "This delicious (and vegan!) chickpea tikka masala recipe hits the spot when you're craving Indian food. Serve it up over rice and garnish with plenty of fresh cilantro!",
  "future": false,
  "glutenFree": false,
  "image": "vegan-chickpea-tikka-masala.webp",
  "inactiveTime": null,
  "ingredient_headings": {
    "1": "To prepare the cauliflower",
    "2": "For the chickpea masala"
  },
  "ingredients": [
    {
      "comment": "",
      "fdc_id": "",
      "formatted_quantity": "3",
      "group": 1,
      "name": "cauliflower florets (about half a head)",
      "prep": "",
      "quantity": "3",
      "synonym": "cauliflower",
      "unit": "cups"
    },
    {
      "comment": "",
      "fdc_id": "330458",
      "formatted_quantity": "1",
      "group": 1,
      "name": "coconut oil",
      "prep": "melted",
      "quantity": "1",
      "synonym": "",
      "unit": "tbsp"
    },
    {
      "comment": "",
      "fdc_id": "2124946",
      "formatted_quantity": "2",
      "group": 1,
      "name": "garam masala",
      "prep": "",
      "quantity": "2",
      "synonym": "",
      "unit": "tsps"
    },
    {
      "comment": "",
      "fdc_id": "",
      "formatted_quantity": "¼",
      "group": 1,
      "name": "table salt",
      "prep": "",
      "quantity": "0.25",
      "synonym": "salt",
      "unit": "tsp"
    },
    {
      "comment": "",
      "fdc_id": "330458",
      "formatted_quantity": "2",
      "group": 2,
      "name": "coconut oil",
      "prep": "",
      "quantity": "2",
      "synonym": "",
      "unit": "tbsps"
    },
    {
      "comment": "",
      "fdc_id": "790646",
      "formatted_quantity": "1",
      "group": 2,
      "name": "yellow onion",
      "prep": "finely chopped",
      "quantity": "1",
      "synonym": "onion",
      "unit": "medium"
    },
    {
      "comment": "",
      "fdc_id": "1999634",
      "formatted_quantity": "3",
      "group": 2,
      "name": "tomatoes",
      "prep": "chopped",
      "quantity": "3",
      "synonym": "fresh tomatoes",
      "unit": "medium"
    },
    {
      "comment": "(reserve some leaves for garnish)",
      "fdc_id": "",
      "formatted_quantity": "¼",
      "group": 2,
      "name": "minced cilantro stems and leaves",
      "prep": "",
      "quantity": "0.25",
      "synonym": "cilantro",
      "unit": "cup"
    },
    {
      "comment": "",
      "fdc_id": "",
      "formatted_quantity": "4",
      "group": 2,
      "name": "garam masala",
      "prep": "",
      "quantity": "4",
      "synonym": "",
      "unit": "tsps"
    },
    {
      "comment": "",
      "fdc_id": "",
      "formatted_quantity": "¼",
      "group": 2,
      "name": "table salt",
      "prep": "",
      "quantity": "0.25",
      "synonym": "salt",
      "unit": "tsp"
    },
    {
      "comment": "",
      "fdc_id": "333281",
      "formatted_quantity": "1x",
      "group": 2,
      "name": "crushed tomatoes",
      "prep": "",
      "quantity": "1x",
      "synonym": "canned tomatoes",
      "unit": "300 g can"
    },
    {
      "comment": "",
      "fdc_id": "1104647",
      "formatted_quantity": "5",
      "group": 2,
      "name": "garlic",
      "prep": "peeled and grated",
      "quantity": "5",
      "synonym": "",
      "unit": "large cloves"
    },
    {
      "comment": "",
      "fdc_id": "169231",
      "formatted_quantity": "2in",
      "group": 2,
      "name": "ginger root",
      "prep": "grated",
      "quantity": "2in",
      "synonym": "ginger",
      "unit": "piece"
    },
    {
      "comment": "",
      "fdc_id": "172240",
      "formatted_quantity": "1",
      "group": 2,
      "name": "red wine vinegar",
      "prep": "",
      "quantity": "1",
      "synonym": "vinegar",
      "unit": "tbsp"
    },
    {
      "comment": "",
      "fdc_id": "2644288",
      "formatted_quantity": "1x",
      "group": 2,
      "name": "cooked chickpeas",
      "prep": "",
      "quantity": "1x",
      "synonym": "chickpeas",
      "unit": "400 g can"
    },
    {
      "comment": "",
      "fdc_id": "2343044",
      "formatted_quantity": "2",
      "group": 2,
      "name": "full fat coconut milk",
      "prep": "",
      "quantity": "2",
      "synonym": "coconut milk",
      "unit": "tbsps"
    },
    {
      "comment": "",
      "fdc_id": "",
      "formatted_quantity": "",
      "group": 2,
      "name": "Reserved cilantro leaves for garnish",
      "prep": "",
      "quantity": "",
      "synonym": "",
      "unit": ""
    }
  ],
  "instruction_headings": null,
  "instructions": [
    {
      "group": -1,
      "text": "Preheat the oven to [190°C]. Place the cauliflower in a medium mixing bowl and toss with <1> tablespoon melted coconut oil, <¼> teaspoon salt, and <2> teaspoons of the garam masala. Transfer to a baking sheet and roast for {30 minutes}, turning once halfway through the cooking time."
    },
    {
      "group": -1,
      "text": "Set a large skillet over medium-high heat. Melt two tablespoons of coconut oil in the pan. Once the oil is shimmering, add the onion and cook for {3 minutes} to soften. Add the fresh tomatoes and cilantro; season with a pinch of salt. Cook, breaking up the tomatoes with a wooden spoon, until the water has evaporated and the tomatoes appear dry (about {5 minutes})."
    },
    {
      "group": -1,
      "text": "Add the garam masala to the pan, stir well, and cook for {1 minute} to toast the spices. Immediately add the canned tomatoes and a half-can of water. Allow the mixture to come to a boil, then turn the heat down to medium-low. Add the garlic, ginger, and red wine vinegar. Simmer for {10 minutes}, or until the cauliflower has finished cooking."
    },
    {
      "group": -1,
      "text": "Transfer half of the sauce mixture to a blender and puree. Return the sauce to the pan. Fold in the chickpeas and roasted cauliflower. Taste and add salt as needed. Add the coconut milk and simmer for another {5 minutes} to infuse the flavors."
    },
    {
      "group": -1,
      "text": "Garnish with remaining cilantro leaves and serve over a bed of cooked basmati rice."
    }
  ],
  "lowEffort": false,
  "miseEnPlace": false,
  "name": "Vegan chickpea tikka masala",
  "notes": null,
  "nutFree": false,
  "nutrition": {
    "calories": 190,
    "carbohydrates": 22,
    "fat": 10,
    "fibre": 7,
    "protein": 6,
    "salt": 0.32,
    "saturates": 7,
    "sugars": 7
  },
  "prepTime": "PT10M",
  "rating": "Neutral",
  "slug": "vegan-chickpea-tikka-masala",
  "source": "www.thewanderlustkitchen.com",
  "tags": null,
  "totalTime": "PT45M",
  "units": "metric",
  "url": "https://thewanderlustkitchen.com/vegan-chickpea-tikka-masala/",
  "vegan": true,
  "yield_": "6"
}