{
  "archiveTimestamp": "2023-11-22 12:50:21",
  "archiveUrl": "https://web.archive.org/web/20231122125021/https://www.pickuplimes.com/recipe/warm-pearl-couscous-salad-542",
  "category": "Veggie",
  "cookTime": "PT17M",
  "cuisine": null,
  "dairyFree": false,
  "dateCooked": "2021-06-06",
  "deadUrl": false,
  "description": "Pearl couscous is technically not couscous, but more of a pasta. The small round wheat-based balls are pre-toasted, which gives them their unique chewy texture and nutty flavour. This salad is delicious enjoyed warm as a meal, or cold as a summery-salad main dish or side dish.",
  "future": false,
  "glutenFree": false,
  "image": "warm-pearl-couscous-salad.webp",
  "inactiveTime": null,
  "ingredient_headings": {
    "1": "Salad",
    "2": "Dressing"
  },
  "ingredients": [
    {
      "comment": "",
      "fdc_id": "",
      "formatted_quantity": "1",
      "group": 1,
      "name": "uncooked pearl couscous",
      "prep": "",
      "quantity": "1",
      "substitute": [
        "Dry fusilli",
        "Uncooked couscous",
        "Uncooked extra course bulghar"
      ],
      "synonym": "couscous",
      "unit": "cup"
    },
    {
      "comment": "",
      "fdc_id": "1750351",
      "formatted_quantity": "",
      "group": 1,
      "name": "olive oil",
      "prep": "",
      "quantity": "",
      "synonym": "",
      "unit": ""
    },
    {
      "comment": "",
      "fdc_id": "2644288",
      "formatted_quantity": "2",
      "group": 1,
      "name": "cooked chickpeas",
      "prep": "",
      "quantity": "2",
      "substitute": [
        "Cooked brown lentils"
      ],
      "synonym": "chickpeas",
      "unit": "cup"
    },
    {
      "comment": "",
      "fdc_id": "2378728",
      "formatted_quantity": "2",
      "group": 1,
      "name": "cherry tomatoes",
      "prep": "",
      "quantity": "2",
      "substitute": [
        "Red bell pepper"
      ],
      "synonym": "tomatoes",
      "unit": "cup"
    },
    {
      "comment": "",
      "fdc_id": "746775",
      "formatted_quantity": "½",
      "group": 1,
      "name": "salt",
      "prep": "",
      "quantity": "0.5",
      "synonym": "",
      "unit": "tsp"
    },
    {
      "comment": "",
      "fdc_id": "170931",
      "formatted_quantity": "¼",
      "group": 1,
      "name": "ground black pepper",
      "prep": "",
      "quantity": "0.25",
      "synonym": "pepper",
      "unit": "tsp"
    },
    {
      "comment": "",
      "fdc_id": "2346406",
      "formatted_quantity": "½",
      "group": 1,
      "name": "cucumber",
      "prep": "",
      "quantity": "0.5",
      "synonym": "",
      "unit": ""
    },
    {
      "comment": "",
      "fdc_id": "2345617",
      "formatted_quantity": "¼",
      "group": 1,
      "name": "sliced black olives",
      "prep": "",
      "quantity": "0.25",
      "substitute": [
        "Green olive",
        "Kalamata olives"
      ],
      "synonym": "olives",
      "unit": "cup"
    },
    {
      "comment": "",
      "fdc_id": "173475",
      "formatted_quantity": "3",
      "group": 1,
      "name": "fresh mint leaves",
      "prep": "",
      "quantity": "3",
      "synonym": "",
      "unit": "tbsp"
    },
    {
      "comment": "",
      "fdc_id": "2345300",
      "formatted_quantity": "2",
      "group": 1,
      "name": "fresh basil",
      "prep": "",
      "quantity": "2",
      "synonym": "",
      "unit": "tbsp"
    },
    {
      "comment": "",
      "fdc_id": "2345316",
      "formatted_quantity": "2",
      "group": 1,
      "name": "fresh parsley",
      "prep": "",
      "quantity": "2",
      "synonym": "",
      "unit": "tbsp"
    },
    {
      "comment": "",
      "fdc_id": "",
      "formatted_quantity": "¼",
      "group": 1,
      "name": "roasted almonds",
      "prep": "",
      "quantity": "0.25",
      "substitute": [
        "Roasted pumpkin seeds",
        "Roasted sunflower seeds"
      ],
      "synonym": "almonds",
      "unit": "cup"
    },
    {
      "comment": "",
      "fdc_id": "1750351",
      "formatted_quantity": "3",
      "group": 2,
      "name": "olive oil",
      "prep": "",
      "quantity": "3",
      "synonym": "",
      "unit": "tbsp"
    },
    {
      "comment": "",
      "fdc_id": "172240",
      "formatted_quantity": "3",
      "group": 2,
      "name": "red wine vinegar",
      "prep": "",
      "quantity": "3",
      "substitute": [
        "Apple cider vinegar",
        "White wine vinegar"
      ],
      "synonym": "",
      "unit": "tbsp"
    },
    {
      "comment": "",
      "fdc_id": "2344675",
      "formatted_quantity": "1",
      "group": 2,
      "name": "fresh lemon juice",
      "prep": "",
      "quantity": "1",
      "substitute": [
        "Fresh lime juice"
      ],
      "synonym": "",
      "unit": "tbsp"
    },
    {
      "comment": "",
      "fdc_id": "171329",
      "formatted_quantity": "¼",
      "group": 2,
      "name": "paprika powder",
      "prep": "",
      "quantity": "0.25",
      "synonym": "",
      "unit": "tsp"
    }
  ],
  "instruction_headings": null,
  "instructions": [
    {
      "group": -1,
      "text": "Cook the couscous according to the package instructions. When cooked, drain."
    },
    {
      "group": -1,
      "text": "Meanwhile, to a medium pan on medium-high heat, add the oil, chickpeas, tomatoes, salt, and pepper. Cook for about {5-7 minutes}, stirring occasionally until the tomatoes have softened a little bit. Remove from the heat before the tomatoes become too soft."
    },
    {
      "group": -1,
      "text": "In a small bowl, mix together the ingredients for the dressing."
    },
    {
      "group": -1,
      "text": "To a large bowl, add the drained couscous, tomatoes and chickpea mixture, cucumber slices, olives, and fresh herbs. Add the dressing, toss to combine, spinkle over the almonds, and enjoy!"
    }
  ],
  "lowEffort": false,
  "miseEnPlace": false,
  "name": "Warm pearl couscous salad",
  "notes": null,
  "nutFree": false,
  "nutrition": {
    "calories": 580,
    "carbohydrates": 69,
    "fat": 27,
    "fibre": 11,
    "protein": 19,
    "salt": 570,
    "saturates": 3,
    "sugars": 8
  },
  "prepTime": "PT08M",
  "rating": "Neutral",
  "slug": "warm-pearl-couscous-salad",
  "source": "www.pickuplimes.com",
  "tags": null,
  "totalTime": "PT25M",
  "units": "imperial",
  "url": "https://www.pickuplimes.com/recipe/warm-pearl-couscous-salad-542",
  "vegan": true,
  "yield_": "4"
}