{
  "archiveTimestamp": null,
  "archiveUrl": null,
  "category": "Veggie",
  "cookTime": "PT20M",
  "cuisine": "Italian",
  "dairyFree": false,
  "dateCooked": "2021-03-22",
  "deadUrl": false,
  "description": "Messing with an Italian classic is not something that we do lightly, but adding za’atar really doesn’t take anything away from the much-admired simplicity of this dish. All it does is add a layer of delicious herbiness that goes hand in hand with the pepper and the cheese.",
  "future": false,
  "glutenFree": false,
  "image": "za-atar-cacio-e-pepe.webp",
  "inactiveTime": null,
  "ingredient_headings": null,
  "ingredients": [
    {
      "comment": "(or another long pasta, cooking tine adjusted if necessary)",
      "fdc_id": "",
      "formatted_quantity": "400",
      "group": -1,
      "name": "dried bucatini",
      "prep": "",
      "quantity": "400",
      "synonym": "bucatini",
      "unit": "g"
    },
    {
      "comment": "",
      "fdc_id": 789828,
      "formatted_quantity": "50",
      "group": -1,
      "name": "unsalted butter",
      "prep": "",
      "quantity": "50",
      "synonym": "butter",
      "unit": "g"
    },
    {
      "comment": "plus 1&frac12; tsp to serve",
      "fdc_id": "",
      "formatted_quantity": "10",
      "group": -1,
      "name": "za'atar",
      "prep": "",
      "quantity": "10",
      "synonym": "",
      "unit": "g"
    },
    {
      "comment": "",
      "fdc_id": 170931,
      "formatted_quantity": "2",
      "group": -1,
      "name": "freshly cracked black pepper",
      "prep": "",
      "quantity": "2",
      "synonym": "pepper",
      "unit": "tsp"
    },
    {
      "comment": "",
      "fdc_id": 325036,
      "formatted_quantity": "130",
      "group": -1,
      "name": "Parmesan",
      "prep": "very finely grated",
      "quantity": "130",
      "synonym": "",
      "unit": "g"
    },
    {
      "comment": "",
      "fdc_id": "",
      "formatted_quantity": "30",
      "group": -1,
      "name": "Pecorino Romano",
      "prep": "very finely grated",
      "quantity": "30",
      "synonym": "pecorino",
      "unit": "g"
    },
    {
      "comment": "",
      "fdc_id": 1750351,
      "formatted_quantity": "2½",
      "group": -1,
      "name": "olive oil",
      "prep": "",
      "quantity": "2.5",
      "synonym": "",
      "unit": "tbsp"
    },
    {
      "comment": "(optional)",
      "fdc_id": "",
      "formatted_quantity": "2",
      "group": -1,
      "name": "picked marjoram leaves (optional)",
      "prep": "picked",
      "quantity": "2",
      "synonym": "",
      "unit": "tsp"
    },
    {
      "comment": "",
      "fdc_id": 746775,
      "formatted_quantity": "",
      "group": -1,
      "name": "salt",
      "prep": "",
      "quantity": "",
      "synonym": "",
      "unit": ""
    }
  ],
  "instruction_headings": null,
  "instructions": [
    {
      "group": -1,
      "text": "Bring <1.3> litres of water to the boil in a wide pan on a medium-high heat, then season with <¾> teaspoon of salt. Add the bucatini and cook for {9 minutes} (or per packet instructions) until al dente, stirring every now and then so they don't stick together or to the bottom of the pan, and to ensure they are submerged. Drain, reserving all the cooking water (you should have about <520> ml - if not, top up with a little hot water)."
    },
    {
      "group": -1,
      "text": "Melt the butter in a large, high-sided, non-stick saute pan on a high heat until bubbling, then add the za'atar and pepper and cook for another minute, stirring, until fragrant. Add the reserved cooking water, bring to a rapid boil and cook for {5 minutes}, until silky and reduced a little. Add the pasta and stir vigorously into the sauce. Add the Parmesan in two batches, continuing to stir vigorously as you go and waiting until the first half has melted before adding the next. Once the Parmesan has all melted, add the pecorino, continuing to stir until melted and the sauce is smooth and silky."
    },
    {
      "group": -1,
      "text": "Transfer to a lipped and finish with the oil, the marjoram (if using), the remaining za'atar and a small pinch of salt. Serve at once."
    }
  ],
  "lowEffort": false,
  "miseEnPlace": false,
  "name": "Za'atar cacio e pepe",
  "notes": null,
  "nutFree": false,
  "nutrition": null,
  "prepTime": "PT5M",
  "rating": "Neutral",
  "slug": "za-atar-cacio-e-pepe",
  "source": "FLAVOUR by Ottolenghi",
  "tags": null,
  "totalTime": "PT25M",
  "units": "metric",
  "url": null,
  "vegan": false,
  "yield_": "4"
}